
(module SOT91P240X110-3N_DMG2305UX-7 (layer F.Cu) (tedit 60B94F79)
  (descr "")
  (fp_text reference REF** (at -0.13 -2.548 0) (layer F.SilkS)
    (effects (font (size 0.8 0.8) (thickness 0.015)))
  )
  (fp_text value SOT91P240X110-3N_DMG2305UX-7 (at 11.554 2.548 0) (layer F.Fab)
    (effects (font (size 0.8 0.8) (thickness 0.015)))
  )
  (fp_line (start -0.7 -1.5) (end 0.7 -1.5) (layer F.Fab) (width 0.127))
  (fp_line (start 0.7 -1.5) (end 0.7 1.5) (layer F.Fab) (width 0.127))
  (fp_line (start 0.7 1.5) (end -0.7 1.5) (layer F.Fab) (width 0.127))
  (fp_line (start -0.7 1.5) (end -0.7 -1.5) (layer F.Fab) (width 0.127))
  (fp_line (start -0.7 -1.55) (end 0.7 -1.55) (layer F.SilkS) (width 0.127))
  (fp_line (start 0.7 -1.55) (end 0.7 -0.63) (layer F.SilkS) (width 0.127))
  (fp_line (start 0.7 0.63) (end 0.7 1.55) (layer F.SilkS) (width 0.127))
  (fp_line (start 0.7 1.55) (end -0.7 1.55) (layer F.SilkS) (width 0.127))
  (fp_line (start 0.95 -1.75) (end 0.95 -0.56) (layer F.CrtYd) (width 0.05))
  (fp_line (start 0.95 -0.56) (end 1.87 -0.56) (layer F.CrtYd) (width 0.05))
  (fp_line (start 1.87 -0.56) (end 1.87 0.56) (layer F.CrtYd) (width 0.05))
  (fp_line (start 1.87 0.56) (end 0.95 0.56) (layer F.CrtYd) (width 0.05))
  (fp_line (start 0.95 0.56) (end 0.95 1.75) (layer F.CrtYd) (width 0.05))
  (fp_line (start 0.95 1.75) (end -0.95 1.75) (layer F.CrtYd) (width 0.05))
  (fp_line (start -0.95 1.75) (end -0.95 1.47) (layer F.CrtYd) (width 0.05))
  (fp_line (start -0.95 1.47) (end -1.87 1.47) (layer F.CrtYd) (width 0.05))
  (fp_line (start -1.87 1.47) (end -1.87 -1.47) (layer F.CrtYd) (width 0.05))
  (fp_line (start -1.87 -1.47) (end -0.95 -1.47) (layer F.CrtYd) (width 0.05))
  (fp_line (start -0.95 -1.47) (end -0.95 -1.75) (layer F.CrtYd) (width 0.05))
  (fp_line (start -0.95 -1.75) (end 0.95 -1.75) (layer F.CrtYd) (width 0.05))
  (fp_circle (center -2.1 -0.915) (end -2.0 -0.915) (layer F.Fab) (width 0.2))
  (fp_circle (center -2.1 -0.915) (end -2.0 -0.915) (layer F.SilkS) (width 0.2))
  (pad 1 smd rect (at -1.025 -0.915) (size 1.18 0.61) (layers F.Cu F.Mask F.Paste))
  (pad 2 smd rect (at -1.025 0.915) (size 1.18 0.61) (layers F.Cu F.Mask F.Paste))
  (pad 3 smd rect (at 1.025 0.0) (size 1.18 0.61) (layers F.Cu F.Mask F.Paste))
)