EESchema Schematic File Version 4
LIBS:UPS-uHAT_Compiled_Circuit-cache
EELAYER 29 0
EELAYER END
$Descr A4 11693 8268
encoding utf-8
Sheet 1 1
Title ""
Date ""
Rev ""
Comp ""
Comment1 ""
Comment2 ""
Comment3 ""
Comment4 ""
$EndDescr
$Comp
L Device:R_Small_US R4
U 1 1 60B8FE9C
P 9150 4900
F 0 "R4" H 9218 4946 50  0000 L CNN
F 1 "330" H 9218 4855 50  0000 L CNN
F 2 "Resistor_THT:R_Axial_DIN0207_L6.3mm_D2.5mm_P2.54mm_Vertical" H 9150 4900 50  0001 C CNN
F 3 "~" H 9150 4900 50  0001 C CNN
	1    9150 4900
	1    0    0    -1  
$EndComp
$Comp
L Device:LED D7
U 1 1 60B90188
P 9150 5400
F 0 "D7" V 9189 5283 50  0000 R CNN
F 1 "LED" V 9098 5283 50  0000 R CNN
F 2 "LED_SMD:LED_0805_2012Metric_Pad1.15x1.40mm_HandSolder" H 9150 5400 50  0001 C CNN
F 3 "~" H 9150 5400 50  0001 C CNN
	1    9150 5400
	0    -1   -1   0   
$EndComp
$Comp
L power:GND #PWR0101
U 1 1 60B90A9E
P 9150 5850
F 0 "#PWR0101" H 9150 5600 50  0001 C CNN
F 1 "GND" H 9155 5677 50  0000 C CNN
F 2 "" H 9150 5850 50  0001 C CNN
F 3 "" H 9150 5850 50  0001 C CNN
	1    9150 5850
	1    0    0    -1  
$EndComp
Wire Wire Line
	9150 5550 9150 5850
Wire Wire Line
	9150 5250 9150 5000
Wire Wire Line
	9150 4600 9150 4800
Text Label 9150 4600 2    50   ~ 0
PowerStatusLED
$Comp
L Device:R_Small_US R1
U 1 1 60B696FA
P 9720 4635
F 0 "R1" H 9788 4681 50  0000 L CNN
F 1 "21" H 9530 4620 50  0000 L CNN
F 2 "Resistor_THT:R_Axial_DIN0309_L9.0mm_D3.2mm_P2.54mm_Vertical" H 9720 4635 50  0001 C CNN
F 3 "~" H 9720 4635 50  0001 C CNN
	1    9720 4635
	1    0    0    -1  
$EndComp
Wire Wire Line
	9720 4735 9720 5045
$Comp
L Device:R_Small_US R2
U 1 1 60B6B541
P 10285 4655
F 0 "R2" H 10353 4701 50  0000 L CNN
F 1 "60.4" H 10040 4655 50  0000 L CNN
F 2 "Resistor_THT:R_Axial_DIN0309_L9.0mm_D3.2mm_P2.54mm_Vertical" H 10285 4655 50  0001 C CNN
F 3 "~" H 10285 4655 50  0001 C CNN
	1    10285 4655
	1    0    0    -1  
$EndComp
$Comp
L Device:D_Zener D1
U 1 1 60B6C09A
P 9720 5195
F 0 "D1" V 9674 5274 50  0000 L CNN
F 1 "10" V 9740 4955 50  0000 L CNN
F 2 "Diode_SMD:D_SOD-523" H 9720 5195 50  0001 C CNN
F 3 "~" H 9720 5195 50  0001 C CNN
	1    9720 5195
	0    1    1    0   
$EndComp
$Comp
L Device:D_Zener D2
U 1 1 60B6DE51
P 10285 5200
F 0 "D2" V 10239 5279 50  0000 L CNN
F 1 "9.1" V 10295 4985 50  0000 L CNN
F 2 "Diode_SMD:D_SOD-523" H 10285 5200 50  0001 C CNN
F 3 "~" H 10285 5200 50  0001 C CNN
	1    10285 5200
	0    1    1    0   
$EndComp
Wire Wire Line
	10285 4755 10285 5050
Wire Wire Line
	10285 4200 10285 4555
Wire Wire Line
	9720 4200 9720 4535
$Comp
L Device:R_Small_US R3
U 1 1 60B7EFE1
P 10850 4655
F 0 "R3" H 10918 4701 50  0000 L CNN
F 1 "95.3" H 10620 4655 50  0000 L CNN
F 2 "Resistor_THT:R_Axial_DIN0309_L9.0mm_D3.2mm_P2.54mm_Vertical" H 10850 4655 50  0001 C CNN
F 3 "~" H 10850 4655 50  0001 C CNN
	1    10850 4655
	1    0    0    -1  
$EndComp
$Comp
L Device:D_Zener D3
U 1 1 60B7EFE7
P 10850 5200
F 0 "D3" V 10804 5279 50  0000 L CNN
F 1 "8.2" V 10845 4980 50  0000 L CNN
F 2 "Diode_SMD:D_SOD-523" H 10850 5200 50  0001 C CNN
F 3 "~" H 10850 5200 50  0001 C CNN
	1    10850 5200
	0    1    1    0   
$EndComp
Wire Wire Line
	10850 4755 10850 5050
Wire Wire Line
	10850 5350 10850 5500
Wire Wire Line
	10850 4200 10850 4555
Wire Wire Line
	10285 4200 10850 4200
Wire Wire Line
	9720 5345 9720 5480
$Comp
L Device:LED D4
U 1 1 60B82880
P 9720 5630
F 0 "D4" V 9759 5513 50  0000 R CNN
F 1 "LED" V 9668 5513 50  0000 R CNN
F 2 "LED_SMD:LED_0805_2012Metric_Pad1.15x1.40mm_HandSolder" H 9720 5630 50  0001 C CNN
F 3 "~" H 9720 5630 50  0001 C CNN
	1    9720 5630
	0    -1   -1   0   
$EndComp
Wire Wire Line
	10285 5350 10285 5500
$Comp
L Device:LED D5
U 1 1 60B844E3
P 10285 5650
F 0 "D5" V 10324 5533 50  0000 R CNN
F 1 "LED" V 10233 5533 50  0000 R CNN
F 2 "LED_SMD:LED_0805_2012Metric_Pad1.15x1.40mm_HandSolder" H 10285 5650 50  0001 C CNN
F 3 "~" H 10285 5650 50  0001 C CNN
	1    10285 5650
	0    -1   -1   0   
$EndComp
$Comp
L Device:LED D6
U 1 1 60B8520F
P 10850 5650
F 0 "D6" V 10889 5533 50  0000 R CNN
F 1 "LED" V 10798 5533 50  0000 R CNN
F 2 "LED_SMD:LED_0805_2012Metric_Pad1.15x1.40mm_HandSolder" H 10850 5650 50  0001 C CNN
F 3 "~" H 10850 5650 50  0001 C CNN
	1    10850 5650
	0    -1   -1   0   
$EndComp
Wire Wire Line
	9720 6080 9720 5780
Wire Wire Line
	10850 6080 10850 5800
$Comp
L Switch:SW_Push SW1
U 1 1 60B8B64B
P 9400 4200
F 0 "SW1" H 9400 4485 50  0000 C CNN
F 1 "SW_Push" H 9400 4394 50  0000 C CNN
F 2 "Button_Switch_THT:SW_PUSH_6mm_H5mm" H 9400 4400 50  0001 C CNN
F 3 "~" H 9400 4400 50  0001 C CNN
	1    9400 4200
	1    0    0    -1  
$EndComp
Text Label 9000 4200 2    50   ~ 0
Vbatt
Wire Wire Line
	9720 6080 10285 6080
Wire Wire Line
	10285 6080 10850 6080
Wire Wire Line
	10285 5800 10285 6080
Connection ~ 10285 6080
Wire Wire Line
	10285 6080 10285 6255
$Comp
L power:GND #PWR0102
U 1 1 60B8E00E
P 10285 6255
F 0 "#PWR0102" H 10285 6005 50  0001 C CNN
F 1 "GND" H 10290 6082 50  0000 C CNN
F 2 "" H 10285 6255 50  0001 C CNN
F 3 "" H 10285 6255 50  0001 C CNN
	1    10285 6255
	1    0    0    -1  
$EndComp
Wire Wire Line
	9000 4200 9200 4200
Connection ~ 9720 4200
Wire Wire Line
	9720 4200 10285 4200
Wire Wire Line
	9600 4200 9720 4200
Connection ~ 10285 4200
$Comp
L Device:R_Small_US R10
U 1 1 60B2374E
P 6250 3350
F 0 "R10" H 6318 3396 50  0000 L CNN
F 1 "1k" H 6318 3305 50  0000 L CNN
F 2 "Resistor_THT:R_Axial_DIN0207_L6.3mm_D2.5mm_P2.54mm_Vertical" H 6250 3350 50  0001 C CNN
F 3 "~" H 6250 3350 50  0001 C CNN
	1    6250 3350
	1    0    0    -1  
$EndComp
$Comp
L Device:R_Small_US R9
U 1 1 60B2435B
P 5850 3350
F 0 "R9" H 5918 3396 50  0000 L CNN
F 1 "20k" H 5918 3305 50  0000 L CNN
F 2 "Resistor_THT:R_Axial_DIN0207_L6.3mm_D2.5mm_P2.54mm_Vertical" H 5850 3350 50  0001 C CNN
F 3 "~" H 5850 3350 50  0001 C CNN
	1    5850 3350
	1    0    0    -1  
$EndComp
$Comp
L Device:Q_NPN_BCE Q1
U 1 1 60B25ED0
P 6150 3750
F 0 "Q1" H 6341 3796 50  0000 L CNN
F 1 "SST2222A" H 6341 3705 50  0000 L CNN
F 2 "Package_TO_SOT_SMD:SOT-23" H 6350 3850 50  0001 C CNN
F 3 "https://datasheetspdf.com/pdf-file/830453/Rohm/SST2222A/1" H 6150 3750 50  0001 C CNN
	1    6150 3750
	1    0    0    -1  
$EndComp
$Comp
L Device:Q_NPN_BCE Q2
U 1 1 60B26DBB
P 6650 3500
F 0 "Q2" H 6841 3546 50  0000 L CNN
F 1 "SST2222A" H 6841 3455 50  0000 L CNN
F 2 "Package_TO_SOT_SMD:SOT-23" H 6850 3600 50  0001 C CNN
F 3 "https://datasheetspdf.com/pdf-file/830453/Rohm/SST2222A/1" H 6650 3500 50  0001 C CNN
	1    6650 3500
	1    0    0    -1  
$EndComp
$Comp
L power:GND #PWR0103
U 1 1 60B323D0
P 6750 4150
F 0 "#PWR0103" H 6750 3900 50  0001 C CNN
F 1 "GND" H 6755 3977 50  0000 C CNN
F 2 "" H 6750 4150 50  0001 C CNN
F 3 "" H 6750 4150 50  0001 C CNN
	1    6750 4150
	1    0    0    -1  
$EndComp
$Comp
L power:GND #PWR0104
U 1 1 60B33698
P 6250 4150
F 0 "#PWR0104" H 6250 3900 50  0001 C CNN
F 1 "GND" H 6255 3977 50  0000 C CNN
F 2 "" H 6250 4150 50  0001 C CNN
F 3 "" H 6250 4150 50  0001 C CNN
	1    6250 4150
	1    0    0    -1  
$EndComp
Text Label 7450 3750 2    50   ~ 0
Switch
Text Label 7450 3850 2    50   ~ 0
PowerStatusLED
NoConn ~ 4800 7000
NoConn ~ 4800 6900
NoConn ~ 4800 6600
NoConn ~ 4800 6500
NoConn ~ 4800 6400
NoConn ~ 4800 6300
NoConn ~ 4800 6100
NoConn ~ 4800 6000
Text Label 4800 5800 0    50   ~ 0
Vsupp
Text Label 6050 6700 0    50   ~ 0
Vbatt
$Comp
L power:GND #PWR0105
U 1 1 60B90D35
P 6350 6850
F 0 "#PWR0105" H 6350 6600 50  0001 C CNN
F 1 "GND" H 6355 6677 50  0000 C CNN
F 2 "" H 6350 6850 50  0001 C CNN
F 3 "" H 6350 6850 50  0001 C CNN
	1    6350 6850
	1    0    0    -1  
$EndComp
Text Label 5850 3250 1    50   ~ 0
Vsupp
Text Label 6250 3150 1    50   ~ 0
Vbatt
Text Label 6750 3150 1    50   ~ 0
Vbatt
Wire Wire Line
	6250 3150 6250 3250
Wire Wire Line
	6250 3450 6250 3500
Wire Wire Line
	6750 3150 6750 3300
Wire Wire Line
	6450 3500 6250 3500
Connection ~ 6250 3500
Wire Wire Line
	6250 3500 6250 3550
Wire Wire Line
	5850 3450 5850 3750
Wire Wire Line
	5850 3750 5950 3750
Wire Wire Line
	6250 3950 6250 4150
Wire Wire Line
	6750 4050 6750 4150
Wire Wire Line
	6750 3700 6750 3750
Wire Wire Line
	7450 3850 6850 3850
Wire Wire Line
	6850 3850 6850 3750
Wire Wire Line
	6850 3750 6750 3750
Connection ~ 6750 3750
Wire Wire Line
	6750 3750 6750 3850
Wire Wire Line
	7450 3750 6850 3750
Connection ~ 6850 3750
Wire Wire Line
	6350 6850 6350 6500
NoConn ~ 3900 7300
$Comp
L power:GND #PWR0106
U 1 1 60B63465
P 4200 7300
F 0 "#PWR0106" H 4200 7050 50  0001 C CNN
F 1 "GND" H 4205 7127 50  0000 C CNN
F 2 "" H 4200 7300 50  0001 C CNN
F 3 "" H 4200 7300 50  0001 C CNN
	1    4200 7300
	1    0    0    -1  
$EndComp
$Comp
L Connector:USB_C_Receptacle_USB2.0 J2
U 1 1 60B1F750
P 4200 6400
F 0 "J2" H 4307 7267 50  0000 C CNN
F 1 "USB_C_Receptacle_USB2.0" H 4307 7176 50  0000 C CNN
F 2 "Connector_USB:USB_C_Receptacle_GCT_USB4085" H 4350 6400 50  0001 C CNN
F 3 "https://www.usb.org/sites/default/files/documents/usb_type-c.zip" H 4350 6400 50  0001 C CNN
	1    4200 6400
	1    0    0    -1  
$EndComp
$Comp
L Connector:Barrel_Jack J3
U 1 1 60B9D336
P 5500 6600
F 0 "J3" H 5557 6925 50  0000 C CNN
F 1 "Barrel_Jack" H 5557 6834 50  0000 C CNN
F 2 "Connector_BarrelJack:BarrelJack_CUI_PJ-063AH_Horizontal" H 5550 6560 50  0001 C CNN
F 3 "https://www.cuidevices.com/product/resource/pj-063ah.pdf" H 5550 6560 50  0001 C CNN
	1    5500 6600
	1    0    0    -1  
$EndComp
Wire Wire Line
	5800 6700 6050 6700
$Comp
L Device:R_Small_US R6
U 1 1 60B9322B
P 6900 5300
F 0 "R6" H 6968 5346 50  0000 L CNN
F 1 "100" H 6968 5255 50  0000 L CNN
F 2 "Resistor_THT:R_Axial_DIN0207_L6.3mm_D2.5mm_P2.54mm_Vertical" H 6900 5300 50  0001 C CNN
F 3 "~" H 6900 5300 50  0001 C CNN
	1    6900 5300
	1    0    0    -1  
$EndComp
$Comp
L Device:D_Zener D8
U 1 1 60B938A3
P 8000 5700
F 0 "D8" V 7954 5779 50  0000 L CNN
F 1 "3V3" V 8045 5779 50  0000 L CNN
F 2 "Diode_SMD:D_SOD-523" H 8000 5700 50  0001 C CNN
F 3 "~" H 8000 5700 50  0001 C CNN
	1    8000 5700
	0    1    1    0   
$EndComp
$Comp
L power:GND #PWR0107
U 1 1 60B93F4F
P 8000 5850
F 0 "#PWR0107" H 8000 5600 50  0001 C CNN
F 1 "GND" H 8005 5677 50  0000 C CNN
F 2 "" H 8000 5850 50  0001 C CNN
F 3 "" H 8000 5850 50  0001 C CNN
	1    8000 5850
	1    0    0    -1  
$EndComp
$Comp
L power:GND #PWR0108
U 1 1 60B94276
P 7400 5850
F 0 "#PWR0108" H 7400 5600 50  0001 C CNN
F 1 "GND" H 7405 5677 50  0000 C CNN
F 2 "" H 7400 5850 50  0001 C CNN
F 3 "" H 7400 5850 50  0001 C CNN
	1    7400 5850
	1    0    0    -1  
$EndComp
$Comp
L power:GND #PWR0109
U 1 1 60B946C7
P 6900 5850
F 0 "#PWR0109" H 6900 5600 50  0001 C CNN
F 1 "GND" H 6905 5677 50  0000 C CNN
F 2 "" H 6900 5850 50  0001 C CNN
F 3 "" H 6900 5850 50  0001 C CNN
	1    6900 5850
	1    0    0    -1  
$EndComp
$Comp
L Device:R_Small_US R7
U 1 1 60B94C34
P 6900 5650
F 0 "R7" H 6968 5696 50  0000 L CNN
F 1 "1k" H 6968 5605 50  0000 L CNN
F 2 "Resistor_THT:R_Axial_DIN0207_L6.3mm_D2.5mm_P2.54mm_Vertical" H 6900 5650 50  0001 C CNN
F 3 "~" H 6900 5650 50  0001 C CNN
	1    6900 5650
	1    0    0    -1  
$EndComp
Wire Wire Line
	8000 5500 8000 5550
Wire Wire Line
	7400 5850 7400 5600
NoConn ~ 7500 5600
NoConn ~ 7600 5600
Wire Wire Line
	8200 5550 8000 5550
Connection ~ 8000 5550
Text Label 8200 5550 0    50   ~ 0
Vref
Text Notes 7850 6950 0    50   ~ 0
LLXMAR003\nMark Laloo
Text Notes 8850 6950 0    50   ~ 0
NDXBRE004\nBrennan Naidoo
Text Notes 10050 6950 0    50   ~ 0
SMXCHR002\nChristal Sima
Text Notes 7450 7500 0    50   ~ 0
UPS uHAT compiled circuit
Wire Wire Line
	6350 6500 5800 6500
Wire Wire Line
	7200 5000 7200 5200
Text Label 7200 5000 2    50   ~ 0
Vreg
Text Label 6900 5000 2    50   ~ 0
Vbatt
Text Label 7400 5000 0    50   ~ 0
Vreg
Wire Wire Line
	8000 5300 7800 5300
$Comp
L Device:R_Small_US R8
U 1 1 60B93347
P 8000 5400
F 0 "R8" H 8068 5446 50  0000 L CNN
F 1 "1k" H 8068 5355 50  0000 L CNN
F 2 "Resistor_THT:R_Axial_DIN0207_L6.3mm_D2.5mm_P2.54mm_Vertical" H 8000 5400 50  0001 C CNN
F 3 "~" H 8000 5400 50  0001 C CNN
	1    8000 5400
	1    0    0    -1  
$EndComp
$Comp
L Device:R_Small_US R5
U 1 1 60B92C93
P 6900 5100
F 0 "R5" H 6968 5146 50  0000 L CNN
F 1 "1k" H 6968 5055 50  0000 L CNN
F 2 "Resistor_THT:R_Axial_DIN0207_L6.3mm_D2.5mm_P2.54mm_Vertical" H 6900 5100 50  0001 C CNN
F 3 "~" H 6900 5100 50  0001 C CNN
	1    6900 5100
	1    0    0    -1  
$EndComp
$Comp
L Amplifier_Operational:LM741 U1
U 1 1 60B90C8B
P 7500 5300
F 0 "U1" H 7700 5200 50  0000 L CNN
F 1 "LM741" H 7650 5100 50  0000 L CNN
F 2 "Package_DIP:DIP-8_W7.62mm_LongPads" H 7550 5350 50  0001 C CNN
F 3 "http://www.ti.com/lit/ds/symlink/lm741.pdf" H 7650 5450 50  0001 C CNN
	1    7500 5300
	1    0    0    -1  
$EndComp
$Comp
L Device:R_Small_US R11
U 1 1 60B24F26
P 6750 3950
F 0 "R11" H 6818 3996 50  0000 L CNN
F 1 "100k" H 6818 3905 50  0000 L CNN
F 2 "Resistor_THT:R_Axial_DIN0207_L6.3mm_D2.5mm_P2.54mm_Vertical" H 6750 3950 50  0001 C CNN
F 3 "~" H 6750 3950 50  0001 C CNN
	1    6750 3950
	1    0    0    -1  
$EndComp
Text Notes 8170 7630 0    50   ~ 0
04/06/2021
Text Notes 8170 7630 0    50   ~ 0
04/06/2021
Text Notes 8170 7630 0    50   ~ 0
04/06/2021
Wire Wire Line
	6900 5400 7200 5400
Wire Wire Line
	6900 5400 6900 5550
Connection ~ 6900 5400
Wire Wire Line
	6900 5750 6900 5850
Text Label 6150 1700 2    50   ~ 0
Vbatt
Connection ~ 6350 1700
Wire Wire Line
	6150 1700 6350 1700
Wire Wire Line
	6900 1050 7100 1050
Wire Wire Line
	6900 1050 6900 1600
Connection ~ 6900 1600
Wire Wire Line
	6900 1800 6900 1600
Wire Wire Line
	7350 1800 7350 2300
Wire Wire Line
	7350 2300 6900 2300
$Comp
L pspice:CAP C2
U 1 1 60B7E9CB
P 6900 2050
F 0 "C2" H 7078 2096 50  0000 L CNN
F 1 "0.01u" H 7078 2005 50  0000 L CNN
F 2 "Capacitor_THT:C_Disc_D4.3mm_W1.9mm_P5.00mm" H 6900 2050 50  0001 C CNN
F 3 "~" H 6900 2050 50  0001 C CNN
	1    6900 2050
	1    0    0    -1  
$EndComp
$Comp
L pspice:CAP C1
U 1 1 60B828C9
P 6350 2050
F 0 "C1" H 6528 2096 50  0000 L CNN
F 1 "82u" H 6528 2005 50  0000 L CNN
F 2 "Capacitor_SMD:CP_Elec_6.3x7.7" H 6350 2050 50  0001 C CNN
F 3 "~" H 6350 2050 50  0001 C CNN
	1    6350 2050
	1    0    0    -1  
$EndComp
Wire Wire Line
	6350 1700 6350 1800
Wire Wire Line
	6350 2450 6350 2300
Wire Wire Line
	6350 2450 10050 2450
Wire Wire Line
	6350 1700 7350 1700
Wire Wire Line
	7350 1600 6900 1600
$Comp
L Device:D_Schottky D9
U 1 1 60B97BF6
P 7100 1200
F 0 "D9" V 7054 1279 50  0000 L CNN
F 1 "MBRB2545CT" V 7145 1279 50  0000 L CNN
F 2 "Diode_SMD:D_SOD-523" H 7100 1200 50  0001 C CNN
F 3 "~" H 7100 1200 50  0001 C CNN
	1    7100 1200
	0    1    1    0   
$EndComp
Connection ~ 7100 1050
Wire Wire Line
	7100 1050 9450 1050
$Comp
L power:GND #PWR0111
U 1 1 60B98E74
P 7100 1350
F 0 "#PWR0111" H 7100 1100 50  0001 C CNN
F 1 "GND" H 7105 1177 50  0000 C CNN
F 2 "" H 7100 1350 50  0001 C CNN
F 3 "" H 7100 1350 50  0001 C CNN
	1    7100 1350
	1    0    0    -1  
$EndComp
$Comp
L lm2678:LM2678T-5.0_NOPB U2
U 1 1 60B90CA6
P 7350 1600
F 0 "U2" H 8650 1987 60  0000 C CNN
F 1 "LM2678T-5.0_NOPB" H 8650 1881 60  0000 C CNN
F 2 "footprints:LM2678T-12&slash_NOPB" H 8650 1840 60  0001 C CNN
F 3 "" H 7350 1600 60  0000 C CNN
	1    7350 1600
	1    0    0    -1  
$EndComp
Text Label 10700 1700 0    50   ~ 0
Vreg
Wire Wire Line
	10700 1700 10350 1700
Wire Wire Line
	10350 1050 9950 1050
Wire Wire Line
	10350 1700 10350 1050
Connection ~ 10350 1700
Wire Wire Line
	10350 1800 10350 1700
Wire Wire Line
	10350 2450 10350 2300
Wire Wire Line
	10050 2450 10350 2450
Wire Wire Line
	9950 1700 10350 1700
Text Label 9950 1600 0    50   ~ 0
Switch
$Comp
L pspice:CAP C3
U 1 1 60B9334C
P 10350 2050
F 0 "C3" H 10528 2096 50  0000 L CNN
F 1 "360u" H 10528 2005 50  0000 L CNN
F 2 "Capacitor_THT:CP_Radial_D10.0mm_P5.00mm" H 10350 2050 50  0001 C CNN
F 3 "~" H 10350 2050 50  0001 C CNN
	1    10350 2050
	1    0    0    -1  
$EndComp
$Comp
L pspice:INDUCTOR L1
U 1 1 60B91FA5
P 9700 1050
F 0 "L1" H 9700 1265 50  0000 C CNN
F 1 "22u" H 9700 1174 50  0000 C CNN
F 2 "Inductor_THT:L_Axial_L7.0mm_D3.3mm_P2.54mm_Vertical_Fastron_MICC" H 9700 1050 50  0001 C CNN
F 3 "~" H 9700 1050 50  0001 C CNN
	1    9700 1050
	1    0    0    -1  
$EndComp
NoConn ~ 9950 1800
$Comp
L power:GND #PWR0112
U 1 1 60B8DCFA
P 10050 2600
F 0 "#PWR0112" H 10050 2350 50  0001 C CNN
F 1 "GND" H 10055 2427 50  0000 C CNN
F 2 "" H 10050 2600 50  0001 C CNN
F 3 "" H 10050 2600 50  0001 C CNN
	1    10050 2600
	1    0    0    -1  
$EndComp
Wire Wire Line
	10050 2450 10050 2600
Connection ~ 10050 2450
Wire Wire Line
	10050 1900 10050 2450
Wire Wire Line
	9950 1900 10050 1900
Text Label 2350 2450 3    50   ~ 0
Vsupp
Wire Wire Line
	2350 2030 2350 2450
Connection ~ 2350 2030
Wire Wire Line
	2350 1780 2350 2030
Wire Wire Line
	3370 2030 3820 2030
Connection ~ 3370 2030
Wire Wire Line
	3370 1780 3370 2030
Wire Wire Line
	2875 1780 3370 1780
Wire Wire Line
	2830 2030 3370 2030
Wire Wire Line
	2830 2130 2830 2030
Wire Wire Line
	2475 1780 2350 1780
Wire Wire Line
	2705 2030 2350 2030
Wire Wire Line
	2705 2130 2705 2030
Wire Wire Line
	3205 1980 3205 2130
Wire Wire Line
	2775 1980 3205 1980
Wire Wire Line
	3030 2130 3205 2130
$Comp
L DMMT5401-7:DMMT5401-7 Q4
U 1 1 60BD14DA
P 2780 2355
F 0 "Q4" H 3110 2414 50  0000 L CNN
F 1 "DMMT5401-7" H 3110 2323 50  0000 L CNN
F 2 "footprints:SOT26" H 2780 2355 50  0001 L BNN
F 3 "" H 2780 2355 50  0001 L BNN
	1    2780 2355
	1    0    0    -1  
$EndComp
$Comp
L DMG2305UX-7:DMG2305UX-7 Q6
U 1 1 60B953B3
P 2675 1880
F 0 "Q6" V 3010 1880 50  0000 C CNN
F 1 "DMG2305UX-7" V 2919 1880 50  0000 C CNN
F 2 "footprints:SOT91P240X110-3N_DMG2305UX-7" H 2675 1880 50  0001 L BNN
F 3 "" H 2675 1880 50  0001 L BNN
F 4 "IPC-7351B" H 2675 1880 50  0001 L BNN "STANDARD"
F 5 "1.1mm" H 2675 1880 50  0001 L BNN "MAXIMUM_PACKAGE_HEIGHT"
F 6 "09/2018" H 2675 1880 50  0001 L BNN "PARTREV"
F 7 "Diodes Inc." H 2675 1880 50  0001 L BNN "MANUFACTURER"
	1    2675 1880
	0    -1   -1   0   
$EndComp
Wire Wire Line
	3030 2790 2855 2790
Wire Wire Line
	2855 2790 2705 2790
Connection ~ 2855 2790
Wire Wire Line
	2855 2555 2855 2790
Wire Wire Line
	2705 2790 2705 2555
Wire Wire Line
	3030 2555 3030 2790
$Comp
L power:GND #PWR0113
U 1 1 60BD14DE
P 3205 3550
F 0 "#PWR0113" H 3205 3300 50  0001 C CNN
F 1 "GND" H 3210 3377 50  0000 C CNN
F 2 "" H 3205 3550 50  0001 C CNN
F 3 "" H 3205 3550 50  0001 C CNN
	1    3205 3550
	1    0    0    -1  
$EndComp
$Comp
L Device:R_US R15
U 1 1 60BA88B9
P 3205 3190
F 0 "R15" H 3273 3236 50  0000 L CNN
F 1 "47k" H 3273 3145 50  0000 L CNN
F 2 "Resistor_THT:R_Axial_DIN0207_L6.3mm_D2.5mm_P2.54mm_Vertical" V 3245 3180 50  0001 C CNN
F 3 "~" H 3205 3190 50  0001 C CNN
	1    3205 3190
	1    0    0    -1  
$EndComp
Wire Wire Line
	3205 3550 3205 3340
Connection ~ 3205 2130
Wire Wire Line
	3205 3040 3205 2130
$Comp
L power:GND #PWR0114
U 1 1 60BA340E
P 2705 3550
F 0 "#PWR0114" H 2705 3300 50  0001 C CNN
F 1 "GND" H 2710 3377 50  0000 C CNN
F 2 "" H 2705 3550 50  0001 C CNN
F 3 "" H 2705 3550 50  0001 C CNN
	1    2705 3550
	1    0    0    -1  
$EndComp
Wire Wire Line
	2705 3325 2705 3550
$Comp
L Device:R_US R14
U 1 1 60BA204C
P 2705 3175
F 0 "R14" H 2773 3221 50  0000 L CNN
F 1 "10k" H 2773 3130 50  0000 L CNN
F 2 "Resistor_THT:R_Axial_DIN0207_L6.3mm_D2.5mm_P2.54mm_Vertical" V 2745 3165 50  0001 C CNN
F 3 "~" H 2705 3175 50  0001 C CNN
	1    2705 3175
	1    0    0    -1  
$EndComp
Connection ~ 2705 2790
Wire Wire Line
	2705 3025 2705 2790
Text Label 3820 2030 0    50   ~ 0
Vout2
Text Label 2520 1380 0    50   ~ 0
Vout1
Wire Wire Line
	2070 1380 2520 1380
Connection ~ 2070 1380
Text Label 1050 1750 3    50   ~ 0
Vreg
Wire Wire Line
	1050 1380 1050 1750
Connection ~ 1050 1380
Wire Wire Line
	1050 1130 1050 1380
Wire Wire Line
	1730 1905 1730 2140
Wire Wire Line
	1730 2140 1555 2140
$Comp
L Device:R_US R13
U 1 1 60BD14DD
P 1905 2540
F 0 "R13" H 1973 2586 50  0000 L CNN
F 1 "47k" H 1973 2495 50  0000 L CNN
F 2 "Resistor_THT:R_Axial_DIN0207_L6.3mm_D2.5mm_P2.54mm_Vertical" V 1945 2530 50  0001 C CNN
F 3 "~" H 1905 2540 50  0001 C CNN
	1    1905 2540
	1    0    0    -1  
$EndComp
$Comp
L DMMT5401-7:DMMT5401-7 Q3
U 1 1 60B95D94
P 1480 1705
F 0 "Q3" H 1810 1764 50  0000 L CNN
F 1 "DMMT5401-7" H 1810 1673 50  0000 L CNN
F 2 "footprints:SOT26" H 1480 1705 50  0001 L BNN
F 3 "" H 1480 1705 50  0001 L BNN
	1    1480 1705
	1    0    0    -1  
$EndComp
$Comp
L power:GND #PWR0115
U 1 1 60BAAAD4
P 1905 2900
F 0 "#PWR0115" H 1905 2650 50  0001 C CNN
F 1 "GND" H 1910 2727 50  0000 C CNN
F 2 "" H 1905 2900 50  0001 C CNN
F 3 "" H 1905 2900 50  0001 C CNN
	1    1905 2900
	1    0    0    -1  
$EndComp
Wire Wire Line
	1905 2900 1905 2690
Wire Wire Line
	1905 2390 1905 1480
Connection ~ 1555 2140
Connection ~ 1905 1480
Wire Wire Line
	2070 1130 2070 1380
Wire Wire Line
	1575 1130 2070 1130
Wire Wire Line
	1530 1380 2070 1380
Wire Wire Line
	1530 1480 1530 1380
Wire Wire Line
	1175 1130 1050 1130
Wire Wire Line
	1405 1380 1050 1380
Wire Wire Line
	1405 1480 1405 1380
Wire Wire Line
	1905 1330 1905 1480
Wire Wire Line
	1475 1330 1905 1330
Wire Wire Line
	1730 1480 1905 1480
Wire Wire Line
	1405 2140 1405 1905
Connection ~ 1405 2140
Wire Wire Line
	1555 2140 1405 2140
Wire Wire Line
	1555 1905 1555 2140
Wire Wire Line
	1405 2675 1405 2900
Wire Wire Line
	1405 2375 1405 2140
$Comp
L Device:R_US R12
U 1 1 60BD14DB
P 1405 2525
F 0 "R12" H 1473 2571 50  0000 L CNN
F 1 "10k" H 1473 2480 50  0000 L CNN
F 2 "Resistor_THT:R_Axial_DIN0207_L6.3mm_D2.5mm_P2.54mm_Vertical" V 1445 2515 50  0001 C CNN
F 3 "~" H 1405 2525 50  0001 C CNN
	1    1405 2525
	1    0    0    -1  
$EndComp
$Comp
L power:GND #PWR0116
U 1 1 60BD14DC
P 1405 2900
F 0 "#PWR0116" H 1405 2650 50  0001 C CNN
F 1 "GND" H 1410 2727 50  0000 C CNN
F 2 "" H 1405 2900 50  0001 C CNN
F 3 "" H 1405 2900 50  0001 C CNN
	1    1405 2900
	1    0    0    -1  
$EndComp
$Comp
L DMG2305UX-7:DMG2305UX-7 Q5
U 1 1 60BD14D9
P 1375 1230
F 0 "Q5" V 1710 1230 50  0000 C CNN
F 1 "DMG2305UX-7" V 1619 1230 50  0000 C CNN
F 2 "footprints:SOT91P240X110-3N_DMG2305UX-7" H 1375 1230 50  0001 L BNN
F 3 "" H 1375 1230 50  0001 L BNN
F 4 "IPC-7351B" H 1375 1230 50  0001 L BNN "STANDARD"
F 5 "1.1mm" H 1375 1230 50  0001 L BNN "MAXIMUM_PACKAGE_HEIGHT"
F 6 "09/2018" H 1375 1230 50  0001 L BNN "PARTREV"
F 7 "Diodes Inc." H 1375 1230 50  0001 L BNN "MANUFACTURER"
	1    1375 1230
	0    -1   -1   0   
$EndComp
Wire Wire Line
	4200 2500 4200 2650
Wire Wire Line
	4000 2500 4200 2500
Wire Wire Line
	4000 2350 4200 2350
Wire Wire Line
	4200 2350 4200 2500
Connection ~ 4200 2500
Wire Wire Line
	4200 2500 4550 2500
Wire Wire Line
	4200 3150 4200 3350
$Comp
L power:GND #PWR0117
U 1 1 60CC824B
P 4200 3350
F 0 "#PWR0117" H 4200 3100 50  0001 C CNN
F 1 "GND" H 4205 3177 50  0000 C CNN
F 2 "" H 4200 3350 50  0001 C CNN
F 3 "" H 4200 3350 50  0001 C CNN
	1    4200 3350
	1    0    0    -1  
$EndComp
$Comp
L pspice:CAP C4
U 1 1 60CC774A
P 4200 2900
F 0 "C4" H 4378 2946 50  0000 L CNN
F 1 "100u" H 4378 2855 50  0000 L CNN
F 2 "Capacitor_THT:C_Disc_D4.3mm_W1.9mm_P5.00mm" H 4200 2900 50  0001 C CNN
F 3 "~" H 4200 2900 50  0001 C CNN
	1    4200 2900
	1    0    0    -1  
$EndComp
Text Label 4000 2350 2    50   ~ 0
Vout1
Text Label 4000 2500 2    50   ~ 0
Vout2
Text Label 4550 2500 0    50   ~ 0
Vhat
Text Notes 10550 7650 0    50   ~ 0
1.0
Text Label 2950 6100 0    50   ~ 0
Vref
Wire Wire Line
	2950 6100 2750 6100
Wire Wire Line
	2950 5500 2950 5600
$Comp
L power:GND #PWR0110
U 1 1 60C6E7EC
P 2950 5600
F 0 "#PWR0110" H 2950 5350 50  0001 C CNN
F 1 "GND" H 2955 5427 50  0000 C CNN
F 2 "" H 2950 5600 50  0001 C CNN
F 3 "" H 2950 5600 50  0001 C CNN
	1    2950 5600
	1    0    0    -1  
$EndComp
Text Label 2950 5400 0    50   ~ 0
Vhat
Wire Wire Line
	2950 5500 2750 5500
Wire Wire Line
	2950 5400 2750 5400
NoConn ~ 2750 5600
NoConn ~ 2750 5700
NoConn ~ 2750 5800
NoConn ~ 2750 5900
NoConn ~ 2750 6000
NoConn ~ 2750 6200
NoConn ~ 2750 6300
NoConn ~ 2750 6400
NoConn ~ 2750 6500
NoConn ~ 2750 6600
NoConn ~ 2750 6700
NoConn ~ 2750 6800
NoConn ~ 2750 6900
NoConn ~ 2750 7000
NoConn ~ 2750 7100
NoConn ~ 2750 7200
NoConn ~ 850  7200
NoConn ~ 850  7100
NoConn ~ 850  7000
NoConn ~ 850  6900
NoConn ~ 850  6800
NoConn ~ 850  6700
NoConn ~ 850  6600
NoConn ~ 850  6500
NoConn ~ 850  6400
NoConn ~ 850  6300
NoConn ~ 850  6200
NoConn ~ 850  6100
NoConn ~ 850  6000
NoConn ~ 850  5900
NoConn ~ 850  5800
NoConn ~ 850  5300
NoConn ~ 850  5400
NoConn ~ 850  5500
NoConn ~ 850  5600
NoConn ~ 850  5700
Text Notes 1000 7600 0    100  Italic 0
Thru-Hole Connector
$Comp
L UPS-uHAT_Compiled_Circuit-rescue:RPi_GPIO-Connector-ML J1
U 1 1 5516AE26
P 1050 5300
F 0 "J1" H 1800 5550 60  0000 C CNN
F 1 "RPi_GPIO" H 1800 5450 60  0000 C CNN
F 2 "Connector_Samtec_HLE_SMD-ML:Samtec_HLE-120-02-xxx-DV-BE-A_2x20_RPi_Bottom" H 1050 5300 60  0001 C CNN
F 3 "" H 1050 5300 60  0000 C CNN
	1    1050 5300
	1    0    0    -1  
$EndComp
NoConn ~ 2750 5300
$EndSCHEMATC
