EESchema Schematic File Version 4
LIBS:Voltage_Regulator_Circuit-cache
EELAYER 29 0
EELAYER END
$Descr A4 11693 8268
encoding utf-8
Sheet 1 1
Title ""
Date ""
Rev ""
Comp ""
Comment1 ""
Comment2 ""
Comment3 ""
Comment4 ""
$EndDescr
Wire Wire Line
	7600 2900 7700 2900
$Comp
L pspice:CAP C5
U 1 1 60B7E9CB
P 4500 2850
F 0 "C5" H 4678 2896 50  0000 L CNN
F 1 "0.01uF" H 4678 2805 50  0000 L CNN
F 2 "Capacitor_THT:C_Disc_D4.3mm_W1.9mm_P5.00mm" H 4500 2850 50  0001 C CNN
F 3 "~" H 4500 2850 50  0001 C CNN
	1    4500 2850
	1    0    0    -1  
$EndComp
Wire Wire Line
	5000 2800 5000 3100
$Comp
L pspice:CAP C4
U 1 1 60B828C9
P 4000 3050
F 0 "C4" H 4178 3096 50  0000 L CNN
F 1 "82uF" H 4178 3005 50  0000 L CNN
F 2 "Capacitor_SMD:CP_Elec_6.3x7.7" H 4000 3050 50  0001 C CNN
F 3 "~" H 4000 3050 50  0001 C CNN
	1    4000 3050
	1    0    0    -1  
$EndComp
Wire Wire Line
	4000 2700 4000 2800
Wire Wire Line
	4000 2700 3550 2700
Wire Wire Line
	4000 3450 4000 3300
Wire Wire Line
	4500 2600 4500 2050
Wire Wire Line
	7600 2700 8050 2700
Wire Wire Line
	8050 2700 8050 2050
Wire Wire Line
	8050 2050 7600 2050
Wire Wire Line
	8050 2700 8350 2700
Connection ~ 8050 2700
Wire Wire Line
	8350 2850 8350 2700
Connection ~ 8350 2700
Wire Wire Line
	8350 3450 8350 3350
Wire Wire Line
	7700 2900 7700 3450
Connection ~ 7700 3450
Wire Wire Line
	7700 3450 8350 3450
Wire Wire Line
	4000 3450 7700 3450
Wire Wire Line
	7700 3450 7700 3600
$Comp
L power:GND #PWR0101
U 1 1 60B8DCFA
P 7700 3600
F 0 "#PWR0101" H 7700 3350 50  0001 C CNN
F 1 "GND" H 7705 3427 50  0000 C CNN
F 2 "" H 7700 3600 50  0001 C CNN
F 3 "" H 7700 3600 50  0001 C CNN
	1    7700 3600
	1    0    0    -1  
$EndComp
Text GLabel 3550 2700 0    50   Input ~ 0
Vbatt
Text GLabel 9300 2700 2    50   Input ~ 0
Vout
Text GLabel 7600 2600 2    50   Input ~ 0
Vswitch
NoConn ~ 7600 2800
$Comp
L pspice:INDUCTOR L1
U 1 1 60B91FA5
P 7350 2050
F 0 "L1" H 7350 2265 50  0000 C CNN
F 1 "22uH" H 7350 2174 50  0000 C CNN
F 2 "Inductor_THT:L_Axial_L7.0mm_D3.3mm_P10.16mm_Horizontal_Fastron_MICC" H 7350 2050 50  0001 C CNN
F 3 "~" H 7350 2050 50  0001 C CNN
	1    7350 2050
	1    0    0    -1  
$EndComp
$Comp
L pspice:CAP C6
U 1 1 60B9334C
P 8350 3100
F 0 "C6" H 8528 3146 50  0000 L CNN
F 1 "360u" H 8528 3055 50  0000 L CNN
F 2 "Capacitor_SMD:CP_Elec_10x10" H 8350 3100 50  0001 C CNN
F 3 "~" H 8350 3100 50  0001 C CNN
	1    8350 3100
	1    0    0    -1  
$EndComp
Wire Wire Line
	4500 2050 4750 2050
Wire Wire Line
	4000 2700 5000 2700
Wire Wire Line
	4500 3100 5000 3100
Wire Wire Line
	5000 2600 4500 2600
Connection ~ 4500 2600
$Comp
L Device:D_Schottky D1
U 1 1 60B97BF6
P 4750 2200
F 0 "D1" V 4704 2279 50  0000 L CNN
F 1 "MBRB2545CT" V 4795 2279 50  0000 L CNN
F 2 "Diode_THT:D_A-405_P5.08mm_Vertical_KathodeUp" H 4750 2200 50  0001 C CNN
F 3 "~" H 4750 2200 50  0001 C CNN
	1    4750 2200
	0    1    1    0   
$EndComp
Connection ~ 4750 2050
Wire Wire Line
	4750 2050 7100 2050
$Comp
L power:GND #PWR0102
U 1 1 60B98E74
P 4750 2350
F 0 "#PWR0102" H 4750 2100 50  0001 C CNN
F 1 "GND" H 4755 2177 50  0000 C CNN
F 2 "" H 4750 2350 50  0001 C CNN
F 3 "" H 4750 2350 50  0001 C CNN
	1    4750 2350
	1    0    0    -1  
$EndComp
$Comp
L lm2678:LM2678T-5.0_NOPB U?
U 1 1 60B90CA6
P 5000 2600
F 0 "U?" H 6300 2987 60  0000 C CNN
F 1 "LM2678T-5.0_NOPB" H 6300 2881 60  0000 C CNN
F 2 "Voltage_Regulator_Circuit:LM2678T-12&slash_NOPB" H 6300 2840 60  0001 C CNN
F 3 "" H 5000 2600 60  0000 C CNN
	1    5000 2600
	1    0    0    -1  
$EndComp
Text Notes 7150 6750 0    50   ~ 0
LLXMAR003\nMark Laloo\n
Text Notes 7350 7500 0    50   ~ 0
UPS uHat Voltage Regulator Circuit\n
Text Notes 8150 7650 0    50   ~ 0
01/06/2021
Text Notes 10550 7650 0    50   ~ 0
1.0
Connection ~ 4000 2700
Wire Wire Line
	8350 2700 9300 2700
$EndSCHEMATC
