%!PS-Adobe-3.0
%%Creator: PCBNEW
%%CreationDate: Fri Jun 11 19:53:25 2021
%%Title: /Users/brennannaidoo/Desktop/Mechatronics Course/Year_3/Semester 1/EEE3088F/Design_Proj /eee3088f-ups-pihat/PCB/UPS-uHAT_Compiled_PCB/UPS-uHAT_Compiled_Circuit-PTH-drl_map.ps
%%Pages: 1
%%PageOrder: Ascend
%%BoundingBox: 0 0 596 842
%%DocumentMedia: A4 595 842 0 () ()
%%Orientation: Landscape
%%EndComments
%%BeginProlog
/line { newpath moveto lineto stroke } bind def
/cir0 { newpath 0 360 arc stroke } bind def
/cir1 { newpath 0 360 arc gsave fill grestore stroke } bind def
/cir2 { newpath 0 360 arc gsave fill grestore stroke } bind def
/arc0 { newpath arc stroke } bind def
/arc1 { newpath 4 index 4 index moveto arc closepath gsave fill
    grestore stroke } bind def
/arc2 { newpath 4 index 4 index moveto arc closepath gsave fill
    grestore stroke } bind def
/poly0 { stroke } bind def
/poly1 { closepath gsave fill grestore stroke } bind def
/poly2 { closepath gsave fill grestore stroke } bind def
/rect0 { rectstroke } bind def
/rect1 { rectfill } bind def
/rect2 { rectfill } bind def
/linemode0 { 0 setlinecap 0 setlinejoin 0 setlinewidth } bind def
/linemode1 { 1 setlinecap 1 setlinejoin } bind def
/dashedline { [200] 100 setdash } bind def
/solidline { [] 0 setdash } bind def
/phantomshow { moveto
    /KicadFont findfont 0.000001 scalefont setfont
    show } bind def
/textshow { gsave
    findfont exch scalefont setfont concat 1 scale 0 0 moveto show
    } bind def
/reencodefont {
  findfont dup length dict begin
  { 1 index /FID ne
    { def }
    { pop pop } ifelse
  } forall
  /Encoding ISOLatin1Encoding def
  currentdict
  end } bind def
/KicadFont /Helvetica reencodefont definefont pop
/KicadFont-Bold /Helvetica-Bold reencodefont definefont pop
/KicadFont-Oblique /Helvetica-Oblique reencodefont definefont pop
/KicadFont-BoldOblique /Helvetica-BoldOblique reencodefont definefont pop
%%EndProlog
%%Page: 1 1
%%BeginPageSetup
gsave
0.0072 0.0072 scale
linemode1
82680 0 translate 90 rotate
150 setlinewidth
%%EndPageSetup
0 0 0 setrgbcolor
59.0551 setlinewidth
newpath
93307.5 75592.5 moveto
23622.5 75592.5 lineto
stroke
0 0 0 setrgbcolor
newpath
96850.8 43702.8 moveto
96850.8 72049.2 lineto
stroke
0 0 0 setrgbcolor
newpath
23622.5 40159.5 moveto
93307.5 40159.5 lineto
stroke
0 0 0 setrgbcolor
newpath
20079.2 72049.2 moveto
20079.2 43702.8 lineto
stroke
0 0 0 setrgbcolor
23622.5 72049.2 3543.31 90 180 arc0
0 0 0 setrgbcolor
23622.5 43702.8 3543.31 180 270 arc0
0 0 0 setrgbcolor
93307.5 43702.8 3543.31 -90 -0 arc0
0 0 0 setrgbcolor
93307.5 72049.2 3543.31 -0 90 arc0
78.7394 setlinewidth
newpath
35787.8 74647.7 moveto
36260.3 74175.2 lineto
stroke
newpath
36260.3 74647.7 moveto
35787.8 74175.2 lineto
stroke
newpath
37559.5 64608.3 moveto
38031.9 64135.8 lineto
stroke
newpath
38031.9 64608.3 moveto
37559.5 64135.8 lineto
stroke
newpath
39921.7 59293.3 moveto
40394.1 58820.9 lineto
stroke
newpath
40394.1 59293.3 moveto
39921.7 58820.9 lineto
stroke
newpath
40512.2 64608.3 moveto
40984.7 64135.8 lineto
stroke
newpath
40984.7 64608.3 moveto
40512.2 64135.8 lineto
stroke
newpath
40512.2 62246.1 moveto
40984.7 61773.6 lineto
stroke
newpath
40984.7 62246.1 moveto
40512.2 61773.6 lineto
stroke
newpath
41693.3 64608.3 moveto
42165.8 64135.8 lineto
stroke
newpath
42165.8 64608.3 moveto
41693.3 64135.8 lineto
stroke
newpath
41693.3 62246.1 moveto
42165.8 61773.6 lineto
stroke
newpath
42165.8 62246.1 moveto
41693.3 61773.6 lineto
stroke
newpath
42874.4 64608.3 moveto
43346.9 64135.8 lineto
stroke
newpath
43346.9 64608.3 moveto
42874.4 64135.8 lineto
stroke
newpath
42874.4 62246.1 moveto
43346.9 61773.6 lineto
stroke
newpath
43346.9 62246.1 moveto
42874.4 61773.6 lineto
stroke
newpath
42874.4 53387.8 moveto
43346.9 52915.4 lineto
stroke
newpath
43346.9 53387.8 moveto
42874.4 52915.4 lineto
stroke
newpath
44055.6 45120.1 moveto
44528 44647.7 lineto
stroke
newpath
44528 45120.1 moveto
44055.6 44647.7 lineto
stroke
newpath
44646.1 53387.8 moveto
45118.5 52915.4 lineto
stroke
newpath
45118.5 53387.8 moveto
44646.1 52915.4 lineto
stroke
newpath
45236.7 50435.1 moveto
45709.1 49962.6 lineto
stroke
newpath
45709.1 50435.1 moveto
45236.7 49962.6 lineto
stroke
newpath
45236.7 48072.9 moveto
45709.1 47600.4 lineto
stroke
newpath
45709.1 48072.9 moveto
45236.7 47600.4 lineto
stroke
newpath
45827.2 64608.3 moveto
46299.6 64135.8 lineto
stroke
newpath
46299.6 64608.3 moveto
45827.2 64135.8 lineto
stroke
newpath
45827.2 62246.1 moveto
46299.6 61773.6 lineto
stroke
newpath
46299.6 62246.1 moveto
45827.2 61773.6 lineto
stroke
newpath
47598.9 45120.1 moveto
48071.3 44647.7 lineto
stroke
newpath
48071.3 45120.1 moveto
47598.9 44647.7 lineto
stroke
newpath
48189.4 63427.2 moveto
48661.9 62954.7 lineto
stroke
newpath
48661.9 63427.2 moveto
48189.4 62954.7 lineto
stroke
newpath
48189.4 49254 moveto
48661.9 48781.5 lineto
stroke
newpath
48661.9 49254 moveto
48189.4 48781.5 lineto
stroke
newpath
50551.6 50435.1 moveto
51024.1 49962.6 lineto
stroke
newpath
51024.1 50435.1 moveto
50551.6 49962.6 lineto
stroke
newpath
50551.6 48072.9 moveto
51024.1 47600.4 lineto
stroke
newpath
51024.1 48072.9 moveto
50551.6 47600.4 lineto
stroke
newpath
51142.2 64608.3 moveto
51614.6 64135.8 lineto
stroke
newpath
51614.6 64608.3 moveto
51142.2 64135.8 lineto
stroke
newpath
51142.2 62246.1 moveto
51614.6 61773.6 lineto
stroke
newpath
51614.6 62246.1 moveto
51142.2 61773.6 lineto
stroke
newpath
51142.2 45120.1 moveto
51614.6 44647.7 lineto
stroke
newpath
51614.6 45120.1 moveto
51142.2 44647.7 lineto
stroke
newpath
52323.3 64608.3 moveto
52795.7 64135.8 lineto
stroke
newpath
52795.7 64608.3 moveto
52323.3 64135.8 lineto
stroke
newpath
52323.3 62246.1 moveto
52795.7 61773.6 lineto
stroke
newpath
52795.7 62246.1 moveto
52323.3 61773.6 lineto
stroke
newpath
53504.4 64608.3 moveto
53976.8 64135.8 lineto
stroke
newpath
53976.8 64608.3 moveto
53504.4 64135.8 lineto
stroke
newpath
53504.4 62246.1 moveto
53976.8 61773.6 lineto
stroke
newpath
53976.8 62246.1 moveto
53504.4 61773.6 lineto
stroke
newpath
57047.7 64608.3 moveto
57520.1 64135.8 lineto
stroke
newpath
57520.1 64608.3 moveto
57047.7 64135.8 lineto
stroke
newpath
57047.7 62246.1 moveto
57520.1 61773.6 lineto
stroke
newpath
57520.1 62246.1 moveto
57047.7 61773.6 lineto
stroke
newpath
59409.9 63427.2 moveto
59882.3 62954.7 lineto
stroke
newpath
59882.3 63427.2 moveto
59409.9 62954.7 lineto
stroke
newpath
62953.2 44529.5 moveto
63425.6 44057.1 lineto
stroke
newpath
63425.6 44529.5 moveto
62953.2 44057.1 lineto
stroke
newpath
66437.7 54627.7 moveto
66910.2 54155.2 lineto
stroke
newpath
66910.2 54627.7 moveto
66437.7 54155.2 lineto
stroke
newpath
71220.9 59883.9 moveto
71693.3 59411.4 lineto
stroke
newpath
71693.3 59883.9 moveto
71220.9 59411.4 lineto
stroke
newpath
88937.4 58702.8 moveto
89409.9 58230.3 lineto
stroke
newpath
89409.9 58702.8 moveto
88937.4 58230.3 lineto
stroke
newpath
90118.5 58702.8 moveto
90591 58230.3 lineto
stroke
newpath
90591 58702.8 moveto
90118.5 58230.3 lineto
stroke
newpath
32244.5 51025.6 moveto
32717 50553.2 lineto
stroke
newpath
32717 51025.6 moveto
32244.5 50553.2 lineto
stroke
newpath
32244.5 49431.1 moveto
32717 48958.7 lineto
stroke
newpath
32717 49431.1 moveto
32244.5 48958.7 lineto
stroke
newpath
33248.5 51025.6 moveto
33720.9 50553.2 lineto
stroke
newpath
33720.9 51025.6 moveto
33248.5 50553.2 lineto
stroke
newpath
33248.5 49431.1 moveto
33720.9 48958.7 lineto
stroke
newpath
33720.9 49431.1 moveto
33248.5 48958.7 lineto
stroke
newpath
34252.4 51025.6 moveto
34724.8 50553.2 lineto
stroke
newpath
34724.8 51025.6 moveto
34252.4 50553.2 lineto
stroke
newpath
34252.4 49431.1 moveto
34724.8 48958.7 lineto
stroke
newpath
34724.8 49431.1 moveto
34252.4 48958.7 lineto
stroke
newpath
35256.3 51025.6 moveto
35728.8 50553.2 lineto
stroke
newpath
35728.8 51025.6 moveto
35256.3 50553.2 lineto
stroke
newpath
35256.3 49431.1 moveto
35728.8 48958.7 lineto
stroke
newpath
35728.8 49431.1 moveto
35256.3 48958.7 lineto
stroke
newpath
36260.3 51025.6 moveto
36732.7 50553.2 lineto
stroke
newpath
36732.7 51025.6 moveto
36260.3 50553.2 lineto
stroke
newpath
36260.3 49431.1 moveto
36732.7 48958.7 lineto
stroke
newpath
36732.7 49431.1 moveto
36260.3 48958.7 lineto
stroke
newpath
37264.2 51025.6 moveto
37736.7 50553.2 lineto
stroke
newpath
37736.7 51025.6 moveto
37264.2 50553.2 lineto
stroke
newpath
37264.2 49431.1 moveto
37736.7 48958.7 lineto
stroke
newpath
37736.7 49431.1 moveto
37264.2 48958.7 lineto
stroke
newpath
38268.2 51025.6 moveto
38740.6 50553.2 lineto
stroke
newpath
38740.6 51025.6 moveto
38268.2 50553.2 lineto
stroke
newpath
38268.2 49431.1 moveto
38740.6 48958.7 lineto
stroke
newpath
38740.6 49431.1 moveto
38268.2 48958.7 lineto
stroke
newpath
39272.1 51025.6 moveto
39744.5 50553.2 lineto
stroke
newpath
39744.5 51025.6 moveto
39272.1 50553.2 lineto
stroke
newpath
39272.1 49431.1 moveto
39744.5 48958.7 lineto
stroke
newpath
39744.5 49431.1 moveto
39272.1 48958.7 lineto
stroke
30886.3 49631.9 354.331 cir0
newpath
30571.3 50517.7 moveto
30571.3 48746.1 lineto
stroke
newpath
31201.2 50517.7 moveto
31201.2 48746.1 lineto
stroke
30886.3 48746.1 314.961 180 360 arc0
30886.3 50517.7 314.961 0 180 arc0
30886.3 45639.8 354.331 cir0
newpath
30571.3 46112.2 moveto
30571.3 45167.3 lineto
stroke
newpath
31201.2 46112.2 moveto
31201.2 45167.3 lineto
stroke
30886.3 45167.3 314.961 180 360 arc0
30886.3 46112.2 314.961 0 180 arc0
41102.8 49631.9 354.331 cir0
newpath
40787.8 50517.7 moveto
40787.8 48746.1 lineto
stroke
newpath
41417.8 50517.7 moveto
41417.8 48746.1 lineto
stroke
41102.8 48746.1 314.961 180 360 arc0
41102.8 50517.7 314.961 0 180 arc0
41102.8 45639.8 354.331 cir0
newpath
40787.8 46112.2 moveto
40787.8 45167.3 lineto
stroke
newpath
41417.8 46112.2 moveto
41417.8 45167.3 lineto
stroke
41102.8 45167.3 314.961 180 360 arc0
41102.8 46112.2 314.961 0 180 arc0
newpath
71457.1 64254 moveto
71457.1 63309.1 lineto
stroke
newpath
70984.7 63781.5 moveto
71929.6 63781.5 lineto
stroke
newpath
77362.6 64254 moveto
77362.6 63309.1 lineto
stroke
newpath
76890.2 63781.5 moveto
77835.1 63781.5 lineto
stroke
newpath
59055.6 45946.9 moveto
59055.6 45002 lineto
stroke
newpath
58583.1 45474.4 moveto
59528 45474.4 lineto
stroke
newpath
59055.6 42946.9 moveto
59055.6 42002 lineto
stroke
newpath
58583.1 42474.4 moveto
59528 42474.4 lineto
stroke
newpath
81496.5 64301.2 moveto
81496.5 63356.3 lineto
stroke
newpath
81024.1 63828.8 moveto
81968.9 63828.8 lineto
stroke
newpath
81496.5 61301.2 moveto
81496.5 60356.3 lineto
stroke
newpath
81024.1 60828.8 moveto
81968.9 60828.8 lineto
stroke
newpath
75591 60710.6 moveto
75591 59765.8 lineto
stroke
newpath
75118.5 60238.2 moveto
76063.4 60238.2 lineto
stroke
newpath
78591 60710.6 moveto
78591 59765.8 lineto
stroke
newpath
78118.5 60238.2 moveto
79063.4 60238.2 lineto
stroke
newpath
59055.6 52442.9 moveto
59055.6 51498 lineto
stroke
newpath
58583.1 51970.5 moveto
59528 51970.5 lineto
stroke
newpath
59055.6 49442.9 moveto
59055.6 48498 lineto
stroke
newpath
58583.1 48970.5 moveto
59528 48970.5 lineto
stroke
newpath
62598.9 60261.8 moveto
62598.9 59316.9 lineto
stroke
newpath
62126.4 59789.4 moveto
63071.3 59789.4 lineto
stroke
newpath
62598.9 57261.8 moveto
62598.9 56316.9 lineto
stroke
newpath
62126.4 56789.4 moveto
63071.3 56789.4 lineto
stroke
newpath
62598.9 54261.8 moveto
62598.9 53316.9 lineto
stroke
newpath
62126.4 53789.4 moveto
63071.3 53789.4 lineto
stroke
newpath
59055.6 59576.8 moveto
59055.6 58631.9 lineto
stroke
newpath
58583.1 59104.3 moveto
59528 59104.3 lineto
stroke
newpath
59055.6 56576.8 moveto
59055.6 55631.9 lineto
stroke
newpath
58583.1 56104.3 moveto
59528 56104.3 lineto
stroke
newpath
44882.3 59576.8 moveto
44882.3 58631.9 lineto
stroke
newpath
44409.9 59104.3 moveto
45354.8 59104.3 lineto
stroke
newpath
44882.3 56576.8 moveto
44882.3 55631.9 lineto
stroke
newpath
44409.9 56104.3 moveto
45354.8 56104.3 lineto
stroke
newpath
81496.5 57167.3 moveto
81496.5 56222.5 lineto
stroke
newpath
81024.1 56694.9 moveto
81968.9 56694.9 lineto
stroke
newpath
81496.5 54167.3 moveto
81496.5 53222.5 lineto
stroke
newpath
81024.1 53694.9 moveto
81968.9 53694.9 lineto
stroke
newpath
62598.9 51261.8 moveto
62598.9 50316.9 lineto
stroke
newpath
62126.4 50789.4 moveto
63071.3 50789.4 lineto
stroke
newpath
54921.7 45946.9 moveto
54921.7 45002 lineto
stroke
newpath
54449.3 45474.4 moveto
55394.1 45474.4 lineto
stroke
newpath
54921.7 42946.9 moveto
54921.7 42002 lineto
stroke
newpath
54449.3 42474.4 moveto
55394.1 42474.4 lineto
stroke
newpath
62598.9 64254 moveto
62598.9 63309.1 lineto
stroke
newpath
62126.4 63781.5 moveto
63071.3 63781.5 lineto
stroke
newpath
68504.4 64254 moveto
68504.4 63309.1 lineto
stroke
newpath
68031.9 63781.5 moveto
68976.8 63781.5 lineto
stroke
newpath
86811.5 53080.7 moveto
86811.5 52135.8 lineto
stroke
newpath
86339 52608.3 moveto
87283.9 52608.3 lineto
stroke
newpath
86811.5 50080.7 moveto
86811.5 49135.8 lineto
stroke
newpath
86339 49608.3 moveto
87283.9 49608.3 lineto
stroke
newpath
71598.9 60261.8 moveto
71598.9 59316.9 lineto
stroke
newpath
71126.4 59789.4 moveto
72071.3 59789.4 lineto
stroke
newpath
71598.9 57261.8 moveto
71598.9 56316.9 lineto
stroke
newpath
71126.4 56789.4 moveto
72071.3 56789.4 lineto
stroke
newpath
71598.9 54261.8 moveto
71598.9 53316.9 lineto
stroke
newpath
71126.4 53789.4 moveto
72071.3 53789.4 lineto
stroke
newpath
71598.9 51261.8 moveto
71598.9 50316.9 lineto
stroke
newpath
71126.4 50789.4 moveto
72071.3 50789.4 lineto
stroke
newpath
75591 55986.2 moveto
75591 55041.4 lineto
stroke
newpath
75118.5 55513.8 moveto
76063.4 55513.8 lineto
stroke
newpath
78591 55986.2 moveto
78591 55041.4 lineto
stroke
newpath
78118.5 55513.8 moveto
79063.4 55513.8 lineto
stroke
newpath
90307.5 51852.4 moveto
90307.5 50907.5 lineto
stroke
newpath
89835.1 51379.9 moveto
90780 51379.9 lineto
stroke
newpath
93307.5 51852.4 moveto
93307.5 50907.5 lineto
stroke
newpath
92835.1 51379.9 moveto
93780 51379.9 lineto
stroke
newpath
54331.1 59576.8 moveto
54331.1 58631.9 lineto
stroke
newpath
53858.7 59104.3 moveto
54803.6 59104.3 lineto
stroke
newpath
86220.9 45994.1 moveto
86220.9 45049.2 lineto
stroke
newpath
85748.5 45521.7 moveto
86693.3 45521.7 lineto
stroke
newpath
86220.9 42994.1 moveto
86220.9 42049.2 lineto
stroke
newpath
85748.5 42521.7 moveto
86693.3 42521.7 lineto
stroke
newpath
54331.1 56576.8 moveto
54331.1 55631.9 lineto
stroke
newpath
53858.7 56104.3 moveto
54803.6 56104.3 lineto
stroke
newpath
49606.7 59576.8 moveto
49606.7 58631.9 lineto
stroke
newpath
49134.3 59104.3 moveto
50079.2 59104.3 lineto
stroke
newpath
49606.7 56576.8 moveto
49606.7 55631.9 lineto
stroke
newpath
49134.3 56104.3 moveto
50079.2 56104.3 lineto
stroke
newpath
54331.1 52442.9 moveto
54331.1 51498 lineto
stroke
newpath
53858.7 51970.5 moveto
54803.6 51970.5 lineto
stroke
newpath
40157.9 59576.8 moveto
40157.9 58631.9 lineto
stroke
newpath
39685.5 59104.3 moveto
40630.4 59104.3 lineto
stroke
newpath
40157.9 56576.8 moveto
40157.9 55631.9 lineto
stroke
newpath
39685.5 56104.3 moveto
40630.4 56104.3 lineto
stroke
newpath
54331.1 49442.9 moveto
54331.1 48498 lineto
stroke
newpath
53858.7 48970.5 moveto
54803.6 48970.5 lineto
stroke
newpath
26992.8 63954.5 moveto
26992.8 64789.7 lineto
26157.6 64789.7 lineto
26157.6 63954.5 lineto
26992.8 63954.5 lineto
poly0
newpath
27461.1 64923.2 moveto
25689.4 64923.2 lineto
stroke
newpath
27461.1 63820.9 moveto
25689.4 63820.9 lineto
stroke
25689.4 64372.1 551.181 450 630 arc0
27461.1 64372.1 551.181 270 450 arc0
newpath
26992.8 53324.6 moveto
26992.8 54159.7 lineto
26157.6 54159.7 lineto
26157.6 53324.6 lineto
26992.8 53324.6 lineto
poly0
newpath
27461.1 54293.3 moveto
25689.4 54293.3 lineto
stroke
newpath
27461.1 53191 moveto
25689.4 53191 lineto
stroke
25689.4 53742.1 551.181 450 630 arc0
27461.1 53742.1 551.181 270 450 arc0
newpath
28173.9 58639.5 moveto
28173.9 59474.7 lineto
27338.8 59474.7 lineto
27338.8 58639.5 lineto
28173.9 58639.5 lineto
poly0
newpath
27205.2 59824.8 moveto
27205.2 58289.4 lineto
stroke
newpath
28307.5 59824.8 moveto
28307.5 58289.4 lineto
stroke
27756.3 58289.4 551.181 180 360 arc0
27756.3 59824.8 551.181 0 180 arc0
newpath
35260.5 58639.5 moveto
35260.5 59474.7 lineto
34425.4 59474.7 lineto
34425.4 58639.5 lineto
35260.5 58639.5 lineto
poly0
newpath
34291.8 60238.2 moveto
34291.8 57876 lineto
stroke
newpath
35394.1 60238.2 moveto
35394.1 57876 lineto
stroke
34843 57876 551.181 180 360 arc0
34843 60238.2 551.181 0 180 arc0
newpath
76008.6 46237.9 moveto
76008.6 47073.1 lineto
75173.4 47073.1 lineto
75173.4 46237.9 lineto
76008.6 46237.9 lineto
poly0
newpath
81914.1 46237.9 moveto
81914.1 47073.1 lineto
81078.9 47073.1 lineto
81078.9 46237.9 lineto
81914.1 46237.9 lineto
poly0
newpath
22441.4 49549.2 moveto
23091 50198.8 lineto
22441.4 50848.4 lineto
21791.8 50198.8 lineto
22441.4 49549.2 lineto
poly0
newpath
22441.4 41872.1 moveto
23091 42521.7 lineto
22441.4 43171.3 lineto
21791.8 42521.7 lineto
22441.4 41872.1 lineto
poly0
newpath
27756.3 49549.2 moveto
28405.9 50198.8 lineto
27756.3 50848.4 lineto
27106.7 50198.8 lineto
27756.3 49549.2 lineto
poly0
newpath
27756.3 41872.1 moveto
28405.9 42521.7 lineto
27756.3 43171.3 lineto
27106.7 42521.7 lineto
27756.3 41872.1 lineto
poly0
newpath
84708.6 56646.5 moveto
86268.6 55086.5 lineto
stroke
newpath
86268.6 56646.5 moveto
84708.6 55086.5 lineto
stroke
85488.6 55866.5 780 cir0
newpath
86208.6 62646.5 moveto
87768.6 61086.5 lineto
stroke
newpath
87768.6 62646.5 moveto
86208.6 61086.5 lineto
stroke
86988.6 61866.5 780 cir0
newpath
87708.6 56646.5 moveto
89268.6 55086.5 lineto
stroke
newpath
89268.6 56646.5 moveto
87708.6 55086.5 lineto
stroke
88488.6 55866.5 780 cir0
newpath
89208.6 62646.5 moveto
90768.6 61086.5 lineto
stroke
newpath
90768.6 62646.5 moveto
89208.6 61086.5 lineto
stroke
89988.6 61866.5 780 cir0
newpath
90708.6 56646.5 moveto
92268.6 55086.5 lineto
stroke
newpath
92268.6 56646.5 moveto
90708.6 55086.5 lineto
stroke
91488.6 55866.5 780 cir0
newpath
92208.6 62646.5 moveto
93768.6 61086.5 lineto
stroke
newpath
93768.6 62646.5 moveto
92208.6 61086.5 lineto
stroke
92988.6 61866.5 780 cir0
newpath
93708.6 56646.5 moveto
95268.6 55086.5 lineto
stroke
newpath
95268.6 56646.5 moveto
93708.6 55086.5 lineto
stroke
94488.6 55866.5 780 cir0
newpath
22589 73082.7 moveto
25837 69834.7 lineto
stroke
newpath
25837 73082.7 moveto
22589 69834.7 lineto
stroke
newpath
24213 73082.7 moveto
24213 69834.7 lineto
stroke
newpath
22589 71458.7 moveto
25837 71458.7 lineto
stroke
newpath
90502.4 46413.4 moveto
93750.4 43165.4 lineto
stroke
newpath
93750.4 46413.4 moveto
90502.4 43165.4 lineto
stroke
newpath
92126.4 46413.4 moveto
92126.4 43165.4 lineto
stroke
newpath
90502.4 44789.4 moveto
93750.4 44789.4 lineto
stroke
newpath
91093 73082.7 moveto
94341 69834.7 lineto
stroke
newpath
94341 73082.7 moveto
91093 69834.7 lineto
stroke
newpath
92717 73082.7 moveto
92717 69834.7 lineto
stroke
newpath
91093 71458.7 moveto
94341 71458.7 lineto
stroke
118.11 setlinewidth
0 0 0 setrgbcolor
0 0 0 setrgbcolor
newpath
21177.3 38296.4 moveto
21177.3 39477.5 lineto
21458.5 39477.5 lineto
21627.3 39421.3 lineto
21739.7 39308.8 lineto
21796 39196.3 lineto
21852.2 38971.3 lineto
21852.2 38802.6 lineto
21796 38577.6 lineto
21739.7 38465.1 lineto
21627.3 38352.7 lineto
21458.5 38296.4 lineto
21177.3 38296.4 lineto
stroke
newpath
22358.4 38296.4 moveto
22358.4 39083.8 lineto
stroke
newpath
22358.4 38858.8 moveto
22414.7 38971.3 lineto
22470.9 39027.6 lineto
22583.4 39083.8 lineto
22695.9 39083.8 lineto
stroke
newpath
23089.6 38296.4 moveto
23089.6 39083.8 lineto
stroke
newpath
23089.6 39477.5 moveto
23033.3 39421.3 lineto
23089.6 39365 lineto
23145.8 39421.3 lineto
23089.6 39477.5 lineto
23089.6 39365 lineto
stroke
newpath
23820.7 38296.4 moveto
23708.2 38352.7 lineto
23652 38465.1 lineto
23652 39477.5 lineto
stroke
newpath
24439.4 38296.4 moveto
24326.9 38352.7 lineto
24270.7 38465.1 lineto
24270.7 39477.5 lineto
stroke
newpath
25789.2 38296.4 moveto
25789.2 39477.5 lineto
26182.9 38633.9 lineto
26576.6 39477.5 lineto
26576.6 38296.4 lineto
stroke
newpath
27645.3 38296.4 moveto
27645.3 38915.1 lineto
27589 39027.6 lineto
27476.5 39083.8 lineto
27251.6 39083.8 lineto
27139.1 39027.6 lineto
stroke
newpath
27645.3 38352.7 moveto
27532.8 38296.4 lineto
27251.6 38296.4 lineto
27139.1 38352.7 lineto
27082.8 38465.1 lineto
27082.8 38577.6 lineto
27139.1 38690.1 lineto
27251.6 38746.4 lineto
27532.8 38746.4 lineto
27645.3 38802.6 lineto
stroke
newpath
28207.7 39083.8 moveto
28207.7 37902.7 lineto
stroke
newpath
28207.7 39027.6 moveto
28320.2 39083.8 lineto
28545.1 39083.8 lineto
28657.6 39027.6 lineto
28713.9 38971.3 lineto
28770.1 38858.8 lineto
28770.1 38521.4 lineto
28713.9 38408.9 lineto
28657.6 38352.7 lineto
28545.1 38296.4 lineto
28320.2 38296.4 lineto
28207.7 38352.7 lineto
stroke
newpath
29276.3 38408.9 moveto
29332.5 38352.7 lineto
29276.3 38296.4 lineto
29220.1 38352.7 lineto
29276.3 38408.9 lineto
29276.3 38296.4 lineto
stroke
newpath
29276.3 39027.6 moveto
29332.5 38971.3 lineto
29276.3 38915.1 lineto
29220.1 38971.3 lineto
29276.3 39027.6 lineto
29276.3 38915.1 lineto
stroke
newpath
19577.2 36586.6 moveto
20049.6 36114.2 lineto
stroke
newpath
20049.6 36586.6 moveto
19577.2 36114.2 lineto
stroke
0 0 0 setrgbcolor
0 0 0 setrgbcolor
newpath
21402.3 36997.2 moveto
21514.8 36997.2 lineto
21627.3 36941 lineto
21683.5 36884.7 lineto
21739.7 36772.2 lineto
21796 36547.3 lineto
21796 36266 lineto
21739.7 36041.1 lineto
21683.5 35928.6 lineto
21627.3 35872.3 lineto
21514.8 35816.1 lineto
21402.3 35816.1 lineto
21289.8 35872.3 lineto
21233.6 35928.6 lineto
21177.3 36041.1 lineto
21121.1 36266 lineto
21121.1 36547.3 lineto
21177.3 36772.2 lineto
21233.6 36884.7 lineto
21289.8 36941 lineto
21402.3 36997.2 lineto
stroke
newpath
22302.2 35928.6 moveto
22358.4 35872.3 lineto
22302.2 35816.1 lineto
22245.9 35872.3 lineto
22302.2 35928.6 lineto
22302.2 35816.1 lineto
stroke
newpath
23370.8 36603.5 moveto
23370.8 35816.1 lineto
stroke
newpath
23089.6 37053.4 moveto
22808.4 36209.8 lineto
23539.5 36209.8 lineto
stroke
newpath
24214.4 36997.2 moveto
24326.9 36997.2 lineto
24439.4 36941 lineto
24495.7 36884.7 lineto
24551.9 36772.2 lineto
24608.1 36547.3 lineto
24608.1 36266 lineto
24551.9 36041.1 lineto
24495.7 35928.6 lineto
24439.4 35872.3 lineto
24326.9 35816.1 lineto
24214.4 35816.1 lineto
24102 35872.3 lineto
24045.7 35928.6 lineto
23989.5 36041.1 lineto
23933.2 36266 lineto
23933.2 36547.3 lineto
23989.5 36772.2 lineto
24045.7 36884.7 lineto
24102 36941 lineto
24214.4 36997.2 lineto
stroke
newpath
25114.3 35816.1 moveto
25114.3 36603.5 lineto
stroke
newpath
25114.3 36491 moveto
25170.6 36547.3 lineto
25283.1 36603.5 lineto
25451.8 36603.5 lineto
25564.3 36547.3 lineto
25620.5 36434.8 lineto
25620.5 35816.1 lineto
stroke
newpath
25620.5 36434.8 moveto
25676.8 36547.3 lineto
25789.2 36603.5 lineto
25958 36603.5 lineto
26070.5 36547.3 lineto
26126.7 36434.8 lineto
26126.7 35816.1 lineto
stroke
newpath
26689.1 35816.1 moveto
26689.1 36603.5 lineto
stroke
newpath
26689.1 36491 moveto
26745.4 36547.3 lineto
26857.9 36603.5 lineto
27026.6 36603.5 lineto
27139.1 36547.3 lineto
27195.3 36434.8 lineto
27195.3 35816.1 lineto
stroke
newpath
27195.3 36434.8 moveto
27251.6 36547.3 lineto
27364 36603.5 lineto
27532.8 36603.5 lineto
27645.3 36547.3 lineto
27701.5 36434.8 lineto
27701.5 35816.1 lineto
stroke
newpath
30007.5 37053.4 moveto
28995.1 35534.9 lineto
stroke
newpath
31526 36997.2 moveto
31638.5 36997.2 lineto
31751 36941 lineto
31807.2 36884.7 lineto
31863.5 36772.2 lineto
31919.7 36547.3 lineto
31919.7 36266 lineto
31863.5 36041.1 lineto
31807.2 35928.6 lineto
31751 35872.3 lineto
31638.5 35816.1 lineto
31526 35816.1 lineto
31413.5 35872.3 lineto
31357.3 35928.6 lineto
31301.1 36041.1 lineto
31244.8 36266 lineto
31244.8 36547.3 lineto
31301.1 36772.2 lineto
31357.3 36884.7 lineto
31413.5 36941 lineto
31526 36997.2 lineto
stroke
newpath
32425.9 35928.6 moveto
32482.2 35872.3 lineto
32425.9 35816.1 lineto
32369.7 35872.3 lineto
32425.9 35928.6 lineto
32425.9 35816.1 lineto
stroke
newpath
33213.3 36997.2 moveto
33325.8 36997.2 lineto
33438.3 36941 lineto
33494.5 36884.7 lineto
33550.8 36772.2 lineto
33607 36547.3 lineto
33607 36266 lineto
33550.8 36041.1 lineto
33494.5 35928.6 lineto
33438.3 35872.3 lineto
33325.8 35816.1 lineto
33213.3 35816.1 lineto
33100.8 35872.3 lineto
33044.6 35928.6 lineto
32988.3 36041.1 lineto
32932.1 36266 lineto
32932.1 36547.3 lineto
32988.3 36772.2 lineto
33044.6 36884.7 lineto
33100.8 36941 lineto
33213.3 36997.2 lineto
stroke
newpath
34731.9 35816.1 moveto
34057 35816.1 lineto
stroke
newpath
34394.4 35816.1 moveto
34394.4 36997.2 lineto
34281.9 36828.5 lineto
34169.4 36716 lineto
34057 36659.7 lineto
stroke
newpath
35744.2 36997.2 moveto
35519.3 36997.2 lineto
35406.8 36941 lineto
35350.5 36884.7 lineto
35238.1 36716 lineto
35181.8 36491 lineto
35181.8 36041.1 lineto
35238.1 35928.6 lineto
35294.3 35872.3 lineto
35406.8 35816.1 lineto
35631.8 35816.1 lineto
35744.2 35872.3 lineto
35800.5 35928.6 lineto
35856.7 36041.1 lineto
35856.7 36322.3 lineto
35800.5 36434.8 lineto
35744.2 36491 lineto
35631.8 36547.3 lineto
35406.8 36547.3 lineto
35294.3 36491 lineto
35238.1 36434.8 lineto
35181.8 36322.3 lineto
stroke
newpath
36306.7 36997.2 moveto
36306.7 36772.2 lineto
stroke
newpath
36756.6 36997.2 moveto
36756.6 36772.2 lineto
stroke
newpath
38500.2 35366.2 moveto
38443.9 35422.4 lineto
38331.4 35591.1 lineto
38275.2 35703.6 lineto
38218.9 35872.3 lineto
38162.7 36153.6 lineto
38162.7 36378.5 lineto
38218.9 36659.7 lineto
38275.2 36828.5 lineto
38331.4 36941 lineto
38443.9 37109.7 lineto
38500.2 37165.9 lineto
stroke
newpath
39512.5 36997.2 moveto
38950.1 36997.2 lineto
38893.9 36434.8 lineto
38950.1 36491 lineto
39062.6 36547.3 lineto
39343.8 36547.3 lineto
39456.3 36491 lineto
39512.5 36434.8 lineto
39568.8 36322.3 lineto
39568.8 36041.1 lineto
39512.5 35928.6 lineto
39456.3 35872.3 lineto
39343.8 35816.1 lineto
39062.6 35816.1 lineto
38950.1 35872.3 lineto
38893.9 35928.6 lineto
stroke
newpath
40018.7 36884.7 moveto
40075 36941 lineto
40187.4 36997.2 lineto
40468.7 36997.2 lineto
40581.1 36941 lineto
40637.4 36884.7 lineto
40693.6 36772.2 lineto
40693.6 36659.7 lineto
40637.4 36491 lineto
39962.5 35816.1 lineto
40693.6 35816.1 lineto
stroke
newpath
42099.7 35816.1 moveto
42099.7 36997.2 lineto
stroke
newpath
42605.9 35816.1 moveto
42605.9 36434.8 lineto
42549.6 36547.3 lineto
42437.2 36603.5 lineto
42268.4 36603.5 lineto
42155.9 36547.3 lineto
42099.7 36491 lineto
stroke
newpath
43337 35816.1 moveto
43224.6 35872.3 lineto
43168.3 35928.6 lineto
43112.1 36041.1 lineto
43112.1 36378.5 lineto
43168.3 36491 lineto
43224.6 36547.3 lineto
43337 36603.5 lineto
43505.8 36603.5 lineto
43618.3 36547.3 lineto
43674.5 36491 lineto
43730.7 36378.5 lineto
43730.7 36041.1 lineto
43674.5 35928.6 lineto
43618.3 35872.3 lineto
43505.8 35816.1 lineto
43337 35816.1 lineto
stroke
newpath
44405.7 35816.1 moveto
44293.2 35872.3 lineto
44236.9 35984.8 lineto
44236.9 36997.2 lineto
stroke
newpath
45305.6 35872.3 moveto
45193.1 35816.1 lineto
44968.1 35816.1 lineto
44855.6 35872.3 lineto
44799.4 35984.8 lineto
44799.4 36434.8 lineto
44855.6 36547.3 lineto
44968.1 36603.5 lineto
45193.1 36603.5 lineto
45305.6 36547.3 lineto
45361.8 36434.8 lineto
45361.8 36322.3 lineto
44799.4 36209.8 lineto
stroke
newpath
45811.7 35872.3 moveto
45924.2 35816.1 lineto
46149.2 35816.1 lineto
46261.7 35872.3 lineto
46317.9 35984.8 lineto
46317.9 36041.1 lineto
46261.7 36153.6 lineto
46149.2 36209.8 lineto
45980.5 36209.8 lineto
45868 36266 lineto
45811.7 36378.5 lineto
45811.7 36434.8 lineto
45868 36547.3 lineto
45980.5 36603.5 lineto
46149.2 36603.5 lineto
46261.7 36547.3 lineto
stroke
newpath
46711.6 35366.2 moveto
46767.9 35422.4 lineto
46880.4 35591.1 lineto
46936.6 35703.6 lineto
46992.8 35872.3 lineto
47049.1 36153.6 lineto
47049.1 36378.5 lineto
46992.8 36659.7 lineto
46936.6 36828.5 lineto
46880.4 36941 lineto
46767.9 37109.7 lineto
46711.6 37165.9 lineto
stroke
19695.3 34791.4 354.331 cir0
0 0 0 setrgbcolor
0 0 0 setrgbcolor
newpath
21402.3 35438.1 moveto
21514.8 35438.1 lineto
21627.3 35381.9 lineto
21683.5 35325.7 lineto
21739.7 35213.2 lineto
21796 34988.2 lineto
21796 34707 lineto
21739.7 34482 lineto
21683.5 34369.5 lineto
21627.3 34313.3 lineto
21514.8 34257 lineto
21402.3 34257 lineto
21289.8 34313.3 lineto
21233.6 34369.5 lineto
21177.3 34482 lineto
21121.1 34707 lineto
21121.1 34988.2 lineto
21177.3 35213.2 lineto
21233.6 35325.7 lineto
21289.8 35381.9 lineto
21402.3 35438.1 lineto
stroke
newpath
22302.2 34369.5 moveto
22358.4 34313.3 lineto
22302.2 34257 lineto
22245.9 34313.3 lineto
22302.2 34369.5 lineto
22302.2 34257 lineto
stroke
newpath
23370.8 35438.1 moveto
23145.8 35438.1 lineto
23033.3 35381.9 lineto
22977.1 35325.7 lineto
22864.6 35156.9 lineto
22808.4 34932 lineto
22808.4 34482 lineto
22864.6 34369.5 lineto
22920.8 34313.3 lineto
23033.3 34257 lineto
23258.3 34257 lineto
23370.8 34313.3 lineto
23427 34369.5 lineto
23483.3 34482 lineto
23483.3 34763.2 lineto
23427 34875.7 lineto
23370.8 34932 lineto
23258.3 34988.2 lineto
23033.3 34988.2 lineto
22920.8 34932 lineto
22864.6 34875.7 lineto
22808.4 34763.2 lineto
stroke
newpath
24214.4 35438.1 moveto
24326.9 35438.1 lineto
24439.4 35381.9 lineto
24495.7 35325.7 lineto
24551.9 35213.2 lineto
24608.1 34988.2 lineto
24608.1 34707 lineto
24551.9 34482 lineto
24495.7 34369.5 lineto
24439.4 34313.3 lineto
24326.9 34257 lineto
24214.4 34257 lineto
24102 34313.3 lineto
24045.7 34369.5 lineto
23989.5 34482 lineto
23933.2 34707 lineto
23933.2 34988.2 lineto
23989.5 35213.2 lineto
24045.7 35325.7 lineto
24102 35381.9 lineto
24214.4 35438.1 lineto
stroke
newpath
25114.3 34257 moveto
25114.3 35044.4 lineto
stroke
newpath
25114.3 34932 moveto
25170.6 34988.2 lineto
25283.1 35044.4 lineto
25451.8 35044.4 lineto
25564.3 34988.2 lineto
25620.5 34875.7 lineto
25620.5 34257 lineto
stroke
newpath
25620.5 34875.7 moveto
25676.8 34988.2 lineto
25789.2 35044.4 lineto
25958 35044.4 lineto
26070.5 34988.2 lineto
26126.7 34875.7 lineto
26126.7 34257 lineto
stroke
newpath
26689.1 34257 moveto
26689.1 35044.4 lineto
stroke
newpath
26689.1 34932 moveto
26745.4 34988.2 lineto
26857.9 35044.4 lineto
27026.6 35044.4 lineto
27139.1 34988.2 lineto
27195.3 34875.7 lineto
27195.3 34257 lineto
stroke
newpath
27195.3 34875.7 moveto
27251.6 34988.2 lineto
27364 35044.4 lineto
27532.8 35044.4 lineto
27645.3 34988.2 lineto
27701.5 34875.7 lineto
27701.5 34257 lineto
stroke
newpath
30007.5 35494.4 moveto
28995.1 33975.8 lineto
stroke
newpath
31526 35438.1 moveto
31638.5 35438.1 lineto
31751 35381.9 lineto
31807.2 35325.7 lineto
31863.5 35213.2 lineto
31919.7 34988.2 lineto
31919.7 34707 lineto
31863.5 34482 lineto
31807.2 34369.5 lineto
31751 34313.3 lineto
31638.5 34257 lineto
31526 34257 lineto
31413.5 34313.3 lineto
31357.3 34369.5 lineto
31301.1 34482 lineto
31244.8 34707 lineto
31244.8 34988.2 lineto
31301.1 35213.2 lineto
31357.3 35325.7 lineto
31413.5 35381.9 lineto
31526 35438.1 lineto
stroke
newpath
32425.9 34369.5 moveto
32482.2 34313.3 lineto
32425.9 34257 lineto
32369.7 34313.3 lineto
32425.9 34369.5 lineto
32425.9 34257 lineto
stroke
newpath
33213.3 35438.1 moveto
33325.8 35438.1 lineto
33438.3 35381.9 lineto
33494.5 35325.7 lineto
33550.8 35213.2 lineto
33607 34988.2 lineto
33607 34707 lineto
33550.8 34482 lineto
33494.5 34369.5 lineto
33438.3 34313.3 lineto
33325.8 34257 lineto
33213.3 34257 lineto
33100.8 34313.3 lineto
33044.6 34369.5 lineto
32988.3 34482 lineto
32932.1 34707 lineto
32932.1 34988.2 lineto
32988.3 35213.2 lineto
33044.6 35325.7 lineto
33100.8 35381.9 lineto
33213.3 35438.1 lineto
stroke
newpath
34057 35325.7 moveto
34113.2 35381.9 lineto
34225.7 35438.1 lineto
34506.9 35438.1 lineto
34619.4 35381.9 lineto
34675.6 35325.7 lineto
34731.9 35213.2 lineto
34731.9 35100.7 lineto
34675.6 34932 lineto
34000.7 34257 lineto
34731.9 34257 lineto
stroke
newpath
35744.2 35044.4 moveto
35744.2 34257 lineto
stroke
newpath
35463 35494.4 moveto
35181.8 34650.7 lineto
35913 34650.7 lineto
stroke
newpath
36306.7 35438.1 moveto
36306.7 35213.2 lineto
stroke
newpath
36756.6 35438.1 moveto
36756.6 35213.2 lineto
stroke
newpath
38500.2 33807.1 moveto
38443.9 33863.3 lineto
38331.4 34032.1 lineto
38275.2 34144.6 lineto
38218.9 34313.3 lineto
38162.7 34594.5 lineto
38162.7 34819.5 lineto
38218.9 35100.7 lineto
38275.2 35269.4 lineto
38331.4 35381.9 lineto
38443.9 35550.6 lineto
38500.2 35606.9 lineto
stroke
newpath
39175.1 35438.1 moveto
39287.6 35438.1 lineto
39400 35381.9 lineto
39456.3 35325.7 lineto
39512.5 35213.2 lineto
39568.8 34988.2 lineto
39568.8 34707 lineto
39512.5 34482 lineto
39456.3 34369.5 lineto
39400 34313.3 lineto
39287.6 34257 lineto
39175.1 34257 lineto
39062.6 34313.3 lineto
39006.3 34369.5 lineto
38950.1 34482 lineto
38893.9 34707 lineto
38893.9 34988.2 lineto
38950.1 35213.2 lineto
39006.3 35325.7 lineto
39062.6 35381.9 lineto
39175.1 35438.1 lineto
stroke
newpath
40974.8 34257 moveto
40974.8 35438.1 lineto
stroke
newpath
41481 34257 moveto
41481 34875.7 lineto
41424.8 34988.2 lineto
41312.3 35044.4 lineto
41143.6 35044.4 lineto
41031.1 34988.2 lineto
40974.8 34932 lineto
stroke
newpath
42212.2 34257 moveto
42099.7 34313.3 lineto
42043.5 34369.5 lineto
41987.2 34482 lineto
41987.2 34819.5 lineto
42043.5 34932 lineto
42099.7 34988.2 lineto
42212.2 35044.4 lineto
42380.9 35044.4 lineto
42493.4 34988.2 lineto
42549.6 34932 lineto
42605.9 34819.5 lineto
42605.9 34482 lineto
42549.6 34369.5 lineto
42493.4 34313.3 lineto
42380.9 34257 lineto
42212.2 34257 lineto
stroke
newpath
43280.8 34257 moveto
43168.3 34313.3 lineto
43112.1 34425.8 lineto
43112.1 35438.1 lineto
stroke
newpath
44180.7 34313.3 moveto
44068.2 34257 lineto
43843.2 34257 lineto
43730.7 34313.3 lineto
43674.5 34425.8 lineto
43674.5 34875.7 lineto
43730.7 34988.2 lineto
43843.2 35044.4 lineto
44068.2 35044.4 lineto
44180.7 34988.2 lineto
44236.9 34875.7 lineto
44236.9 34763.2 lineto
43674.5 34650.7 lineto
stroke
newpath
44686.9 34313.3 moveto
44799.4 34257 lineto
45024.3 34257 lineto
45136.8 34313.3 lineto
45193.1 34425.8 lineto
45193.1 34482 lineto
45136.8 34594.5 lineto
45024.3 34650.7 lineto
44855.6 34650.7 lineto
44743.1 34707 lineto
44686.9 34819.5 lineto
44686.9 34875.7 lineto
44743.1 34988.2 lineto
44855.6 35044.4 lineto
45024.3 35044.4 lineto
45136.8 34988.2 lineto
stroke
newpath
46599.1 34707 moveto
47499 34707 lineto
stroke
newpath
47049.1 34257 moveto
47049.1 35156.9 lineto
stroke
newpath
49467.5 35044.4 moveto
49467.5 34257 lineto
stroke
newpath
49186.3 35494.4 moveto
48905.1 34650.7 lineto
49636.3 34650.7 lineto
stroke
newpath
50929.8 34313.3 moveto
51042.3 34257 lineto
51267.3 34257 lineto
51379.8 34313.3 lineto
51436 34425.8 lineto
51436 34482 lineto
51379.8 34594.5 lineto
51267.3 34650.7 lineto
51098.6 34650.7 lineto
50986.1 34707 lineto
50929.8 34819.5 lineto
50929.8 34875.7 lineto
50986.1 34988.2 lineto
51098.6 35044.4 lineto
51267.3 35044.4 lineto
51379.8 34988.2 lineto
stroke
newpath
52110.9 34257 moveto
51998.5 34313.3 lineto
51942.2 34425.8 lineto
51942.2 35438.1 lineto
stroke
newpath
52729.6 34257 moveto
52617.1 34313.3 lineto
52560.9 34369.5 lineto
52504.7 34482 lineto
52504.7 34819.5 lineto
52560.9 34932 lineto
52617.1 34988.2 lineto
52729.6 35044.4 lineto
52898.4 35044.4 lineto
53010.8 34988.2 lineto
53067.1 34932 lineto
53123.3 34819.5 lineto
53123.3 34482 lineto
53067.1 34369.5 lineto
53010.8 34313.3 lineto
52898.4 34257 lineto
52729.6 34257 lineto
stroke
newpath
53460.8 35044.4 moveto
53910.7 35044.4 lineto
stroke
newpath
53629.5 35438.1 moveto
53629.5 34425.8 lineto
53685.8 34313.3 lineto
53798.2 34257 lineto
53910.7 34257 lineto
stroke
newpath
54248.2 34313.3 moveto
54360.7 34257 lineto
54585.6 34257 lineto
54698.1 34313.3 lineto
54754.4 34425.8 lineto
54754.4 34482 lineto
54698.1 34594.5 lineto
54585.6 34650.7 lineto
54416.9 34650.7 lineto
54304.4 34707 lineto
54248.2 34819.5 lineto
54248.2 34875.7 lineto
54304.4 34988.2 lineto
54416.9 35044.4 lineto
54585.6 35044.4 lineto
54698.1 34988.2 lineto
stroke
newpath
55148.1 33807.1 moveto
55204.3 33863.3 lineto
55316.8 34032.1 lineto
55373 34144.6 lineto
55429.3 34313.3 lineto
55485.5 34594.5 lineto
55485.5 34819.5 lineto
55429.3 35100.7 lineto
55373 35269.4 lineto
55316.8 35381.9 lineto
55204.3 35550.6 lineto
55148.1 35606.9 lineto
stroke
newpath
19577.2 33704.7 moveto
19577.2 32759.9 lineto
stroke
newpath
19104.8 33232.3 moveto
20049.6 33232.3 lineto
stroke
0 0 0 setrgbcolor
0 0 0 setrgbcolor
newpath
21402.3 33879.1 moveto
21514.8 33879.1 lineto
21627.3 33822.8 lineto
21683.5 33766.6 lineto
21739.7 33654.1 lineto
21796 33429.1 lineto
21796 33147.9 lineto
21739.7 32923 lineto
21683.5 32810.5 lineto
21627.3 32754.2 lineto
21514.8 32698 lineto
21402.3 32698 lineto
21289.8 32754.2 lineto
21233.6 32810.5 lineto
21177.3 32923 lineto
21121.1 33147.9 lineto
21121.1 33429.1 lineto
21177.3 33654.1 lineto
21233.6 33766.6 lineto
21289.8 33822.8 lineto
21402.3 33879.1 lineto
stroke
newpath
22302.2 32810.5 moveto
22358.4 32754.2 lineto
22302.2 32698 lineto
22245.9 32754.2 lineto
22302.2 32810.5 lineto
22302.2 32698 lineto
stroke
newpath
23033.3 33372.9 moveto
22920.8 33429.1 lineto
22864.6 33485.4 lineto
22808.4 33597.9 lineto
22808.4 33654.1 lineto
22864.6 33766.6 lineto
22920.8 33822.8 lineto
23033.3 33879.1 lineto
23258.3 33879.1 lineto
23370.8 33822.8 lineto
23427 33766.6 lineto
23483.3 33654.1 lineto
23483.3 33597.9 lineto
23427 33485.4 lineto
23370.8 33429.1 lineto
23258.3 33372.9 lineto
23033.3 33372.9 lineto
22920.8 33316.7 lineto
22864.6 33260.4 lineto
22808.4 33147.9 lineto
22808.4 32923 lineto
22864.6 32810.5 lineto
22920.8 32754.2 lineto
23033.3 32698 lineto
23258.3 32698 lineto
23370.8 32754.2 lineto
23427 32810.5 lineto
23483.3 32923 lineto
23483.3 33147.9 lineto
23427 33260.4 lineto
23370.8 33316.7 lineto
23258.3 33372.9 lineto
stroke
newpath
24214.4 33879.1 moveto
24326.9 33879.1 lineto
24439.4 33822.8 lineto
24495.7 33766.6 lineto
24551.9 33654.1 lineto
24608.1 33429.1 lineto
24608.1 33147.9 lineto
24551.9 32923 lineto
24495.7 32810.5 lineto
24439.4 32754.2 lineto
24326.9 32698 lineto
24214.4 32698 lineto
24102 32754.2 lineto
24045.7 32810.5 lineto
23989.5 32923 lineto
23933.2 33147.9 lineto
23933.2 33429.1 lineto
23989.5 33654.1 lineto
24045.7 33766.6 lineto
24102 33822.8 lineto
24214.4 33879.1 lineto
stroke
newpath
25114.3 32698 moveto
25114.3 33485.4 lineto
stroke
newpath
25114.3 33372.9 moveto
25170.6 33429.1 lineto
25283.1 33485.4 lineto
25451.8 33485.4 lineto
25564.3 33429.1 lineto
25620.5 33316.7 lineto
25620.5 32698 lineto
stroke
newpath
25620.5 33316.7 moveto
25676.8 33429.1 lineto
25789.2 33485.4 lineto
25958 33485.4 lineto
26070.5 33429.1 lineto
26126.7 33316.7 lineto
26126.7 32698 lineto
stroke
newpath
26689.1 32698 moveto
26689.1 33485.4 lineto
stroke
newpath
26689.1 33372.9 moveto
26745.4 33429.1 lineto
26857.9 33485.4 lineto
27026.6 33485.4 lineto
27139.1 33429.1 lineto
27195.3 33316.7 lineto
27195.3 32698 lineto
stroke
newpath
27195.3 33316.7 moveto
27251.6 33429.1 lineto
27364 33485.4 lineto
27532.8 33485.4 lineto
27645.3 33429.1 lineto
27701.5 33316.7 lineto
27701.5 32698 lineto
stroke
newpath
30007.5 33935.3 moveto
28995.1 32416.8 lineto
stroke
newpath
31526 33879.1 moveto
31638.5 33879.1 lineto
31751 33822.8 lineto
31807.2 33766.6 lineto
31863.5 33654.1 lineto
31919.7 33429.1 lineto
31919.7 33147.9 lineto
31863.5 32923 lineto
31807.2 32810.5 lineto
31751 32754.2 lineto
31638.5 32698 lineto
31526 32698 lineto
31413.5 32754.2 lineto
31357.3 32810.5 lineto
31301.1 32923 lineto
31244.8 33147.9 lineto
31244.8 33429.1 lineto
31301.1 33654.1 lineto
31357.3 33766.6 lineto
31413.5 33822.8 lineto
31526 33879.1 lineto
stroke
newpath
32425.9 32810.5 moveto
32482.2 32754.2 lineto
32425.9 32698 lineto
32369.7 32754.2 lineto
32425.9 32810.5 lineto
32425.9 32698 lineto
stroke
newpath
33213.3 33879.1 moveto
33325.8 33879.1 lineto
33438.3 33822.8 lineto
33494.5 33766.6 lineto
33550.8 33654.1 lineto
33607 33429.1 lineto
33607 33147.9 lineto
33550.8 32923 lineto
33494.5 32810.5 lineto
33438.3 32754.2 lineto
33325.8 32698 lineto
33213.3 32698 lineto
33100.8 32754.2 lineto
33044.6 32810.5 lineto
32988.3 32923 lineto
32932.1 33147.9 lineto
32932.1 33429.1 lineto
32988.3 33654.1 lineto
33044.6 33766.6 lineto
33100.8 33822.8 lineto
33213.3 33879.1 lineto
stroke
newpath
34000.7 33879.1 moveto
34731.9 33879.1 lineto
34338.2 33429.1 lineto
34506.9 33429.1 lineto
34619.4 33372.9 lineto
34675.6 33316.7 lineto
34731.9 33204.2 lineto
34731.9 32923 lineto
34675.6 32810.5 lineto
34619.4 32754.2 lineto
34506.9 32698 lineto
34169.4 32698 lineto
34057 32754.2 lineto
34000.7 32810.5 lineto
stroke
newpath
35856.7 32698 moveto
35181.8 32698 lineto
stroke
newpath
35519.3 32698 moveto
35519.3 33879.1 lineto
35406.8 33710.4 lineto
35294.3 33597.9 lineto
35181.8 33541.6 lineto
stroke
newpath
36306.7 33879.1 moveto
36306.7 33654.1 lineto
stroke
newpath
36756.6 33879.1 moveto
36756.6 33654.1 lineto
stroke
newpath
38500.2 32248 moveto
38443.9 32304.3 lineto
38331.4 32473 lineto
38275.2 32585.5 lineto
38218.9 32754.2 lineto
38162.7 33035.4 lineto
38162.7 33260.4 lineto
38218.9 33541.6 lineto
38275.2 33710.4 lineto
38331.4 33822.8 lineto
38443.9 33991.6 lineto
38500.2 34047.8 lineto
stroke
newpath
39456.3 33485.4 moveto
39456.3 32698 lineto
stroke
newpath
39175.1 33935.3 moveto
38893.9 33091.7 lineto
39625 33091.7 lineto
stroke
newpath
40581.1 33485.4 moveto
40581.1 32698 lineto
stroke
newpath
40299.9 33935.3 moveto
40018.7 33091.7 lineto
40749.9 33091.7 lineto
stroke
newpath
42099.7 32698 moveto
42099.7 33879.1 lineto
stroke
newpath
42605.9 32698 moveto
42605.9 33316.7 lineto
42549.6 33429.1 lineto
42437.2 33485.4 lineto
42268.4 33485.4 lineto
42155.9 33429.1 lineto
42099.7 33372.9 lineto
stroke
newpath
43337 32698 moveto
43224.6 32754.2 lineto
43168.3 32810.5 lineto
43112.1 32923 lineto
43112.1 33260.4 lineto
43168.3 33372.9 lineto
43224.6 33429.1 lineto
43337 33485.4 lineto
43505.8 33485.4 lineto
43618.3 33429.1 lineto
43674.5 33372.9 lineto
43730.7 33260.4 lineto
43730.7 32923 lineto
43674.5 32810.5 lineto
43618.3 32754.2 lineto
43505.8 32698 lineto
43337 32698 lineto
stroke
newpath
44405.7 32698 moveto
44293.2 32754.2 lineto
44236.9 32866.7 lineto
44236.9 33879.1 lineto
stroke
newpath
45305.6 32754.2 moveto
45193.1 32698 lineto
44968.1 32698 lineto
44855.6 32754.2 lineto
44799.4 32866.7 lineto
44799.4 33316.7 lineto
44855.6 33429.1 lineto
44968.1 33485.4 lineto
45193.1 33485.4 lineto
45305.6 33429.1 lineto
45361.8 33316.7 lineto
45361.8 33204.2 lineto
44799.4 33091.7 lineto
stroke
newpath
45811.7 32754.2 moveto
45924.2 32698 lineto
46149.2 32698 lineto
46261.7 32754.2 lineto
46317.9 32866.7 lineto
46317.9 32923 lineto
46261.7 33035.4 lineto
46149.2 33091.7 lineto
45980.5 33091.7 lineto
45868 33147.9 lineto
45811.7 33260.4 lineto
45811.7 33316.7 lineto
45868 33429.1 lineto
45980.5 33485.4 lineto
46149.2 33485.4 lineto
46261.7 33429.1 lineto
stroke
newpath
46711.6 32248 moveto
46767.9 32304.3 lineto
46880.4 32473 lineto
46936.6 32585.5 lineto
46992.8 32754.2 lineto
47049.1 33035.4 lineto
47049.1 33260.4 lineto
46992.8 33541.6 lineto
46936.6 33710.4 lineto
46880.4 33822.8 lineto
46767.9 33991.6 lineto
46711.6 34047.8 lineto
stroke
newpath
19876.7 31255.7 moveto
19876.7 32090.8 lineto
19041.5 32090.8 lineto
19041.5 31255.7 lineto
19876.7 31255.7 lineto
poly0
0 0 0 setrgbcolor
0 0 0 setrgbcolor
newpath
21796 31138.9 moveto
21121.1 31138.9 lineto
stroke
newpath
21458.5 31138.9 moveto
21458.5 32320 lineto
21346 32151.3 lineto
21233.6 32038.8 lineto
21121.1 31982.6 lineto
stroke
newpath
22302.2 31251.4 moveto
22358.4 31195.2 lineto
22302.2 31138.9 lineto
22245.9 31195.2 lineto
22302.2 31251.4 lineto
22302.2 31138.9 lineto
stroke
newpath
23089.6 32320 moveto
23202.1 32320 lineto
23314.5 32263.8 lineto
23370.8 32207.6 lineto
23427 32095.1 lineto
23483.3 31870.1 lineto
23483.3 31588.9 lineto
23427 31363.9 lineto
23370.8 31251.4 lineto
23314.5 31195.2 lineto
23202.1 31138.9 lineto
23089.6 31138.9 lineto
22977.1 31195.2 lineto
22920.8 31251.4 lineto
22864.6 31363.9 lineto
22808.4 31588.9 lineto
22808.4 31870.1 lineto
22864.6 32095.1 lineto
22920.8 32207.6 lineto
22977.1 32263.8 lineto
23089.6 32320 lineto
stroke
newpath
24214.4 32320 moveto
24326.9 32320 lineto
24439.4 32263.8 lineto
24495.7 32207.6 lineto
24551.9 32095.1 lineto
24608.1 31870.1 lineto
24608.1 31588.9 lineto
24551.9 31363.9 lineto
24495.7 31251.4 lineto
24439.4 31195.2 lineto
24326.9 31138.9 lineto
24214.4 31138.9 lineto
24102 31195.2 lineto
24045.7 31251.4 lineto
23989.5 31363.9 lineto
23933.2 31588.9 lineto
23933.2 31870.1 lineto
23989.5 32095.1 lineto
24045.7 32207.6 lineto
24102 32263.8 lineto
24214.4 32320 lineto
stroke
newpath
25114.3 31138.9 moveto
25114.3 31926.3 lineto
stroke
newpath
25114.3 31813.9 moveto
25170.6 31870.1 lineto
25283.1 31926.3 lineto
25451.8 31926.3 lineto
25564.3 31870.1 lineto
25620.5 31757.6 lineto
25620.5 31138.9 lineto
stroke
newpath
25620.5 31757.6 moveto
25676.8 31870.1 lineto
25789.2 31926.3 lineto
25958 31926.3 lineto
26070.5 31870.1 lineto
26126.7 31757.6 lineto
26126.7 31138.9 lineto
stroke
newpath
26689.1 31138.9 moveto
26689.1 31926.3 lineto
stroke
newpath
26689.1 31813.9 moveto
26745.4 31870.1 lineto
26857.9 31926.3 lineto
27026.6 31926.3 lineto
27139.1 31870.1 lineto
27195.3 31757.6 lineto
27195.3 31138.9 lineto
stroke
newpath
27195.3 31757.6 moveto
27251.6 31870.1 lineto
27364 31926.3 lineto
27532.8 31926.3 lineto
27645.3 31870.1 lineto
27701.5 31757.6 lineto
27701.5 31138.9 lineto
stroke
newpath
30007.5 32376.3 moveto
28995.1 30857.7 lineto
stroke
newpath
31526 32320 moveto
31638.5 32320 lineto
31751 32263.8 lineto
31807.2 32207.6 lineto
31863.5 32095.1 lineto
31919.7 31870.1 lineto
31919.7 31588.9 lineto
31863.5 31363.9 lineto
31807.2 31251.4 lineto
31751 31195.2 lineto
31638.5 31138.9 lineto
31526 31138.9 lineto
31413.5 31195.2 lineto
31357.3 31251.4 lineto
31301.1 31363.9 lineto
31244.8 31588.9 lineto
31244.8 31870.1 lineto
31301.1 32095.1 lineto
31357.3 32207.6 lineto
31413.5 32263.8 lineto
31526 32320 lineto
stroke
newpath
32425.9 31251.4 moveto
32482.2 31195.2 lineto
32425.9 31138.9 lineto
32369.7 31195.2 lineto
32425.9 31251.4 lineto
32425.9 31138.9 lineto
stroke
newpath
33213.3 32320 moveto
33325.8 32320 lineto
33438.3 32263.8 lineto
33494.5 32207.6 lineto
33550.8 32095.1 lineto
33607 31870.1 lineto
33607 31588.9 lineto
33550.8 31363.9 lineto
33494.5 31251.4 lineto
33438.3 31195.2 lineto
33325.8 31138.9 lineto
33213.3 31138.9 lineto
33100.8 31195.2 lineto
33044.6 31251.4 lineto
32988.3 31363.9 lineto
32932.1 31588.9 lineto
32932.1 31870.1 lineto
32988.3 32095.1 lineto
33044.6 32207.6 lineto
33100.8 32263.8 lineto
33213.3 32320 lineto
stroke
newpath
34000.7 32320 moveto
34731.9 32320 lineto
34338.2 31870.1 lineto
34506.9 31870.1 lineto
34619.4 31813.9 lineto
34675.6 31757.6 lineto
34731.9 31645.1 lineto
34731.9 31363.9 lineto
34675.6 31251.4 lineto
34619.4 31195.2 lineto
34506.9 31138.9 lineto
34169.4 31138.9 lineto
34057 31195.2 lineto
34000.7 31251.4 lineto
stroke
newpath
35294.3 31138.9 moveto
35519.3 31138.9 lineto
35631.8 31195.2 lineto
35688 31251.4 lineto
35800.5 31420.2 lineto
35856.7 31645.1 lineto
35856.7 32095.1 lineto
35800.5 32207.6 lineto
35744.2 32263.8 lineto
35631.8 32320 lineto
35406.8 32320 lineto
35294.3 32263.8 lineto
35238.1 32207.6 lineto
35181.8 32095.1 lineto
35181.8 31813.9 lineto
35238.1 31701.4 lineto
35294.3 31645.1 lineto
35406.8 31588.9 lineto
35631.8 31588.9 lineto
35744.2 31645.1 lineto
35800.5 31701.4 lineto
35856.7 31813.9 lineto
stroke
newpath
36306.7 32320 moveto
36306.7 32095.1 lineto
stroke
newpath
36756.6 32320 moveto
36756.6 32095.1 lineto
stroke
newpath
38500.2 30689 moveto
38443.9 30745.2 lineto
38331.4 30914 lineto
38275.2 31026.4 lineto
38218.9 31195.2 lineto
38162.7 31476.4 lineto
38162.7 31701.4 lineto
38218.9 31982.6 lineto
38275.2 32151.3 lineto
38331.4 32263.8 lineto
38443.9 32432.5 lineto
38500.2 32488.8 lineto
stroke
newpath
38893.9 32207.6 moveto
38950.1 32263.8 lineto
39062.6 32320 lineto
39343.8 32320 lineto
39456.3 32263.8 lineto
39512.5 32207.6 lineto
39568.8 32095.1 lineto
39568.8 31982.6 lineto
39512.5 31813.9 lineto
38837.6 31138.9 lineto
39568.8 31138.9 lineto
stroke
newpath
40974.8 31138.9 moveto
40974.8 32320 lineto
stroke
newpath
41481 31138.9 moveto
41481 31757.6 lineto
41424.8 31870.1 lineto
41312.3 31926.3 lineto
41143.6 31926.3 lineto
41031.1 31870.1 lineto
40974.8 31813.9 lineto
stroke
newpath
42212.2 31138.9 moveto
42099.7 31195.2 lineto
42043.5 31251.4 lineto
41987.2 31363.9 lineto
41987.2 31701.4 lineto
42043.5 31813.9 lineto
42099.7 31870.1 lineto
42212.2 31926.3 lineto
42380.9 31926.3 lineto
42493.4 31870.1 lineto
42549.6 31813.9 lineto
42605.9 31701.4 lineto
42605.9 31363.9 lineto
42549.6 31251.4 lineto
42493.4 31195.2 lineto
42380.9 31138.9 lineto
42212.2 31138.9 lineto
stroke
newpath
43280.8 31138.9 moveto
43168.3 31195.2 lineto
43112.1 31307.7 lineto
43112.1 32320 lineto
stroke
newpath
44180.7 31195.2 moveto
44068.2 31138.9 lineto
43843.2 31138.9 lineto
43730.7 31195.2 lineto
43674.5 31307.7 lineto
43674.5 31757.6 lineto
43730.7 31870.1 lineto
43843.2 31926.3 lineto
44068.2 31926.3 lineto
44180.7 31870.1 lineto
44236.9 31757.6 lineto
44236.9 31645.1 lineto
43674.5 31532.6 lineto
stroke
newpath
44686.9 31195.2 moveto
44799.4 31138.9 lineto
45024.3 31138.9 lineto
45136.8 31195.2 lineto
45193.1 31307.7 lineto
45193.1 31363.9 lineto
45136.8 31476.4 lineto
45024.3 31532.6 lineto
44855.6 31532.6 lineto
44743.1 31588.9 lineto
44686.9 31701.4 lineto
44686.9 31757.6 lineto
44743.1 31870.1 lineto
44855.6 31926.3 lineto
45024.3 31926.3 lineto
45136.8 31870.1 lineto
stroke
newpath
46599.1 31588.9 moveto
47499 31588.9 lineto
stroke
newpath
47049.1 31138.9 moveto
47049.1 32038.8 lineto
stroke
newpath
49467.5 31926.3 moveto
49467.5 31138.9 lineto
stroke
newpath
49186.3 32376.3 moveto
48905.1 31532.6 lineto
49636.3 31532.6 lineto
stroke
newpath
50929.8 31195.2 moveto
51042.3 31138.9 lineto
51267.3 31138.9 lineto
51379.8 31195.2 lineto
51436 31307.7 lineto
51436 31363.9 lineto
51379.8 31476.4 lineto
51267.3 31532.6 lineto
51098.6 31532.6 lineto
50986.1 31588.9 lineto
50929.8 31701.4 lineto
50929.8 31757.6 lineto
50986.1 31870.1 lineto
51098.6 31926.3 lineto
51267.3 31926.3 lineto
51379.8 31870.1 lineto
stroke
newpath
52110.9 31138.9 moveto
51998.5 31195.2 lineto
51942.2 31307.7 lineto
51942.2 32320 lineto
stroke
newpath
52729.6 31138.9 moveto
52617.1 31195.2 lineto
52560.9 31251.4 lineto
52504.7 31363.9 lineto
52504.7 31701.4 lineto
52560.9 31813.9 lineto
52617.1 31870.1 lineto
52729.6 31926.3 lineto
52898.4 31926.3 lineto
53010.8 31870.1 lineto
53067.1 31813.9 lineto
53123.3 31701.4 lineto
53123.3 31363.9 lineto
53067.1 31251.4 lineto
53010.8 31195.2 lineto
52898.4 31138.9 lineto
52729.6 31138.9 lineto
stroke
newpath
53460.8 31926.3 moveto
53910.7 31926.3 lineto
stroke
newpath
53629.5 32320 moveto
53629.5 31307.7 lineto
53685.8 31195.2 lineto
53798.2 31138.9 lineto
53910.7 31138.9 lineto
stroke
newpath
54248.2 31195.2 moveto
54360.7 31138.9 lineto
54585.6 31138.9 lineto
54698.1 31195.2 lineto
54754.4 31307.7 lineto
54754.4 31363.9 lineto
54698.1 31476.4 lineto
54585.6 31532.6 lineto
54416.9 31532.6 lineto
54304.4 31588.9 lineto
54248.2 31701.4 lineto
54248.2 31757.6 lineto
54304.4 31870.1 lineto
54416.9 31926.3 lineto
54585.6 31926.3 lineto
54698.1 31870.1 lineto
stroke
newpath
55148.1 30689 moveto
55204.3 30745.2 lineto
55316.8 30914 lineto
55373 31026.4 lineto
55429.3 31195.2 lineto
55485.5 31476.4 lineto
55485.5 31701.4 lineto
55429.3 31982.6 lineto
55373 32151.3 lineto
55316.8 32263.8 lineto
55204.3 32432.5 lineto
55148.1 32488.8 lineto
stroke
newpath
19400 29330.7 moveto
20049.6 29980.3 lineto
19400 30629.9 lineto
18750.4 29980.3 lineto
19400 29330.7 lineto
poly0
0 0 0 setrgbcolor
0 0 0 setrgbcolor
newpath
21796 29446 moveto
21121.1 29446 lineto
stroke
newpath
21458.5 29446 moveto
21458.5 30627.1 lineto
21346 30458.4 lineto
21233.6 30345.9 lineto
21121.1 30289.7 lineto
stroke
newpath
22302.2 29558.5 moveto
22358.4 29502.3 lineto
22302.2 29446 lineto
22245.9 29502.3 lineto
22302.2 29558.5 lineto
22302.2 29446 lineto
stroke
newpath
23483.3 29446 moveto
22808.4 29446 lineto
stroke
newpath
23145.8 29446 moveto
23145.8 30627.1 lineto
23033.3 30458.4 lineto
22920.8 30345.9 lineto
22808.4 30289.7 lineto
stroke
newpath
24214.4 30627.1 moveto
24326.9 30627.1 lineto
24439.4 30570.9 lineto
24495.7 30514.6 lineto
24551.9 30402.2 lineto
24608.1 30177.2 lineto
24608.1 29896 lineto
24551.9 29671 lineto
24495.7 29558.5 lineto
24439.4 29502.3 lineto
24326.9 29446 lineto
24214.4 29446 lineto
24102 29502.3 lineto
24045.7 29558.5 lineto
23989.5 29671 lineto
23933.2 29896 lineto
23933.2 30177.2 lineto
23989.5 30402.2 lineto
24045.7 30514.6 lineto
24102 30570.9 lineto
24214.4 30627.1 lineto
stroke
newpath
25114.3 29446 moveto
25114.3 30233.4 lineto
stroke
newpath
25114.3 30120.9 moveto
25170.6 30177.2 lineto
25283.1 30233.4 lineto
25451.8 30233.4 lineto
25564.3 30177.2 lineto
25620.5 30064.7 lineto
25620.5 29446 lineto
stroke
newpath
25620.5 30064.7 moveto
25676.8 30177.2 lineto
25789.2 30233.4 lineto
25958 30233.4 lineto
26070.5 30177.2 lineto
26126.7 30064.7 lineto
26126.7 29446 lineto
stroke
newpath
26689.1 29446 moveto
26689.1 30233.4 lineto
stroke
newpath
26689.1 30120.9 moveto
26745.4 30177.2 lineto
26857.9 30233.4 lineto
27026.6 30233.4 lineto
27139.1 30177.2 lineto
27195.3 30064.7 lineto
27195.3 29446 lineto
stroke
newpath
27195.3 30064.7 moveto
27251.6 30177.2 lineto
27364 30233.4 lineto
27532.8 30233.4 lineto
27645.3 30177.2 lineto
27701.5 30064.7 lineto
27701.5 29446 lineto
stroke
newpath
30007.5 30683.4 moveto
28995.1 29164.8 lineto
stroke
newpath
31526 30627.1 moveto
31638.5 30627.1 lineto
31751 30570.9 lineto
31807.2 30514.6 lineto
31863.5 30402.2 lineto
31919.7 30177.2 lineto
31919.7 29896 lineto
31863.5 29671 lineto
31807.2 29558.5 lineto
31751 29502.3 lineto
31638.5 29446 lineto
31526 29446 lineto
31413.5 29502.3 lineto
31357.3 29558.5 lineto
31301.1 29671 lineto
31244.8 29896 lineto
31244.8 30177.2 lineto
31301.1 30402.2 lineto
31357.3 30514.6 lineto
31413.5 30570.9 lineto
31526 30627.1 lineto
stroke
newpath
32425.9 29558.5 moveto
32482.2 29502.3 lineto
32425.9 29446 lineto
32369.7 29502.3 lineto
32425.9 29558.5 lineto
32425.9 29446 lineto
stroke
newpath
33213.3 30627.1 moveto
33325.8 30627.1 lineto
33438.3 30570.9 lineto
33494.5 30514.6 lineto
33550.8 30402.2 lineto
33607 30177.2 lineto
33607 29896 lineto
33550.8 29671 lineto
33494.5 29558.5 lineto
33438.3 29502.3 lineto
33325.8 29446 lineto
33213.3 29446 lineto
33100.8 29502.3 lineto
33044.6 29558.5 lineto
32988.3 29671 lineto
32932.1 29896 lineto
32932.1 30177.2 lineto
32988.3 30402.2 lineto
33044.6 30514.6 lineto
33100.8 30570.9 lineto
33213.3 30627.1 lineto
stroke
newpath
34619.4 30233.4 moveto
34619.4 29446 lineto
stroke
newpath
34338.2 30683.4 moveto
34057 29839.7 lineto
34788.1 29839.7 lineto
stroke
newpath
35125.6 30627.1 moveto
35856.7 30627.1 lineto
35463 30177.2 lineto
35631.8 30177.2 lineto
35744.2 30120.9 lineto
35800.5 30064.7 lineto
35856.7 29952.2 lineto
35856.7 29671 lineto
35800.5 29558.5 lineto
35744.2 29502.3 lineto
35631.8 29446 lineto
35294.3 29446 lineto
35181.8 29502.3 lineto
35125.6 29558.5 lineto
stroke
newpath
36306.7 30627.1 moveto
36306.7 30402.2 lineto
stroke
newpath
36756.6 30627.1 moveto
36756.6 30402.2 lineto
stroke
newpath
38500.2 28996.1 moveto
38443.9 29052.3 lineto
38331.4 29221 lineto
38275.2 29333.5 lineto
38218.9 29502.3 lineto
38162.7 29783.5 lineto
38162.7 30008.5 lineto
38218.9 30289.7 lineto
38275.2 30458.4 lineto
38331.4 30570.9 lineto
38443.9 30739.6 lineto
38500.2 30795.9 lineto
stroke
newpath
39456.3 30233.4 moveto
39456.3 29446 lineto
stroke
newpath
39175.1 30683.4 moveto
38893.9 29839.7 lineto
39625 29839.7 lineto
stroke
newpath
40974.8 29446 moveto
40974.8 30627.1 lineto
stroke
newpath
41481 29446 moveto
41481 30064.7 lineto
41424.8 30177.2 lineto
41312.3 30233.4 lineto
41143.6 30233.4 lineto
41031.1 30177.2 lineto
40974.8 30120.9 lineto
stroke
newpath
42212.2 29446 moveto
42099.7 29502.3 lineto
42043.5 29558.5 lineto
41987.2 29671 lineto
41987.2 30008.5 lineto
42043.5 30120.9 lineto
42099.7 30177.2 lineto
42212.2 30233.4 lineto
42380.9 30233.4 lineto
42493.4 30177.2 lineto
42549.6 30120.9 lineto
42605.9 30008.5 lineto
42605.9 29671 lineto
42549.6 29558.5 lineto
42493.4 29502.3 lineto
42380.9 29446 lineto
42212.2 29446 lineto
stroke
newpath
43280.8 29446 moveto
43168.3 29502.3 lineto
43112.1 29614.8 lineto
43112.1 30627.1 lineto
stroke
newpath
44180.7 29502.3 moveto
44068.2 29446 lineto
43843.2 29446 lineto
43730.7 29502.3 lineto
43674.5 29614.8 lineto
43674.5 30064.7 lineto
43730.7 30177.2 lineto
43843.2 30233.4 lineto
44068.2 30233.4 lineto
44180.7 30177.2 lineto
44236.9 30064.7 lineto
44236.9 29952.2 lineto
43674.5 29839.7 lineto
stroke
newpath
44686.9 29502.3 moveto
44799.4 29446 lineto
45024.3 29446 lineto
45136.8 29502.3 lineto
45193.1 29614.8 lineto
45193.1 29671 lineto
45136.8 29783.5 lineto
45024.3 29839.7 lineto
44855.6 29839.7 lineto
44743.1 29896 lineto
44686.9 30008.5 lineto
44686.9 30064.7 lineto
44743.1 30177.2 lineto
44855.6 30233.4 lineto
45024.3 30233.4 lineto
45136.8 30177.2 lineto
stroke
newpath
45586.8 28996.1 moveto
45643 29052.3 lineto
45755.5 29221 lineto
45811.7 29333.5 lineto
45868 29502.3 lineto
45924.2 29783.5 lineto
45924.2 30008.5 lineto
45868 30289.7 lineto
45811.7 30458.4 lineto
45755.5 30570.9 lineto
45643 30739.6 lineto
45586.8 30795.9 lineto
stroke
newpath
18489.6 28949.3 moveto
20049.6 27389.3 lineto
stroke
newpath
20049.6 28949.3 moveto
18489.6 27389.3 lineto
stroke
19269.6 28169.3 780 cir0
0 0 0 setrgbcolor
0 0 0 setrgbcolor
newpath
21796 27635 moveto
21121.1 27635 lineto
stroke
newpath
21458.5 27635 moveto
21458.5 28816.1 lineto
21346 28647.4 lineto
21233.6 28534.9 lineto
21121.1 28478.6 lineto
stroke
newpath
22302.2 27747.5 moveto
22358.4 27691.2 lineto
22302.2 27635 lineto
22245.9 27691.2 lineto
22302.2 27747.5 lineto
22302.2 27635 lineto
stroke
newpath
22752.1 28816.1 moveto
23483.3 28816.1 lineto
23089.6 28366.2 lineto
23258.3 28366.2 lineto
23370.8 28309.9 lineto
23427 28253.7 lineto
23483.3 28141.2 lineto
23483.3 27860 lineto
23427 27747.5 lineto
23370.8 27691.2 lineto
23258.3 27635 lineto
22920.8 27635 lineto
22808.4 27691.2 lineto
22752.1 27747.5 lineto
stroke
newpath
23933.2 28703.6 moveto
23989.5 28759.9 lineto
24102 28816.1 lineto
24383.2 28816.1 lineto
24495.7 28759.9 lineto
24551.9 28703.6 lineto
24608.1 28591.1 lineto
24608.1 28478.6 lineto
24551.9 28309.9 lineto
23877 27635 lineto
24608.1 27635 lineto
stroke
newpath
25114.3 27635 moveto
25114.3 28422.4 lineto
stroke
newpath
25114.3 28309.9 moveto
25170.6 28366.2 lineto
25283.1 28422.4 lineto
25451.8 28422.4 lineto
25564.3 28366.2 lineto
25620.5 28253.7 lineto
25620.5 27635 lineto
stroke
newpath
25620.5 28253.7 moveto
25676.8 28366.2 lineto
25789.2 28422.4 lineto
25958 28422.4 lineto
26070.5 28366.2 lineto
26126.7 28253.7 lineto
26126.7 27635 lineto
stroke
newpath
26689.1 27635 moveto
26689.1 28422.4 lineto
stroke
newpath
26689.1 28309.9 moveto
26745.4 28366.2 lineto
26857.9 28422.4 lineto
27026.6 28422.4 lineto
27139.1 28366.2 lineto
27195.3 28253.7 lineto
27195.3 27635 lineto
stroke
newpath
27195.3 28253.7 moveto
27251.6 28366.2 lineto
27364 28422.4 lineto
27532.8 28422.4 lineto
27645.3 28366.2 lineto
27701.5 28253.7 lineto
27701.5 27635 lineto
stroke
newpath
30007.5 28872.3 moveto
28995.1 27353.8 lineto
stroke
newpath
31526 28816.1 moveto
31638.5 28816.1 lineto
31751 28759.9 lineto
31807.2 28703.6 lineto
31863.5 28591.1 lineto
31919.7 28366.2 lineto
31919.7 28084.9 lineto
31863.5 27860 lineto
31807.2 27747.5 lineto
31751 27691.2 lineto
31638.5 27635 lineto
31526 27635 lineto
31413.5 27691.2 lineto
31357.3 27747.5 lineto
31301.1 27860 lineto
31244.8 28084.9 lineto
31244.8 28366.2 lineto
31301.1 28591.1 lineto
31357.3 28703.6 lineto
31413.5 28759.9 lineto
31526 28816.1 lineto
stroke
newpath
32425.9 27747.5 moveto
32482.2 27691.2 lineto
32425.9 27635 lineto
32369.7 27691.2 lineto
32425.9 27747.5 lineto
32425.9 27635 lineto
stroke
newpath
33213.3 28816.1 moveto
33325.8 28816.1 lineto
33438.3 28759.9 lineto
33494.5 28703.6 lineto
33550.8 28591.1 lineto
33607 28366.2 lineto
33607 28084.9 lineto
33550.8 27860 lineto
33494.5 27747.5 lineto
33438.3 27691.2 lineto
33325.8 27635 lineto
33213.3 27635 lineto
33100.8 27691.2 lineto
33044.6 27747.5 lineto
32988.3 27860 lineto
32932.1 28084.9 lineto
32932.1 28366.2 lineto
32988.3 28591.1 lineto
33044.6 28703.6 lineto
33100.8 28759.9 lineto
33213.3 28816.1 lineto
stroke
newpath
34675.6 28816.1 moveto
34113.2 28816.1 lineto
34057 28253.7 lineto
34113.2 28309.9 lineto
34225.7 28366.2 lineto
34506.9 28366.2 lineto
34619.4 28309.9 lineto
34675.6 28253.7 lineto
34731.9 28141.2 lineto
34731.9 27860 lineto
34675.6 27747.5 lineto
34619.4 27691.2 lineto
34506.9 27635 lineto
34225.7 27635 lineto
34113.2 27691.2 lineto
34057 27747.5 lineto
stroke
newpath
35181.8 28703.6 moveto
35238.1 28759.9 lineto
35350.5 28816.1 lineto
35631.8 28816.1 lineto
35744.2 28759.9 lineto
35800.5 28703.6 lineto
35856.7 28591.1 lineto
35856.7 28478.6 lineto
35800.5 28309.9 lineto
35125.6 27635 lineto
35856.7 27635 lineto
stroke
newpath
36306.7 28816.1 moveto
36306.7 28591.1 lineto
stroke
newpath
36756.6 28816.1 moveto
36756.6 28591.1 lineto
stroke
newpath
38500.2 27185.1 moveto
38443.9 27241.3 lineto
38331.4 27410 lineto
38275.2 27522.5 lineto
38218.9 27691.2 lineto
38162.7 27972.5 lineto
38162.7 28197.4 lineto
38218.9 28478.6 lineto
38275.2 28647.4 lineto
38331.4 28759.9 lineto
38443.9 28928.6 lineto
38500.2 28984.8 lineto
stroke
newpath
38837.6 28816.1 moveto
39625 28816.1 lineto
39118.8 27635 lineto
stroke
newpath
40974.8 27635 moveto
40974.8 28816.1 lineto
stroke
newpath
41481 27635 moveto
41481 28253.7 lineto
41424.8 28366.2 lineto
41312.3 28422.4 lineto
41143.6 28422.4 lineto
41031.1 28366.2 lineto
40974.8 28309.9 lineto
stroke
newpath
42212.2 27635 moveto
42099.7 27691.2 lineto
42043.5 27747.5 lineto
41987.2 27860 lineto
41987.2 28197.4 lineto
42043.5 28309.9 lineto
42099.7 28366.2 lineto
42212.2 28422.4 lineto
42380.9 28422.4 lineto
42493.4 28366.2 lineto
42549.6 28309.9 lineto
42605.9 28197.4 lineto
42605.9 27860 lineto
42549.6 27747.5 lineto
42493.4 27691.2 lineto
42380.9 27635 lineto
42212.2 27635 lineto
stroke
newpath
43280.8 27635 moveto
43168.3 27691.2 lineto
43112.1 27803.7 lineto
43112.1 28816.1 lineto
stroke
newpath
44180.7 27691.2 moveto
44068.2 27635 lineto
43843.2 27635 lineto
43730.7 27691.2 lineto
43674.5 27803.7 lineto
43674.5 28253.7 lineto
43730.7 28366.2 lineto
43843.2 28422.4 lineto
44068.2 28422.4 lineto
44180.7 28366.2 lineto
44236.9 28253.7 lineto
44236.9 28141.2 lineto
43674.5 28028.7 lineto
stroke
newpath
44686.9 27691.2 moveto
44799.4 27635 lineto
45024.3 27635 lineto
45136.8 27691.2 lineto
45193.1 27803.7 lineto
45193.1 27860 lineto
45136.8 27972.5 lineto
45024.3 28028.7 lineto
44855.6 28028.7 lineto
44743.1 28084.9 lineto
44686.9 28197.4 lineto
44686.9 28253.7 lineto
44743.1 28366.2 lineto
44855.6 28422.4 lineto
45024.3 28422.4 lineto
45136.8 28366.2 lineto
stroke
newpath
45586.8 27185.1 moveto
45643 27241.3 lineto
45755.5 27410 lineto
45811.7 27522.5 lineto
45868 27691.2 lineto
45924.2 27972.5 lineto
45924.2 28197.4 lineto
45868 28478.6 lineto
45811.7 28647.4 lineto
45755.5 28759.9 lineto
45643 28928.6 lineto
45586.8 28984.8 lineto
stroke
newpath
16801.6 27721.5 moveto
20049.6 24473.5 lineto
stroke
newpath
20049.6 27721.5 moveto
16801.6 24473.5 lineto
stroke
newpath
18425.6 27721.5 moveto
18425.6 24473.5 lineto
stroke
newpath
16801.6 26097.5 moveto
20049.6 26097.5 lineto
stroke
0 0 0 setrgbcolor
0 0 0 setrgbcolor
newpath
21121.1 26631.8 moveto
21177.3 26688 lineto
21289.8 26744.3 lineto
21571 26744.3 lineto
21683.5 26688 lineto
21739.7 26631.8 lineto
21796 26519.3 lineto
21796 26406.8 lineto
21739.7 26238.1 lineto
21064.8 25563.2 lineto
21796 25563.2 lineto
stroke
newpath
22302.2 25675.7 moveto
22358.4 25619.4 lineto
22302.2 25563.2 lineto
22245.9 25619.4 lineto
22302.2 25675.7 lineto
22302.2 25563.2 lineto
stroke
newpath
22752.1 26744.3 moveto
23539.5 26744.3 lineto
23033.3 25563.2 lineto
stroke
newpath
24551.9 26744.3 moveto
23989.5 26744.3 lineto
23933.2 26181.9 lineto
23989.5 26238.1 lineto
24102 26294.3 lineto
24383.2 26294.3 lineto
24495.7 26238.1 lineto
24551.9 26181.9 lineto
24608.1 26069.4 lineto
24608.1 25788.2 lineto
24551.9 25675.7 lineto
24495.7 25619.4 lineto
24383.2 25563.2 lineto
24102 25563.2 lineto
23989.5 25619.4 lineto
23933.2 25675.7 lineto
stroke
newpath
25114.3 25563.2 moveto
25114.3 26350.6 lineto
stroke
newpath
25114.3 26238.1 moveto
25170.6 26294.3 lineto
25283.1 26350.6 lineto
25451.8 26350.6 lineto
25564.3 26294.3 lineto
25620.5 26181.9 lineto
25620.5 25563.2 lineto
stroke
newpath
25620.5 26181.9 moveto
25676.8 26294.3 lineto
25789.2 26350.6 lineto
25958 26350.6 lineto
26070.5 26294.3 lineto
26126.7 26181.9 lineto
26126.7 25563.2 lineto
stroke
newpath
26689.1 25563.2 moveto
26689.1 26350.6 lineto
stroke
newpath
26689.1 26238.1 moveto
26745.4 26294.3 lineto
26857.9 26350.6 lineto
27026.6 26350.6 lineto
27139.1 26294.3 lineto
27195.3 26181.9 lineto
27195.3 25563.2 lineto
stroke
newpath
27195.3 26181.9 moveto
27251.6 26294.3 lineto
27364 26350.6 lineto
27532.8 26350.6 lineto
27645.3 26294.3 lineto
27701.5 26181.9 lineto
27701.5 25563.2 lineto
stroke
newpath
30007.5 26800.5 moveto
28995.1 25282 lineto
stroke
newpath
31526 26744.3 moveto
31638.5 26744.3 lineto
31751 26688 lineto
31807.2 26631.8 lineto
31863.5 26519.3 lineto
31919.7 26294.3 lineto
31919.7 26013.1 lineto
31863.5 25788.2 lineto
31807.2 25675.7 lineto
31751 25619.4 lineto
31638.5 25563.2 lineto
31526 25563.2 lineto
31413.5 25619.4 lineto
31357.3 25675.7 lineto
31301.1 25788.2 lineto
31244.8 26013.1 lineto
31244.8 26294.3 lineto
31301.1 26519.3 lineto
31357.3 26631.8 lineto
31413.5 26688 lineto
31526 26744.3 lineto
stroke
newpath
32425.9 25675.7 moveto
32482.2 25619.4 lineto
32425.9 25563.2 lineto
32369.7 25619.4 lineto
32425.9 25675.7 lineto
32425.9 25563.2 lineto
stroke
newpath
33607 25563.2 moveto
32932.1 25563.2 lineto
stroke
newpath
33269.6 25563.2 moveto
33269.6 26744.3 lineto
33157.1 26575.6 lineto
33044.6 26463.1 lineto
32932.1 26406.8 lineto
stroke
newpath
34338.2 26744.3 moveto
34450.7 26744.3 lineto
34563.1 26688 lineto
34619.4 26631.8 lineto
34675.6 26519.3 lineto
34731.9 26294.3 lineto
34731.9 26013.1 lineto
34675.6 25788.2 lineto
34619.4 25675.7 lineto
34563.1 25619.4 lineto
34450.7 25563.2 lineto
34338.2 25563.2 lineto
34225.7 25619.4 lineto
34169.4 25675.7 lineto
34113.2 25788.2 lineto
34057 26013.1 lineto
34057 26294.3 lineto
34113.2 26519.3 lineto
34169.4 26631.8 lineto
34225.7 26688 lineto
34338.2 26744.3 lineto
stroke
newpath
35406.8 26238.1 moveto
35294.3 26294.3 lineto
35238.1 26350.6 lineto
35181.8 26463.1 lineto
35181.8 26519.3 lineto
35238.1 26631.8 lineto
35294.3 26688 lineto
35406.8 26744.3 lineto
35631.8 26744.3 lineto
35744.2 26688 lineto
35800.5 26631.8 lineto
35856.7 26519.3 lineto
35856.7 26463.1 lineto
35800.5 26350.6 lineto
35744.2 26294.3 lineto
35631.8 26238.1 lineto
35406.8 26238.1 lineto
35294.3 26181.9 lineto
35238.1 26125.6 lineto
35181.8 26013.1 lineto
35181.8 25788.2 lineto
35238.1 25675.7 lineto
35294.3 25619.4 lineto
35406.8 25563.2 lineto
35631.8 25563.2 lineto
35744.2 25619.4 lineto
35800.5 25675.7 lineto
35856.7 25788.2 lineto
35856.7 26013.1 lineto
35800.5 26125.6 lineto
35744.2 26181.9 lineto
35631.8 26238.1 lineto
stroke
newpath
36306.7 26744.3 moveto
36306.7 26519.3 lineto
stroke
newpath
36756.6 26744.3 moveto
36756.6 26519.3 lineto
stroke
newpath
38500.2 25113.2 moveto
38443.9 25169.5 lineto
38331.4 25338.2 lineto
38275.2 25450.7 lineto
38218.9 25619.4 lineto
38162.7 25900.6 lineto
38162.7 26125.6 lineto
38218.9 26406.8 lineto
38275.2 26575.6 lineto
38331.4 26688 lineto
38443.9 26856.8 lineto
38500.2 26913 lineto
stroke
newpath
38837.6 26744.3 moveto
39568.8 26744.3 lineto
39175.1 26294.3 lineto
39343.8 26294.3 lineto
39456.3 26238.1 lineto
39512.5 26181.9 lineto
39568.8 26069.4 lineto
39568.8 25788.2 lineto
39512.5 25675.7 lineto
39456.3 25619.4 lineto
39343.8 25563.2 lineto
39006.3 25563.2 lineto
38893.9 25619.4 lineto
38837.6 25675.7 lineto
stroke
newpath
40974.8 25563.2 moveto
40974.8 26744.3 lineto
stroke
newpath
41481 25563.2 moveto
41481 26181.9 lineto
41424.8 26294.3 lineto
41312.3 26350.6 lineto
41143.6 26350.6 lineto
41031.1 26294.3 lineto
40974.8 26238.1 lineto
stroke
newpath
42212.2 25563.2 moveto
42099.7 25619.4 lineto
42043.5 25675.7 lineto
41987.2 25788.2 lineto
41987.2 26125.6 lineto
42043.5 26238.1 lineto
42099.7 26294.3 lineto
42212.2 26350.6 lineto
42380.9 26350.6 lineto
42493.4 26294.3 lineto
42549.6 26238.1 lineto
42605.9 26125.6 lineto
42605.9 25788.2 lineto
42549.6 25675.7 lineto
42493.4 25619.4 lineto
42380.9 25563.2 lineto
42212.2 25563.2 lineto
stroke
newpath
43280.8 25563.2 moveto
43168.3 25619.4 lineto
43112.1 25731.9 lineto
43112.1 26744.3 lineto
stroke
newpath
44180.7 25619.4 moveto
44068.2 25563.2 lineto
43843.2 25563.2 lineto
43730.7 25619.4 lineto
43674.5 25731.9 lineto
43674.5 26181.9 lineto
43730.7 26294.3 lineto
43843.2 26350.6 lineto
44068.2 26350.6 lineto
44180.7 26294.3 lineto
44236.9 26181.9 lineto
44236.9 26069.4 lineto
43674.5 25956.9 lineto
stroke
newpath
44686.9 25619.4 moveto
44799.4 25563.2 lineto
45024.3 25563.2 lineto
45136.8 25619.4 lineto
45193.1 25731.9 lineto
45193.1 25788.2 lineto
45136.8 25900.6 lineto
45024.3 25956.9 lineto
44855.6 25956.9 lineto
44743.1 26013.1 lineto
44686.9 26125.6 lineto
44686.9 26181.9 lineto
44743.1 26294.3 lineto
44855.6 26350.6 lineto
45024.3 26350.6 lineto
45136.8 26294.3 lineto
stroke
newpath
45586.8 25113.2 moveto
45643 25169.5 lineto
45755.5 25338.2 lineto
45811.7 25450.7 lineto
45868 25619.4 lineto
45924.2 25900.6 lineto
45924.2 26125.6 lineto
45868 26406.8 lineto
45811.7 26575.6 lineto
45755.5 26688 lineto
45643 26856.8 lineto
45586.8 26913 lineto
stroke
showpage
grestore
%%EOF
