%!PS-Adobe-3.0
%%Creator: PCBNEW
%%CreationDate: Fri Jun 11 19:53:25 2021
%%Title: /Users/brennannaidoo/Desktop/Mechatronics Course/Year_3/Semester 1/EEE3088F/Design_Proj /eee3088f-ups-pihat/PCB/UPS-uHAT_Compiled_PCB/UPS-uHAT_Compiled_Circuit-NPTH-drl_map.ps
%%Pages: 1
%%PageOrder: Ascend
%%BoundingBox: 0 0 596 842
%%DocumentMedia: A4 595 842 0 () ()
%%Orientation: Landscape
%%EndComments
%%BeginProlog
/line { newpath moveto lineto stroke } bind def
/cir0 { newpath 0 360 arc stroke } bind def
/cir1 { newpath 0 360 arc gsave fill grestore stroke } bind def
/cir2 { newpath 0 360 arc gsave fill grestore stroke } bind def
/arc0 { newpath arc stroke } bind def
/arc1 { newpath 4 index 4 index moveto arc closepath gsave fill
    grestore stroke } bind def
/arc2 { newpath 4 index 4 index moveto arc closepath gsave fill
    grestore stroke } bind def
/poly0 { stroke } bind def
/poly1 { closepath gsave fill grestore stroke } bind def
/poly2 { closepath gsave fill grestore stroke } bind def
/rect0 { rectstroke } bind def
/rect1 { rectfill } bind def
/rect2 { rectfill } bind def
/linemode0 { 0 setlinecap 0 setlinejoin 0 setlinewidth } bind def
/linemode1 { 1 setlinecap 1 setlinejoin } bind def
/dashedline { [200] 100 setdash } bind def
/solidline { [] 0 setdash } bind def
/phantomshow { moveto
    /KicadFont findfont 0.000001 scalefont setfont
    show } bind def
/textshow { gsave
    findfont exch scalefont setfont concat 1 scale 0 0 moveto show
    } bind def
/reencodefont {
  findfont dup length dict begin
  { 1 index /FID ne
    { def }
    { pop pop } ifelse
  } forall
  /Encoding ISOLatin1Encoding def
  currentdict
  end } bind def
/KicadFont /Helvetica reencodefont definefont pop
/KicadFont-Bold /Helvetica-Bold reencodefont definefont pop
/KicadFont-Oblique /Helvetica-Oblique reencodefont definefont pop
/KicadFont-BoldOblique /Helvetica-BoldOblique reencodefont definefont pop
%%EndProlog
%%Page: 1 1
%%BeginPageSetup
gsave
0.0072 0.0072 scale
linemode1
82680 0 translate 90 rotate
150 setlinewidth
%%EndPageSetup
0 0 0 setrgbcolor
59.0551 setlinewidth
newpath
93307.5 75592.5 moveto
23622.5 75592.5 lineto
stroke
0 0 0 setrgbcolor
newpath
96850.8 43702.8 moveto
96850.8 72049.2 lineto
stroke
0 0 0 setrgbcolor
newpath
23622.5 40159.5 moveto
93307.5 40159.5 lineto
stroke
0 0 0 setrgbcolor
newpath
20079.2 72049.2 moveto
20079.2 43702.8 lineto
stroke
0 0 0 setrgbcolor
23622.5 72049.2 3543.31 90 180 arc0
0 0 0 setrgbcolor
23622.5 43702.8 3543.31 180 270 arc0
0 0 0 setrgbcolor
93307.5 43702.8 3543.31 -90 -0 arc0
0 0 0 setrgbcolor
93307.5 72049.2 3543.31 -0 90 arc0
78.7394 setlinewidth
newpath
29545.7 72941 moveto
30691.4 71795.3 lineto
stroke
newpath
30691.4 72941 moveto
29545.7 71795.3 lineto
stroke
newpath
29545.7 69941 moveto
30691.4 68795.3 lineto
stroke
newpath
30691.4 69941 moveto
29545.7 68795.3 lineto
stroke
newpath
32545.7 72941 moveto
33691.4 71795.3 lineto
stroke
newpath
33691.4 72941 moveto
32545.7 71795.3 lineto
stroke
newpath
32545.7 69941 moveto
33691.4 68795.3 lineto
stroke
newpath
33691.4 69941 moveto
32545.7 68795.3 lineto
stroke
newpath
35545.7 72941 moveto
36691.4 71795.3 lineto
stroke
newpath
36691.4 72941 moveto
35545.7 71795.3 lineto
stroke
newpath
35545.7 69941 moveto
36691.4 68795.3 lineto
stroke
newpath
36691.4 69941 moveto
35545.7 68795.3 lineto
stroke
newpath
38545.7 72941 moveto
39691.4 71795.3 lineto
stroke
newpath
39691.4 72941 moveto
38545.7 71795.3 lineto
stroke
newpath
38545.7 69941 moveto
39691.4 68795.3 lineto
stroke
newpath
39691.4 69941 moveto
38545.7 68795.3 lineto
stroke
newpath
41545.7 72941 moveto
42691.4 71795.3 lineto
stroke
newpath
42691.4 72941 moveto
41545.7 71795.3 lineto
stroke
newpath
41545.7 69941 moveto
42691.4 68795.3 lineto
stroke
newpath
42691.4 69941 moveto
41545.7 68795.3 lineto
stroke
newpath
44545.7 72941 moveto
45691.4 71795.3 lineto
stroke
newpath
45691.4 72941 moveto
44545.7 71795.3 lineto
stroke
newpath
44545.7 69941 moveto
45691.4 68795.3 lineto
stroke
newpath
45691.4 69941 moveto
44545.7 68795.3 lineto
stroke
newpath
47545.7 72941 moveto
48691.4 71795.3 lineto
stroke
newpath
48691.4 72941 moveto
47545.7 71795.3 lineto
stroke
newpath
47545.7 69941 moveto
48691.4 68795.3 lineto
stroke
newpath
48691.4 69941 moveto
47545.7 68795.3 lineto
stroke
newpath
50545.7 72941 moveto
51691.4 71795.3 lineto
stroke
newpath
51691.4 72941 moveto
50545.7 71795.3 lineto
stroke
newpath
50545.7 69941 moveto
51691.4 68795.3 lineto
stroke
newpath
51691.4 69941 moveto
50545.7 68795.3 lineto
stroke
newpath
53545.7 72941 moveto
54691.4 71795.3 lineto
stroke
newpath
54691.4 72941 moveto
53545.7 71795.3 lineto
stroke
newpath
53545.7 69941 moveto
54691.4 68795.3 lineto
stroke
newpath
54691.4 69941 moveto
53545.7 68795.3 lineto
stroke
newpath
56545.7 72941 moveto
57691.4 71795.3 lineto
stroke
newpath
57691.4 72941 moveto
56545.7 71795.3 lineto
stroke
newpath
56545.7 69941 moveto
57691.4 68795.3 lineto
stroke
newpath
57691.4 69941 moveto
56545.7 68795.3 lineto
stroke
newpath
59545.7 72941 moveto
60691.4 71795.3 lineto
stroke
newpath
60691.4 72941 moveto
59545.7 71795.3 lineto
stroke
newpath
59545.7 69941 moveto
60691.4 68795.3 lineto
stroke
newpath
60691.4 69941 moveto
59545.7 68795.3 lineto
stroke
newpath
62545.7 72941 moveto
63691.4 71795.3 lineto
stroke
newpath
63691.4 72941 moveto
62545.7 71795.3 lineto
stroke
newpath
62545.7 69941 moveto
63691.4 68795.3 lineto
stroke
newpath
63691.4 69941 moveto
62545.7 68795.3 lineto
stroke
newpath
65545.7 72941 moveto
66691.4 71795.3 lineto
stroke
newpath
66691.4 72941 moveto
65545.7 71795.3 lineto
stroke
newpath
65545.7 69941 moveto
66691.4 68795.3 lineto
stroke
newpath
66691.4 69941 moveto
65545.7 68795.3 lineto
stroke
newpath
68545.7 72941 moveto
69691.4 71795.3 lineto
stroke
newpath
69691.4 72941 moveto
68545.7 71795.3 lineto
stroke
newpath
68545.7 69941 moveto
69691.4 68795.3 lineto
stroke
newpath
69691.4 69941 moveto
68545.7 68795.3 lineto
stroke
newpath
71545.7 72941 moveto
72691.4 71795.3 lineto
stroke
newpath
72691.4 72941 moveto
71545.7 71795.3 lineto
stroke
newpath
71545.7 69941 moveto
72691.4 68795.3 lineto
stroke
newpath
72691.4 69941 moveto
71545.7 68795.3 lineto
stroke
newpath
74545.7 72941 moveto
75691.4 71795.3 lineto
stroke
newpath
75691.4 72941 moveto
74545.7 71795.3 lineto
stroke
newpath
74545.7 69941 moveto
75691.4 68795.3 lineto
stroke
newpath
75691.4 69941 moveto
74545.7 68795.3 lineto
stroke
newpath
77545.7 72941 moveto
78691.4 71795.3 lineto
stroke
newpath
78691.4 72941 moveto
77545.7 71795.3 lineto
stroke
newpath
77545.7 69941 moveto
78691.4 68795.3 lineto
stroke
newpath
78691.4 69941 moveto
77545.7 68795.3 lineto
stroke
newpath
80545.7 72941 moveto
81691.4 71795.3 lineto
stroke
newpath
81691.4 72941 moveto
80545.7 71795.3 lineto
stroke
newpath
80545.7 69941 moveto
81691.4 68795.3 lineto
stroke
newpath
81691.4 69941 moveto
80545.7 68795.3 lineto
stroke
newpath
83545.7 72941 moveto
84691.4 71795.3 lineto
stroke
newpath
84691.4 72941 moveto
83545.7 71795.3 lineto
stroke
newpath
83545.7 69941 moveto
84691.4 68795.3 lineto
stroke
newpath
84691.4 69941 moveto
83545.7 68795.3 lineto
stroke
newpath
86545.7 72941 moveto
87691.4 71795.3 lineto
stroke
newpath
87691.4 72941 moveto
86545.7 71795.3 lineto
stroke
newpath
86545.7 69941 moveto
87691.4 68795.3 lineto
stroke
newpath
87691.4 69941 moveto
86545.7 68795.3 lineto
stroke
24213 59057.1 944.882 cir0
newpath
31618.5 71919.3 moveto
31618.5 69816.9 lineto
stroke
newpath
30567.4 70868.1 moveto
32669.7 70868.1 lineto
stroke
newpath
85618.5 71919.3 moveto
85618.5 69816.9 lineto
stroke
newpath
84567.4 70868.1 moveto
86669.7 70868.1 lineto
stroke
118.11 setlinewidth
0 0 0 setrgbcolor
0 0 0 setrgbcolor
newpath
21177.3 38296.4 moveto
21177.3 39477.5 lineto
21458.5 39477.5 lineto
21627.3 39421.3 lineto
21739.7 39308.8 lineto
21796 39196.3 lineto
21852.2 38971.3 lineto
21852.2 38802.6 lineto
21796 38577.6 lineto
21739.7 38465.1 lineto
21627.3 38352.7 lineto
21458.5 38296.4 lineto
21177.3 38296.4 lineto
stroke
newpath
22358.4 38296.4 moveto
22358.4 39083.8 lineto
stroke
newpath
22358.4 38858.8 moveto
22414.7 38971.3 lineto
22470.9 39027.6 lineto
22583.4 39083.8 lineto
22695.9 39083.8 lineto
stroke
newpath
23089.6 38296.4 moveto
23089.6 39083.8 lineto
stroke
newpath
23089.6 39477.5 moveto
23033.3 39421.3 lineto
23089.6 39365 lineto
23145.8 39421.3 lineto
23089.6 39477.5 lineto
23089.6 39365 lineto
stroke
newpath
23820.7 38296.4 moveto
23708.2 38352.7 lineto
23652 38465.1 lineto
23652 39477.5 lineto
stroke
newpath
24439.4 38296.4 moveto
24326.9 38352.7 lineto
24270.7 38465.1 lineto
24270.7 39477.5 lineto
stroke
newpath
25789.2 38296.4 moveto
25789.2 39477.5 lineto
26182.9 38633.9 lineto
26576.6 39477.5 lineto
26576.6 38296.4 lineto
stroke
newpath
27645.3 38296.4 moveto
27645.3 38915.1 lineto
27589 39027.6 lineto
27476.5 39083.8 lineto
27251.6 39083.8 lineto
27139.1 39027.6 lineto
stroke
newpath
27645.3 38352.7 moveto
27532.8 38296.4 lineto
27251.6 38296.4 lineto
27139.1 38352.7 lineto
27082.8 38465.1 lineto
27082.8 38577.6 lineto
27139.1 38690.1 lineto
27251.6 38746.4 lineto
27532.8 38746.4 lineto
27645.3 38802.6 lineto
stroke
newpath
28207.7 39083.8 moveto
28207.7 37902.7 lineto
stroke
newpath
28207.7 39027.6 moveto
28320.2 39083.8 lineto
28545.1 39083.8 lineto
28657.6 39027.6 lineto
28713.9 38971.3 lineto
28770.1 38858.8 lineto
28770.1 38521.4 lineto
28713.9 38408.9 lineto
28657.6 38352.7 lineto
28545.1 38296.4 lineto
28320.2 38296.4 lineto
28207.7 38352.7 lineto
stroke
newpath
29276.3 38408.9 moveto
29332.5 38352.7 lineto
29276.3 38296.4 lineto
29220.1 38352.7 lineto
29276.3 38408.9 lineto
29276.3 38296.4 lineto
stroke
newpath
29276.3 39027.6 moveto
29332.5 38971.3 lineto
29276.3 38915.1 lineto
29220.1 38971.3 lineto
29276.3 39027.6 lineto
29276.3 38915.1 lineto
stroke
newpath
18904 36923.2 moveto
20049.6 35777.6 lineto
stroke
newpath
20049.6 36923.2 moveto
18904 35777.6 lineto
stroke
0 0 0 setrgbcolor
0 0 0 setrgbcolor
newpath
21402.3 36997.2 moveto
21514.8 36997.2 lineto
21627.3 36941 lineto
21683.5 36884.7 lineto
21739.7 36772.2 lineto
21796 36547.3 lineto
21796 36266 lineto
21739.7 36041.1 lineto
21683.5 35928.6 lineto
21627.3 35872.3 lineto
21514.8 35816.1 lineto
21402.3 35816.1 lineto
21289.8 35872.3 lineto
21233.6 35928.6 lineto
21177.3 36041.1 lineto
21121.1 36266 lineto
21121.1 36547.3 lineto
21177.3 36772.2 lineto
21233.6 36884.7 lineto
21289.8 36941 lineto
21402.3 36997.2 lineto
stroke
newpath
22302.2 35928.6 moveto
22358.4 35872.3 lineto
22302.2 35816.1 lineto
22245.9 35872.3 lineto
22302.2 35928.6 lineto
22302.2 35816.1 lineto
stroke
newpath
22920.8 35816.1 moveto
23145.8 35816.1 lineto
23258.3 35872.3 lineto
23314.5 35928.6 lineto
23427 36097.3 lineto
23483.3 36322.3 lineto
23483.3 36772.2 lineto
23427 36884.7 lineto
23370.8 36941 lineto
23258.3 36997.2 lineto
23033.3 36997.2 lineto
22920.8 36941 lineto
22864.6 36884.7 lineto
22808.4 36772.2 lineto
22808.4 36491 lineto
22864.6 36378.5 lineto
22920.8 36322.3 lineto
23033.3 36266 lineto
23258.3 36266 lineto
23370.8 36322.3 lineto
23427 36378.5 lineto
23483.3 36491 lineto
stroke
newpath
23877 36997.2 moveto
24664.4 36997.2 lineto
24158.2 35816.1 lineto
stroke
newpath
25114.3 35816.1 moveto
25114.3 36603.5 lineto
stroke
newpath
25114.3 36491 moveto
25170.6 36547.3 lineto
25283.1 36603.5 lineto
25451.8 36603.5 lineto
25564.3 36547.3 lineto
25620.5 36434.8 lineto
25620.5 35816.1 lineto
stroke
newpath
25620.5 36434.8 moveto
25676.8 36547.3 lineto
25789.2 36603.5 lineto
25958 36603.5 lineto
26070.5 36547.3 lineto
26126.7 36434.8 lineto
26126.7 35816.1 lineto
stroke
newpath
26689.1 35816.1 moveto
26689.1 36603.5 lineto
stroke
newpath
26689.1 36491 moveto
26745.4 36547.3 lineto
26857.9 36603.5 lineto
27026.6 36603.5 lineto
27139.1 36547.3 lineto
27195.3 36434.8 lineto
27195.3 35816.1 lineto
stroke
newpath
27195.3 36434.8 moveto
27251.6 36547.3 lineto
27364 36603.5 lineto
27532.8 36603.5 lineto
27645.3 36547.3 lineto
27701.5 36434.8 lineto
27701.5 35816.1 lineto
stroke
newpath
30007.5 37053.4 moveto
28995.1 35534.9 lineto
stroke
newpath
31526 36997.2 moveto
31638.5 36997.2 lineto
31751 36941 lineto
31807.2 36884.7 lineto
31863.5 36772.2 lineto
31919.7 36547.3 lineto
31919.7 36266 lineto
31863.5 36041.1 lineto
31807.2 35928.6 lineto
31751 35872.3 lineto
31638.5 35816.1 lineto
31526 35816.1 lineto
31413.5 35872.3 lineto
31357.3 35928.6 lineto
31301.1 36041.1 lineto
31244.8 36266 lineto
31244.8 36547.3 lineto
31301.1 36772.2 lineto
31357.3 36884.7 lineto
31413.5 36941 lineto
31526 36997.2 lineto
stroke
newpath
32425.9 35928.6 moveto
32482.2 35872.3 lineto
32425.9 35816.1 lineto
32369.7 35872.3 lineto
32425.9 35928.6 lineto
32425.9 35816.1 lineto
stroke
newpath
33213.3 36997.2 moveto
33325.8 36997.2 lineto
33438.3 36941 lineto
33494.5 36884.7 lineto
33550.8 36772.2 lineto
33607 36547.3 lineto
33607 36266 lineto
33550.8 36041.1 lineto
33494.5 35928.6 lineto
33438.3 35872.3 lineto
33325.8 35816.1 lineto
33213.3 35816.1 lineto
33100.8 35872.3 lineto
33044.6 35928.6 lineto
32988.3 36041.1 lineto
32932.1 36266 lineto
32932.1 36547.3 lineto
32988.3 36772.2 lineto
33044.6 36884.7 lineto
33100.8 36941 lineto
33213.3 36997.2 lineto
stroke
newpath
34000.7 36997.2 moveto
34731.9 36997.2 lineto
34338.2 36547.3 lineto
34506.9 36547.3 lineto
34619.4 36491 lineto
34675.6 36434.8 lineto
34731.9 36322.3 lineto
34731.9 36041.1 lineto
34675.6 35928.6 lineto
34619.4 35872.3 lineto
34506.9 35816.1 lineto
34169.4 35816.1 lineto
34057 35872.3 lineto
34000.7 35928.6 lineto
stroke
newpath
35406.8 36491 moveto
35294.3 36547.3 lineto
35238.1 36603.5 lineto
35181.8 36716 lineto
35181.8 36772.2 lineto
35238.1 36884.7 lineto
35294.3 36941 lineto
35406.8 36997.2 lineto
35631.8 36997.2 lineto
35744.2 36941 lineto
35800.5 36884.7 lineto
35856.7 36772.2 lineto
35856.7 36716 lineto
35800.5 36603.5 lineto
35744.2 36547.3 lineto
35631.8 36491 lineto
35406.8 36491 lineto
35294.3 36434.8 lineto
35238.1 36378.5 lineto
35181.8 36266 lineto
35181.8 36041.1 lineto
35238.1 35928.6 lineto
35294.3 35872.3 lineto
35406.8 35816.1 lineto
35631.8 35816.1 lineto
35744.2 35872.3 lineto
35800.5 35928.6 lineto
35856.7 36041.1 lineto
35856.7 36266 lineto
35800.5 36378.5 lineto
35744.2 36434.8 lineto
35631.8 36491 lineto
stroke
newpath
36306.7 36997.2 moveto
36306.7 36772.2 lineto
stroke
newpath
36756.6 36997.2 moveto
36756.6 36772.2 lineto
stroke
newpath
38500.2 35366.2 moveto
38443.9 35422.4 lineto
38331.4 35591.1 lineto
38275.2 35703.6 lineto
38218.9 35872.3 lineto
38162.7 36153.6 lineto
38162.7 36378.5 lineto
38218.9 36659.7 lineto
38275.2 36828.5 lineto
38331.4 36941 lineto
38443.9 37109.7 lineto
38500.2 37165.9 lineto
stroke
newpath
39456.3 36603.5 moveto
39456.3 35816.1 lineto
stroke
newpath
39175.1 37053.4 moveto
38893.9 36209.8 lineto
39625 36209.8 lineto
stroke
newpath
40299.9 36997.2 moveto
40412.4 36997.2 lineto
40524.9 36941 lineto
40581.1 36884.7 lineto
40637.4 36772.2 lineto
40693.6 36547.3 lineto
40693.6 36266 lineto
40637.4 36041.1 lineto
40581.1 35928.6 lineto
40524.9 35872.3 lineto
40412.4 35816.1 lineto
40299.9 35816.1 lineto
40187.4 35872.3 lineto
40131.2 35928.6 lineto
40075 36041.1 lineto
40018.7 36266 lineto
40018.7 36547.3 lineto
40075 36772.2 lineto
40131.2 36884.7 lineto
40187.4 36941 lineto
40299.9 36997.2 lineto
stroke
newpath
42099.7 35816.1 moveto
42099.7 36997.2 lineto
stroke
newpath
42605.9 35816.1 moveto
42605.9 36434.8 lineto
42549.6 36547.3 lineto
42437.2 36603.5 lineto
42268.4 36603.5 lineto
42155.9 36547.3 lineto
42099.7 36491 lineto
stroke
newpath
43337 35816.1 moveto
43224.6 35872.3 lineto
43168.3 35928.6 lineto
43112.1 36041.1 lineto
43112.1 36378.5 lineto
43168.3 36491 lineto
43224.6 36547.3 lineto
43337 36603.5 lineto
43505.8 36603.5 lineto
43618.3 36547.3 lineto
43674.5 36491 lineto
43730.7 36378.5 lineto
43730.7 36041.1 lineto
43674.5 35928.6 lineto
43618.3 35872.3 lineto
43505.8 35816.1 lineto
43337 35816.1 lineto
stroke
newpath
44405.7 35816.1 moveto
44293.2 35872.3 lineto
44236.9 35984.8 lineto
44236.9 36997.2 lineto
stroke
newpath
45305.6 35872.3 moveto
45193.1 35816.1 lineto
44968.1 35816.1 lineto
44855.6 35872.3 lineto
44799.4 35984.8 lineto
44799.4 36434.8 lineto
44855.6 36547.3 lineto
44968.1 36603.5 lineto
45193.1 36603.5 lineto
45305.6 36547.3 lineto
45361.8 36434.8 lineto
45361.8 36322.3 lineto
44799.4 36209.8 lineto
stroke
newpath
45811.7 35872.3 moveto
45924.2 35816.1 lineto
46149.2 35816.1 lineto
46261.7 35872.3 lineto
46317.9 35984.8 lineto
46317.9 36041.1 lineto
46261.7 36153.6 lineto
46149.2 36209.8 lineto
45980.5 36209.8 lineto
45868 36266 lineto
45811.7 36378.5 lineto
45811.7 36434.8 lineto
45868 36547.3 lineto
45980.5 36603.5 lineto
46149.2 36603.5 lineto
46261.7 36547.3 lineto
stroke
newpath
46711.6 35366.2 moveto
46767.9 35422.4 lineto
46880.4 35591.1 lineto
46936.6 35703.6 lineto
46992.8 35872.3 lineto
47049.1 36153.6 lineto
47049.1 36378.5 lineto
46992.8 36659.7 lineto
46936.6 36828.5 lineto
46880.4 36941 lineto
46767.9 37109.7 lineto
46711.6 37165.9 lineto
stroke
newpath
48848.9 35366.2 moveto
48792.6 35422.4 lineto
48680.1 35591.1 lineto
48623.9 35703.6 lineto
48567.6 35872.3 lineto
48511.4 36153.6 lineto
48511.4 36378.5 lineto
48567.6 36659.7 lineto
48623.9 36828.5 lineto
48680.1 36941 lineto
48792.6 37109.7 lineto
48848.9 37165.9 lineto
stroke
newpath
49298.8 36603.5 moveto
49298.8 35816.1 lineto
stroke
newpath
49298.8 36491 moveto
49355 36547.3 lineto
49467.5 36603.5 lineto
49636.3 36603.5 lineto
49748.7 36547.3 lineto
49805 36434.8 lineto
49805 35816.1 lineto
stroke
newpath
50536.1 35816.1 moveto
50423.7 35872.3 lineto
50367.4 35928.6 lineto
50311.2 36041.1 lineto
50311.2 36378.5 lineto
50367.4 36491 lineto
50423.7 36547.3 lineto
50536.1 36603.5 lineto
50704.9 36603.5 lineto
50817.4 36547.3 lineto
50873.6 36491 lineto
50929.8 36378.5 lineto
50929.8 36041.1 lineto
50873.6 35928.6 lineto
50817.4 35872.3 lineto
50704.9 35816.1 lineto
50536.1 35816.1 lineto
stroke
newpath
51267.3 36603.5 moveto
51717.2 36603.5 lineto
stroke
newpath
51436 36997.2 moveto
51436 35984.8 lineto
51492.3 35872.3 lineto
51604.8 35816.1 lineto
51717.2 35816.1 lineto
stroke
newpath
53010.8 36603.5 moveto
53010.8 35422.4 lineto
stroke
newpath
53010.8 36547.3 moveto
53123.3 36603.5 lineto
53348.3 36603.5 lineto
53460.8 36547.3 lineto
53517 36491 lineto
53573.3 36378.5 lineto
53573.3 36041.1 lineto
53517 35928.6 lineto
53460.8 35872.3 lineto
53348.3 35816.1 lineto
53123.3 35816.1 lineto
53010.8 35872.3 lineto
stroke
newpath
54248.2 35816.1 moveto
54135.7 35872.3 lineto
54079.5 35984.8 lineto
54079.5 36997.2 lineto
stroke
newpath
55204.3 35816.1 moveto
55204.3 36434.8 lineto
55148.1 36547.3 lineto
55035.6 36603.5 lineto
54810.6 36603.5 lineto
54698.1 36547.3 lineto
stroke
newpath
55204.3 35872.3 moveto
55091.8 35816.1 lineto
54810.6 35816.1 lineto
54698.1 35872.3 lineto
54641.9 35984.8 lineto
54641.9 36097.3 lineto
54698.1 36209.8 lineto
54810.6 36266 lineto
55091.8 36266 lineto
55204.3 36322.3 lineto
stroke
newpath
55598 36603.5 moveto
56048 36603.5 lineto
stroke
newpath
55766.7 36997.2 moveto
55766.7 35984.8 lineto
55823 35872.3 lineto
55935.5 35816.1 lineto
56048 35816.1 lineto
stroke
newpath
56891.6 35872.3 moveto
56779.1 35816.1 lineto
56554.1 35816.1 lineto
56441.7 35872.3 lineto
56385.4 35984.8 lineto
56385.4 36434.8 lineto
56441.7 36547.3 lineto
56554.1 36603.5 lineto
56779.1 36603.5 lineto
56891.6 36547.3 lineto
56947.8 36434.8 lineto
56947.8 36322.3 lineto
56385.4 36209.8 lineto
stroke
newpath
57960.2 35816.1 moveto
57960.2 36997.2 lineto
stroke
newpath
57960.2 35872.3 moveto
57847.7 35816.1 lineto
57622.8 35816.1 lineto
57510.3 35872.3 lineto
57454 35928.6 lineto
57397.8 36041.1 lineto
57397.8 36378.5 lineto
57454 36491 lineto
57510.3 36547.3 lineto
57622.8 36603.5 lineto
57847.7 36603.5 lineto
57960.2 36547.3 lineto
stroke
newpath
58410.2 35366.2 moveto
58466.4 35422.4 lineto
58578.9 35591.1 lineto
58635.1 35703.6 lineto
58691.4 35872.3 lineto
58747.6 36153.6 lineto
58747.6 36378.5 lineto
58691.4 36659.7 lineto
58635.1 36828.5 lineto
58578.9 36941 lineto
58466.4 37109.7 lineto
58410.2 37165.9 lineto
stroke
19104.8 34692.9 944.882 cir0
0 0 0 setrgbcolor
0 0 0 setrgbcolor
newpath
21796 34158.6 moveto
21121.1 34158.6 lineto
stroke
newpath
21458.5 34158.6 moveto
21458.5 35339.7 lineto
21346 35171 lineto
21233.6 35058.5 lineto
21121.1 35002.3 lineto
stroke
newpath
22302.2 34271.1 moveto
22358.4 34214.9 lineto
22302.2 34158.6 lineto
22245.9 34214.9 lineto
22302.2 34271.1 lineto
22302.2 34158.6 lineto
stroke
newpath
23370.8 35339.7 moveto
23145.8 35339.7 lineto
23033.3 35283.5 lineto
22977.1 35227.2 lineto
22864.6 35058.5 lineto
22808.4 34833.5 lineto
22808.4 34383.6 lineto
22864.6 34271.1 lineto
22920.8 34214.9 lineto
23033.3 34158.6 lineto
23258.3 34158.6 lineto
23370.8 34214.9 lineto
23427 34271.1 lineto
23483.3 34383.6 lineto
23483.3 34664.8 lineto
23427 34777.3 lineto
23370.8 34833.5 lineto
23258.3 34889.8 lineto
23033.3 34889.8 lineto
22920.8 34833.5 lineto
22864.6 34777.3 lineto
22808.4 34664.8 lineto
stroke
newpath
24214.4 35339.7 moveto
24326.9 35339.7 lineto
24439.4 35283.5 lineto
24495.7 35227.2 lineto
24551.9 35114.8 lineto
24608.1 34889.8 lineto
24608.1 34608.6 lineto
24551.9 34383.6 lineto
24495.7 34271.1 lineto
24439.4 34214.9 lineto
24326.9 34158.6 lineto
24214.4 34158.6 lineto
24102 34214.9 lineto
24045.7 34271.1 lineto
23989.5 34383.6 lineto
23933.2 34608.6 lineto
23933.2 34889.8 lineto
23989.5 35114.8 lineto
24045.7 35227.2 lineto
24102 35283.5 lineto
24214.4 35339.7 lineto
stroke
newpath
25114.3 34158.6 moveto
25114.3 34946 lineto
stroke
newpath
25114.3 34833.5 moveto
25170.6 34889.8 lineto
25283.1 34946 lineto
25451.8 34946 lineto
25564.3 34889.8 lineto
25620.5 34777.3 lineto
25620.5 34158.6 lineto
stroke
newpath
25620.5 34777.3 moveto
25676.8 34889.8 lineto
25789.2 34946 lineto
25958 34946 lineto
26070.5 34889.8 lineto
26126.7 34777.3 lineto
26126.7 34158.6 lineto
stroke
newpath
26689.1 34158.6 moveto
26689.1 34946 lineto
stroke
newpath
26689.1 34833.5 moveto
26745.4 34889.8 lineto
26857.9 34946 lineto
27026.6 34946 lineto
27139.1 34889.8 lineto
27195.3 34777.3 lineto
27195.3 34158.6 lineto
stroke
newpath
27195.3 34777.3 moveto
27251.6 34889.8 lineto
27364 34946 lineto
27532.8 34946 lineto
27645.3 34889.8 lineto
27701.5 34777.3 lineto
27701.5 34158.6 lineto
stroke
newpath
30007.5 35396 moveto
28995.1 33877.4 lineto
stroke
newpath
31526 35339.7 moveto
31638.5 35339.7 lineto
31751 35283.5 lineto
31807.2 35227.2 lineto
31863.5 35114.8 lineto
31919.7 34889.8 lineto
31919.7 34608.6 lineto
31863.5 34383.6 lineto
31807.2 34271.1 lineto
31751 34214.9 lineto
31638.5 34158.6 lineto
31526 34158.6 lineto
31413.5 34214.9 lineto
31357.3 34271.1 lineto
31301.1 34383.6 lineto
31244.8 34608.6 lineto
31244.8 34889.8 lineto
31301.1 35114.8 lineto
31357.3 35227.2 lineto
31413.5 35283.5 lineto
31526 35339.7 lineto
stroke
newpath
32425.9 34271.1 moveto
32482.2 34214.9 lineto
32425.9 34158.6 lineto
32369.7 34214.9 lineto
32425.9 34271.1 lineto
32425.9 34158.6 lineto
stroke
newpath
33213.3 35339.7 moveto
33325.8 35339.7 lineto
33438.3 35283.5 lineto
33494.5 35227.2 lineto
33550.8 35114.8 lineto
33607 34889.8 lineto
33607 34608.6 lineto
33550.8 34383.6 lineto
33494.5 34271.1 lineto
33438.3 34214.9 lineto
33325.8 34158.6 lineto
33213.3 34158.6 lineto
33100.8 34214.9 lineto
33044.6 34271.1 lineto
32988.3 34383.6 lineto
32932.1 34608.6 lineto
32932.1 34889.8 lineto
32988.3 35114.8 lineto
33044.6 35227.2 lineto
33100.8 35283.5 lineto
33213.3 35339.7 lineto
stroke
newpath
34619.4 35339.7 moveto
34394.4 35339.7 lineto
34281.9 35283.5 lineto
34225.7 35227.2 lineto
34113.2 35058.5 lineto
34057 34833.5 lineto
34057 34383.6 lineto
34113.2 34271.1 lineto
34169.4 34214.9 lineto
34281.9 34158.6 lineto
34506.9 34158.6 lineto
34619.4 34214.9 lineto
34675.6 34271.1 lineto
34731.9 34383.6 lineto
34731.9 34664.8 lineto
34675.6 34777.3 lineto
34619.4 34833.5 lineto
34506.9 34889.8 lineto
34281.9 34889.8 lineto
34169.4 34833.5 lineto
34113.2 34777.3 lineto
34057 34664.8 lineto
stroke
newpath
35125.6 35339.7 moveto
35856.7 35339.7 lineto
35463 34889.8 lineto
35631.8 34889.8 lineto
35744.2 34833.5 lineto
35800.5 34777.3 lineto
35856.7 34664.8 lineto
35856.7 34383.6 lineto
35800.5 34271.1 lineto
35744.2 34214.9 lineto
35631.8 34158.6 lineto
35294.3 34158.6 lineto
35181.8 34214.9 lineto
35125.6 34271.1 lineto
stroke
newpath
36306.7 35339.7 moveto
36306.7 35114.8 lineto
stroke
newpath
36756.6 35339.7 moveto
36756.6 35114.8 lineto
stroke
newpath
38500.2 33708.7 moveto
38443.9 33764.9 lineto
38331.4 33933.6 lineto
38275.2 34046.1 lineto
38218.9 34214.9 lineto
38162.7 34496.1 lineto
38162.7 34721.1 lineto
38218.9 35002.3 lineto
38275.2 35171 lineto
38331.4 35283.5 lineto
38443.9 35452.2 lineto
38500.2 35508.5 lineto
stroke
newpath
39568.8 34158.6 moveto
38893.9 34158.6 lineto
stroke
newpath
39231.3 34158.6 moveto
39231.3 35339.7 lineto
39118.8 35171 lineto
39006.3 35058.5 lineto
38893.9 35002.3 lineto
stroke
newpath
40974.8 34158.6 moveto
40974.8 35339.7 lineto
stroke
newpath
41481 34158.6 moveto
41481 34777.3 lineto
41424.8 34889.8 lineto
41312.3 34946 lineto
41143.6 34946 lineto
41031.1 34889.8 lineto
40974.8 34833.5 lineto
stroke
newpath
42212.2 34158.6 moveto
42099.7 34214.9 lineto
42043.5 34271.1 lineto
41987.2 34383.6 lineto
41987.2 34721.1 lineto
42043.5 34833.5 lineto
42099.7 34889.8 lineto
42212.2 34946 lineto
42380.9 34946 lineto
42493.4 34889.8 lineto
42549.6 34833.5 lineto
42605.9 34721.1 lineto
42605.9 34383.6 lineto
42549.6 34271.1 lineto
42493.4 34214.9 lineto
42380.9 34158.6 lineto
42212.2 34158.6 lineto
stroke
newpath
43280.8 34158.6 moveto
43168.3 34214.9 lineto
43112.1 34327.3 lineto
43112.1 35339.7 lineto
stroke
newpath
44180.7 34214.9 moveto
44068.2 34158.6 lineto
43843.2 34158.6 lineto
43730.7 34214.9 lineto
43674.5 34327.3 lineto
43674.5 34777.3 lineto
43730.7 34889.8 lineto
43843.2 34946 lineto
44068.2 34946 lineto
44180.7 34889.8 lineto
44236.9 34777.3 lineto
44236.9 34664.8 lineto
43674.5 34552.3 lineto
stroke
newpath
44630.6 33708.7 moveto
44686.9 33764.9 lineto
44799.4 33933.6 lineto
44855.6 34046.1 lineto
44911.8 34214.9 lineto
44968.1 34496.1 lineto
44968.1 34721.1 lineto
44911.8 35002.3 lineto
44855.6 35171 lineto
44799.4 35283.5 lineto
44686.9 35452.2 lineto
44630.6 35508.5 lineto
stroke
newpath
46767.9 33708.7 moveto
46711.6 33764.9 lineto
46599.1 33933.6 lineto
46542.9 34046.1 lineto
46486.7 34214.9 lineto
46430.4 34496.1 lineto
46430.4 34721.1 lineto
46486.7 35002.3 lineto
46542.9 35171 lineto
46599.1 35283.5 lineto
46711.6 35452.2 lineto
46767.9 35508.5 lineto
stroke
newpath
47217.8 34946 moveto
47217.8 34158.6 lineto
stroke
newpath
47217.8 34833.5 moveto
47274.1 34889.8 lineto
47386.5 34946 lineto
47555.3 34946 lineto
47667.8 34889.8 lineto
47724 34777.3 lineto
47724 34158.6 lineto
stroke
newpath
48455.2 34158.6 moveto
48342.7 34214.9 lineto
48286.4 34271.1 lineto
48230.2 34383.6 lineto
48230.2 34721.1 lineto
48286.4 34833.5 lineto
48342.7 34889.8 lineto
48455.2 34946 lineto
48623.9 34946 lineto
48736.4 34889.8 lineto
48792.6 34833.5 lineto
48848.9 34721.1 lineto
48848.9 34383.6 lineto
48792.6 34271.1 lineto
48736.4 34214.9 lineto
48623.9 34158.6 lineto
48455.2 34158.6 lineto
stroke
newpath
49186.3 34946 moveto
49636.3 34946 lineto
stroke
newpath
49355 35339.7 moveto
49355 34327.3 lineto
49411.3 34214.9 lineto
49523.8 34158.6 lineto
49636.3 34158.6 lineto
stroke
newpath
50929.8 34946 moveto
50929.8 33764.9 lineto
stroke
newpath
50929.8 34889.8 moveto
51042.3 34946 lineto
51267.3 34946 lineto
51379.8 34889.8 lineto
51436 34833.5 lineto
51492.3 34721.1 lineto
51492.3 34383.6 lineto
51436 34271.1 lineto
51379.8 34214.9 lineto
51267.3 34158.6 lineto
51042.3 34158.6 lineto
50929.8 34214.9 lineto
stroke
newpath
52167.2 34158.6 moveto
52054.7 34214.9 lineto
51998.5 34327.3 lineto
51998.5 35339.7 lineto
stroke
newpath
53123.3 34158.6 moveto
53123.3 34777.3 lineto
53067.1 34889.8 lineto
52954.6 34946 lineto
52729.6 34946 lineto
52617.1 34889.8 lineto
stroke
newpath
53123.3 34214.9 moveto
53010.8 34158.6 lineto
52729.6 34158.6 lineto
52617.1 34214.9 lineto
52560.9 34327.3 lineto
52560.9 34439.8 lineto
52617.1 34552.3 lineto
52729.6 34608.6 lineto
53010.8 34608.6 lineto
53123.3 34664.8 lineto
stroke
newpath
53517 34946 moveto
53967 34946 lineto
stroke
newpath
53685.8 35339.7 moveto
53685.8 34327.3 lineto
53742 34214.9 lineto
53854.5 34158.6 lineto
53967 34158.6 lineto
stroke
newpath
54810.6 34214.9 moveto
54698.1 34158.6 lineto
54473.2 34158.6 lineto
54360.7 34214.9 lineto
54304.4 34327.3 lineto
54304.4 34777.3 lineto
54360.7 34889.8 lineto
54473.2 34946 lineto
54698.1 34946 lineto
54810.6 34889.8 lineto
54866.9 34777.3 lineto
54866.9 34664.8 lineto
54304.4 34552.3 lineto
stroke
newpath
55879.2 34158.6 moveto
55879.2 35339.7 lineto
stroke
newpath
55879.2 34214.9 moveto
55766.7 34158.6 lineto
55541.8 34158.6 lineto
55429.3 34214.9 lineto
55373 34271.1 lineto
55316.8 34383.6 lineto
55316.8 34721.1 lineto
55373 34833.5 lineto
55429.3 34889.8 lineto
55541.8 34946 lineto
55766.7 34946 lineto
55879.2 34889.8 lineto
stroke
newpath
56329.2 33708.7 moveto
56385.4 33764.9 lineto
56497.9 33933.6 lineto
56554.1 34046.1 lineto
56610.4 34214.9 lineto
56666.6 34496.1 lineto
56666.6 34721.1 lineto
56610.4 35002.3 lineto
56554.1 35171 lineto
56497.9 35283.5 lineto
56385.4 35452.2 lineto
56329.2 35508.5 lineto
stroke
newpath
18998.5 33342.5 moveto
18998.5 31240.2 lineto
stroke
newpath
17947.3 32291.4 moveto
20049.6 32291.4 lineto
stroke
0 0 0 setrgbcolor
0 0 0 setrgbcolor
newpath
21796 31757 moveto
21121.1 31757 lineto
stroke
newpath
21458.5 31757 moveto
21458.5 32938.1 lineto
21346 32769.4 lineto
21233.6 32656.9 lineto
21121.1 32600.7 lineto
stroke
newpath
22302.2 31869.5 moveto
22358.4 31813.3 lineto
22302.2 31757 lineto
22245.9 31813.3 lineto
22302.2 31869.5 lineto
22302.2 31757 lineto
stroke
newpath
22752.1 32938.1 moveto
23539.5 32938.1 lineto
23033.3 31757 lineto
stroke
newpath
24158.2 32432 moveto
24045.7 32488.2 lineto
23989.5 32544.4 lineto
23933.2 32656.9 lineto
23933.2 32713.2 lineto
23989.5 32825.7 lineto
24045.7 32881.9 lineto
24158.2 32938.1 lineto
24383.2 32938.1 lineto
24495.7 32881.9 lineto
24551.9 32825.7 lineto
24608.1 32713.2 lineto
24608.1 32656.9 lineto
24551.9 32544.4 lineto
24495.7 32488.2 lineto
24383.2 32432 lineto
24158.2 32432 lineto
24045.7 32375.7 lineto
23989.5 32319.5 lineto
23933.2 32207 lineto
23933.2 31982 lineto
23989.5 31869.5 lineto
24045.7 31813.3 lineto
24158.2 31757 lineto
24383.2 31757 lineto
24495.7 31813.3 lineto
24551.9 31869.5 lineto
24608.1 31982 lineto
24608.1 32207 lineto
24551.9 32319.5 lineto
24495.7 32375.7 lineto
24383.2 32432 lineto
stroke
newpath
25114.3 31757 moveto
25114.3 32544.4 lineto
stroke
newpath
25114.3 32432 moveto
25170.6 32488.2 lineto
25283.1 32544.4 lineto
25451.8 32544.4 lineto
25564.3 32488.2 lineto
25620.5 32375.7 lineto
25620.5 31757 lineto
stroke
newpath
25620.5 32375.7 moveto
25676.8 32488.2 lineto
25789.2 32544.4 lineto
25958 32544.4 lineto
26070.5 32488.2 lineto
26126.7 32375.7 lineto
26126.7 31757 lineto
stroke
newpath
26689.1 31757 moveto
26689.1 32544.4 lineto
stroke
newpath
26689.1 32432 moveto
26745.4 32488.2 lineto
26857.9 32544.4 lineto
27026.6 32544.4 lineto
27139.1 32488.2 lineto
27195.3 32375.7 lineto
27195.3 31757 lineto
stroke
newpath
27195.3 32375.7 moveto
27251.6 32488.2 lineto
27364 32544.4 lineto
27532.8 32544.4 lineto
27645.3 32488.2 lineto
27701.5 32375.7 lineto
27701.5 31757 lineto
stroke
newpath
30007.5 32994.4 moveto
28995.1 31475.8 lineto
stroke
newpath
31526 32938.1 moveto
31638.5 32938.1 lineto
31751 32881.9 lineto
31807.2 32825.7 lineto
31863.5 32713.2 lineto
31919.7 32488.2 lineto
31919.7 32207 lineto
31863.5 31982 lineto
31807.2 31869.5 lineto
31751 31813.3 lineto
31638.5 31757 lineto
31526 31757 lineto
31413.5 31813.3 lineto
31357.3 31869.5 lineto
31301.1 31982 lineto
31244.8 32207 lineto
31244.8 32488.2 lineto
31301.1 32713.2 lineto
31357.3 32825.7 lineto
31413.5 32881.9 lineto
31526 32938.1 lineto
stroke
newpath
32425.9 31869.5 moveto
32482.2 31813.3 lineto
32425.9 31757 lineto
32369.7 31813.3 lineto
32425.9 31869.5 lineto
32425.9 31757 lineto
stroke
newpath
33213.3 32938.1 moveto
33325.8 32938.1 lineto
33438.3 32881.9 lineto
33494.5 32825.7 lineto
33550.8 32713.2 lineto
33607 32488.2 lineto
33607 32207 lineto
33550.8 31982 lineto
33494.5 31869.5 lineto
33438.3 31813.3 lineto
33325.8 31757 lineto
33213.3 31757 lineto
33100.8 31813.3 lineto
33044.6 31869.5 lineto
32988.3 31982 lineto
32932.1 32207 lineto
32932.1 32488.2 lineto
32988.3 32713.2 lineto
33044.6 32825.7 lineto
33100.8 32881.9 lineto
33213.3 32938.1 lineto
stroke
newpath
34000.7 32938.1 moveto
34788.1 32938.1 lineto
34281.9 31757 lineto
stroke
newpath
35463 32938.1 moveto
35575.5 32938.1 lineto
35688 32881.9 lineto
35744.2 32825.7 lineto
35800.5 32713.2 lineto
35856.7 32488.2 lineto
35856.7 32207 lineto
35800.5 31982 lineto
35744.2 31869.5 lineto
35688 31813.3 lineto
35575.5 31757 lineto
35463 31757 lineto
35350.5 31813.3 lineto
35294.3 31869.5 lineto
35238.1 31982 lineto
35181.8 32207 lineto
35181.8 32488.2 lineto
35238.1 32713.2 lineto
35294.3 32825.7 lineto
35350.5 32881.9 lineto
35463 32938.1 lineto
stroke
newpath
36306.7 32938.1 moveto
36306.7 32713.2 lineto
stroke
newpath
36756.6 32938.1 moveto
36756.6 32713.2 lineto
stroke
newpath
38500.2 31307.1 moveto
38443.9 31363.3 lineto
38331.4 31532.1 lineto
38275.2 31644.6 lineto
38218.9 31813.3 lineto
38162.7 32094.5 lineto
38162.7 32319.5 lineto
38218.9 32600.7 lineto
38275.2 32769.4 lineto
38331.4 32881.9 lineto
38443.9 33050.6 lineto
38500.2 33106.9 lineto
stroke
newpath
38893.9 32825.7 moveto
38950.1 32881.9 lineto
39062.6 32938.1 lineto
39343.8 32938.1 lineto
39456.3 32881.9 lineto
39512.5 32825.7 lineto
39568.8 32713.2 lineto
39568.8 32600.7 lineto
39512.5 32432 lineto
38837.6 31757 lineto
39568.8 31757 lineto
stroke
newpath
40974.8 31757 moveto
40974.8 32938.1 lineto
stroke
newpath
41481 31757 moveto
41481 32375.7 lineto
41424.8 32488.2 lineto
41312.3 32544.4 lineto
41143.6 32544.4 lineto
41031.1 32488.2 lineto
40974.8 32432 lineto
stroke
newpath
42212.2 31757 moveto
42099.7 31813.3 lineto
42043.5 31869.5 lineto
41987.2 31982 lineto
41987.2 32319.5 lineto
42043.5 32432 lineto
42099.7 32488.2 lineto
42212.2 32544.4 lineto
42380.9 32544.4 lineto
42493.4 32488.2 lineto
42549.6 32432 lineto
42605.9 32319.5 lineto
42605.9 31982 lineto
42549.6 31869.5 lineto
42493.4 31813.3 lineto
42380.9 31757 lineto
42212.2 31757 lineto
stroke
newpath
43280.8 31757 moveto
43168.3 31813.3 lineto
43112.1 31925.8 lineto
43112.1 32938.1 lineto
stroke
newpath
44180.7 31813.3 moveto
44068.2 31757 lineto
43843.2 31757 lineto
43730.7 31813.3 lineto
43674.5 31925.8 lineto
43674.5 32375.7 lineto
43730.7 32488.2 lineto
43843.2 32544.4 lineto
44068.2 32544.4 lineto
44180.7 32488.2 lineto
44236.9 32375.7 lineto
44236.9 32263.2 lineto
43674.5 32150.7 lineto
stroke
newpath
44686.9 31813.3 moveto
44799.4 31757 lineto
45024.3 31757 lineto
45136.8 31813.3 lineto
45193.1 31925.8 lineto
45193.1 31982 lineto
45136.8 32094.5 lineto
45024.3 32150.7 lineto
44855.6 32150.7 lineto
44743.1 32207 lineto
44686.9 32319.5 lineto
44686.9 32375.7 lineto
44743.1 32488.2 lineto
44855.6 32544.4 lineto
45024.3 32544.4 lineto
45136.8 32488.2 lineto
stroke
newpath
45586.8 31307.1 moveto
45643 31363.3 lineto
45755.5 31532.1 lineto
45811.7 31644.6 lineto
45868 31813.3 lineto
45924.2 32094.5 lineto
45924.2 32319.5 lineto
45868 32600.7 lineto
45811.7 32769.4 lineto
45755.5 32881.9 lineto
45643 33050.6 lineto
45586.8 33106.9 lineto
stroke
newpath
47724 31307.1 moveto
47667.8 31363.3 lineto
47555.3 31532.1 lineto
47499 31644.6 lineto
47442.8 31813.3 lineto
47386.5 32094.5 lineto
47386.5 32319.5 lineto
47442.8 32600.7 lineto
47499 32769.4 lineto
47555.3 32881.9 lineto
47667.8 33050.6 lineto
47724 33106.9 lineto
stroke
newpath
48173.9 32544.4 moveto
48173.9 31757 lineto
stroke
newpath
48173.9 32432 moveto
48230.2 32488.2 lineto
48342.7 32544.4 lineto
48511.4 32544.4 lineto
48623.9 32488.2 lineto
48680.1 32375.7 lineto
48680.1 31757 lineto
stroke
newpath
49411.3 31757 moveto
49298.8 31813.3 lineto
49242.6 31869.5 lineto
49186.3 31982 lineto
49186.3 32319.5 lineto
49242.6 32432 lineto
49298.8 32488.2 lineto
49411.3 32544.4 lineto
49580 32544.4 lineto
49692.5 32488.2 lineto
49748.7 32432 lineto
49805 32319.5 lineto
49805 31982 lineto
49748.7 31869.5 lineto
49692.5 31813.3 lineto
49580 31757 lineto
49411.3 31757 lineto
stroke
newpath
50142.4 32544.4 moveto
50592.4 32544.4 lineto
stroke
newpath
50311.2 32938.1 moveto
50311.2 31925.8 lineto
50367.4 31813.3 lineto
50479.9 31757 lineto
50592.4 31757 lineto
stroke
newpath
51886 32544.4 moveto
51886 31363.3 lineto
stroke
newpath
51886 32488.2 moveto
51998.5 32544.4 lineto
52223.4 32544.4 lineto
52335.9 32488.2 lineto
52392.2 32432 lineto
52448.4 32319.5 lineto
52448.4 31982 lineto
52392.2 31869.5 lineto
52335.9 31813.3 lineto
52223.4 31757 lineto
51998.5 31757 lineto
51886 31813.3 lineto
stroke
newpath
53123.3 31757 moveto
53010.8 31813.3 lineto
52954.6 31925.8 lineto
52954.6 32938.1 lineto
stroke
newpath
54079.5 31757 moveto
54079.5 32375.7 lineto
54023.2 32488.2 lineto
53910.7 32544.4 lineto
53685.8 32544.4 lineto
53573.3 32488.2 lineto
stroke
newpath
54079.5 31813.3 moveto
53967 31757 lineto
53685.8 31757 lineto
53573.3 31813.3 lineto
53517 31925.8 lineto
53517 32038.3 lineto
53573.3 32150.7 lineto
53685.8 32207 lineto
53967 32207 lineto
54079.5 32263.2 lineto
stroke
newpath
54473.2 32544.4 moveto
54923.1 32544.4 lineto
stroke
newpath
54641.9 32938.1 moveto
54641.9 31925.8 lineto
54698.1 31813.3 lineto
54810.6 31757 lineto
54923.1 31757 lineto
stroke
newpath
55766.7 31813.3 moveto
55654.3 31757 lineto
55429.3 31757 lineto
55316.8 31813.3 lineto
55260.6 31925.8 lineto
55260.6 32375.7 lineto
55316.8 32488.2 lineto
55429.3 32544.4 lineto
55654.3 32544.4 lineto
55766.7 32488.2 lineto
55823 32375.7 lineto
55823 32263.2 lineto
55260.6 32150.7 lineto
stroke
newpath
56835.4 31757 moveto
56835.4 32938.1 lineto
stroke
newpath
56835.4 31813.3 moveto
56722.9 31757 lineto
56497.9 31757 lineto
56385.4 31813.3 lineto
56329.2 31869.5 lineto
56272.9 31982 lineto
56272.9 32319.5 lineto
56329.2 32432 lineto
56385.4 32488.2 lineto
56497.9 32544.4 lineto
56722.9 32544.4 lineto
56835.4 32488.2 lineto
stroke
newpath
57285.3 31307.1 moveto
57341.5 31363.3 lineto
57454 31532.1 lineto
57510.3 31644.6 lineto
57566.5 31813.3 lineto
57622.8 32094.5 lineto
57622.8 32319.5 lineto
57566.5 32600.7 lineto
57510.3 32769.4 lineto
57454 32881.9 lineto
57341.5 33050.6 lineto
57285.3 33106.9 lineto
stroke
showpage
grestore
%%EOF
