EESchema Schematic File Version 4
LIBS:LED_Battery_Circuit-cache
EELAYER 29 0
EELAYER END
$Descr A4 11693 8268
encoding utf-8
Sheet 1 1
Title ""
Date ""
Rev ""
Comp ""
Comment1 ""
Comment2 ""
Comment3 ""
Comment4 ""
$EndDescr
Text Notes 7065 6715 0    50   ~ 0
NDXBRE004\nBrennan Naidoo\n
Text Notes 10575 7630 0    50   ~ 0
1.0\n
Text Notes 8145 7715 0    50   ~ 0
31/05/2021\n\n
Text Notes 7325 7575 0    50   ~ 0
UPS uHat LED Battery detection circuit\n\n
Wire Wire Line
	2740 4000 3965 4000
$Comp
L Device:R_Small_US R1
U 1 1 60B696FA
P 4820 4435
F 0 "R1" H 4888 4481 50  0000 L CNN
F 1 "21" H 4630 4420 50  0000 L CNN
F 2 "Resistor_THT:R_Axial_DIN0309_L9.0mm_D3.2mm_P12.70mm_Horizontal" H 4820 4435 50  0001 C CNN
F 3 "~" H 4820 4435 50  0001 C CNN
	1    4820 4435
	1    0    0    -1  
$EndComp
Wire Wire Line
	4820 4535 4820 4845
$Comp
L Device:R_Small_US R2
U 1 1 60B6B541
P 5385 4455
F 0 "R2" H 5453 4501 50  0000 L CNN
F 1 "60.4" H 5140 4455 50  0000 L CNN
F 2 "Resistor_THT:R_Axial_DIN0309_L9.0mm_D3.2mm_P12.70mm_Horizontal" H 5385 4455 50  0001 C CNN
F 3 "~" H 5385 4455 50  0001 C CNN
	1    5385 4455
	1    0    0    -1  
$EndComp
$Comp
L Device:D_Zener D1
U 1 1 60B6C09A
P 4820 4995
F 0 "D1" V 4774 5074 50  0000 L CNN
F 1 "10" V 4840 4755 50  0000 L CNN
F 2 "Diode_THT:D_A-405_P10.16mm_Horizontal" H 4820 4995 50  0001 C CNN
F 3 "~" H 4820 4995 50  0001 C CNN
	1    4820 4995
	0    1    1    0   
$EndComp
$Comp
L Device:D_Zener D3
U 1 1 60B6DE51
P 5385 5000
F 0 "D3" V 5339 5079 50  0000 L CNN
F 1 "9.1" V 5395 4785 50  0000 L CNN
F 2 "Diode_THT:D_A-405_P10.16mm_Horizontal" H 5385 5000 50  0001 C CNN
F 3 "~" H 5385 5000 50  0001 C CNN
	1    5385 5000
	0    1    1    0   
$EndComp
Wire Wire Line
	5385 4555 5385 4850
Wire Wire Line
	5385 4000 5385 4355
Wire Wire Line
	4820 4000 4820 4335
Wire Wire Line
	4820 4000 5385 4000
Connection ~ 4820 4000
$Comp
L Device:R_Small_US R3
U 1 1 60B7EFE1
P 5950 4455
F 0 "R3" H 6018 4501 50  0000 L CNN
F 1 "95.3" H 5720 4455 50  0000 L CNN
F 2 "Resistor_THT:R_Axial_DIN0309_L9.0mm_D3.2mm_P12.70mm_Horizontal" H 5950 4455 50  0001 C CNN
F 3 "~" H 5950 4455 50  0001 C CNN
	1    5950 4455
	1    0    0    -1  
$EndComp
$Comp
L Device:D_Zener D5
U 1 1 60B7EFE7
P 5950 5000
F 0 "D5" V 5904 5079 50  0000 L CNN
F 1 "8.2" V 5945 4780 50  0000 L CNN
F 2 "Diode_THT:D_A-405_P10.16mm_Horizontal" H 5950 5000 50  0001 C CNN
F 3 "~" H 5950 5000 50  0001 C CNN
	1    5950 5000
	0    1    1    0   
$EndComp
Wire Wire Line
	5950 4555 5950 4850
Wire Wire Line
	5950 5150 5950 5300
Wire Wire Line
	5950 4000 5950 4355
Wire Wire Line
	5385 4000 5950 4000
Wire Wire Line
	4820 5145 4820 5280
$Comp
L Device:LED D2
U 1 1 60B82880
P 4820 5430
F 0 "D2" V 4859 5313 50  0000 R CNN
F 1 "LED" V 4768 5313 50  0000 R CNN
F 2 "LED_SMD:LED_2816_7142Metric_Pad3.20x4.45mm_HandSolder" H 4820 5430 50  0001 C CNN
F 3 "~" H 4820 5430 50  0001 C CNN
	1    4820 5430
	0    -1   -1   0   
$EndComp
Wire Wire Line
	5385 5150 5385 5300
$Comp
L Device:LED D4
U 1 1 60B844E3
P 5385 5450
F 0 "D4" V 5424 5333 50  0000 R CNN
F 1 "LED" V 5333 5333 50  0000 R CNN
F 2 "LED_SMD:LED_2816_7142Metric_Pad3.20x4.45mm_HandSolder" H 5385 5450 50  0001 C CNN
F 3 "~" H 5385 5450 50  0001 C CNN
	1    5385 5450
	0    -1   -1   0   
$EndComp
$Comp
L Device:LED D6
U 1 1 60B8520F
P 5950 5450
F 0 "D6" V 5989 5333 50  0000 R CNN
F 1 "LED" V 5898 5333 50  0000 R CNN
F 2 "LED_SMD:LED_2816_7142Metric_Pad3.20x4.45mm_HandSolder" H 5950 5450 50  0001 C CNN
F 3 "~" H 5950 5450 50  0001 C CNN
	1    5950 5450
	0    -1   -1   0   
$EndComp
Wire Wire Line
	4820 5880 4820 5580
Wire Wire Line
	5950 5880 5950 5600
$Comp
L Switch:SW_Push SW1
U 1 1 60B8B64B
P 4165 4000
F 0 "SW1" H 4165 4285 50  0000 C CNN
F 1 "SW_Push" H 4165 4194 50  0000 C CNN
F 2 "Button_Switch_THT:SW_PUSH_6mm_H5mm" H 4165 4200 50  0001 C CNN
F 3 "~" H 4165 4200 50  0001 C CNN
	1    4165 4000
	1    0    0    -1  
$EndComp
Wire Wire Line
	4365 4000 4820 4000
NoConn ~ 2740 4000
Text Label 3490 4000 0    50   ~ 0
Vbatt
Wire Wire Line
	4820 5880 5385 5880
Wire Wire Line
	5385 5880 5950 5880
Wire Wire Line
	5385 5600 5385 5880
Connection ~ 5385 5880
Wire Wire Line
	5385 5880 5385 6055
$Comp
L power:GND #PWR0101
U 1 1 60B8E00E
P 5385 6055
F 0 "#PWR0101" H 5385 5805 50  0001 C CNN
F 1 "GND" H 5390 5882 50  0000 C CNN
F 2 "" H 5385 6055 50  0001 C CNN
F 3 "" H 5385 6055 50  0001 C CNN
	1    5385 6055
	1    0    0    -1  
$EndComp
Connection ~ 5385 4000
$EndSCHEMATC
