EESchema Schematic File Version 4
EELAYER 29 0
EELAYER END
$Descr A4 11693 8268
encoding utf-8
Sheet 1 1
Title ""
Date ""
Rev ""
Comp ""
Comment1 ""
Comment2 ""
Comment3 ""
Comment4 ""
$EndDescr
Text Notes 7470 6800 0    50   ~ 0
ZVD Circuit: Circuit meant to prevent current backflow in Hat \n
Text Notes 7430 7495 0    50   ~ 0
ZVD CCT
Text Notes 10640 7625 0    50   ~ 0
1\n
Text Notes 8170 7630 0    50   ~ 0
04/06/2021
Text Notes 7485 6930 0    50   ~ 0
Design from: https://github.com/raspberrypi/hats/blob/master/zvd-circuit.png
$Comp
L DMG2305UX-7:DMG2305UX-7 Q1
U 1 1 60B953B3
P 5975 3630
F 0 "Q1" V 6310 3630 50  0000 C CNN
F 1 "DMG2305UX-7" V 6219 3630 50  0000 C CNN
F 2 "DMG2305UX-7:SOT91P240X110-3N_DMG2305UX-7" H 5975 3630 50  0001 L BNN
F 3 "" H 5975 3630 50  0001 L BNN
F 4 "IPC-7351B" H 5975 3630 50  0001 L BNN "STANDARD"
F 5 "1.1mm" H 5975 3630 50  0001 L BNN "MAXIMUM_PACKAGE_HEIGHT"
F 6 "09/2018" H 5975 3630 50  0001 L BNN "PARTREV"
F 7 "Diodes Inc." H 5975 3630 50  0001 L BNN "MANUFACTURER"
	1    5975 3630
	0    -1   -1   0   
$EndComp
$Comp
L power:GND #PWR01
U 1 1 60BA340E
P 6005 5300
F 0 "#PWR01" H 6005 5050 50  0001 C CNN
F 1 "GND" H 6010 5127 50  0000 C CNN
F 2 "" H 6005 5300 50  0001 C CNN
F 3 "" H 6005 5300 50  0001 C CNN
	1    6005 5300
	1    0    0    -1  
$EndComp
$Comp
L Device:R_US R1
U 1 1 60BA204C
P 6005 4925
F 0 "R1" H 6073 4971 50  0000 L CNN
F 1 "10k" H 6073 4880 50  0000 L CNN
F 2 "Resistor_THT:R_Axial_DIN0309_L9.0mm_D3.2mm_P5.08mm_Vertical" V 6045 4915 50  0001 C CNN
F 3 "~" H 6005 4925 50  0001 C CNN
	1    6005 4925
	1    0    0    -1  
$EndComp
Wire Wire Line
	6005 4775 6005 4540
Wire Wire Line
	6005 5075 6005 5300
Wire Wire Line
	6155 4305 6155 4540
Wire Wire Line
	6155 4540 6005 4540
Connection ~ 6005 4540
Wire Wire Line
	6005 4540 6005 4305
Wire Wire Line
	6330 4305 6330 4540
Wire Wire Line
	6330 4540 6155 4540
Connection ~ 6155 4540
$Comp
L Device:R_US R2
U 1 1 60BA88B9
P 6505 4940
F 0 "R2" H 6573 4986 50  0000 L CNN
F 1 "47k" H 6573 4895 50  0000 L CNN
F 2 "Resistor_THT:R_Axial_DIN0309_L9.0mm_D3.2mm_P5.08mm_Vertical" V 6545 4930 50  0001 C CNN
F 3 "~" H 6505 4940 50  0001 C CNN
	1    6505 4940
	1    0    0    -1  
$EndComp
$Comp
L DMMT5401-7:DMMT5401-7 Q2
U 1 1 60B95D94
P 6080 4105
F 0 "Q2" H 6410 4164 50  0000 L CNN
F 1 "DMMT5401-7" H 6410 4073 50  0000 L CNN
F 2 "DMMT5401-7:SOT26" H 6080 4105 50  0001 L BNN
F 3 "" H 6080 4105 50  0001 L BNN
	1    6080 4105
	1    0    0    -1  
$EndComp
$Comp
L power:GND #PWR02
U 1 1 60BAAAD4
P 6505 5300
F 0 "#PWR02" H 6505 5050 50  0001 C CNN
F 1 "GND" H 6510 5127 50  0000 C CNN
F 2 "" H 6505 5300 50  0001 C CNN
F 3 "" H 6505 5300 50  0001 C CNN
	1    6505 5300
	1    0    0    -1  
$EndComp
Wire Wire Line
	6505 5300 6505 5090
Wire Wire Line
	6505 4790 6505 3880
Wire Wire Line
	6330 3880 6505 3880
Wire Wire Line
	6075 3730 6505 3730
Wire Wire Line
	6505 3730 6505 3880
Connection ~ 6505 3880
Wire Wire Line
	6005 3880 6005 3780
Wire Wire Line
	6005 3780 5650 3780
Wire Wire Line
	5775 3530 5650 3530
Wire Wire Line
	5650 3530 5650 3780
Connection ~ 5650 3780
Wire Wire Line
	5650 3780 5390 3780
Text Label 5390 3780 2    50   ~ 0
ZVD_INPUT
Wire Wire Line
	6130 3880 6130 3780
Wire Wire Line
	6130 3780 6670 3780
Wire Wire Line
	6175 3530 6670 3530
Wire Wire Line
	6670 3530 6670 3780
Connection ~ 6670 3780
Wire Wire Line
	6670 3780 7120 3780
Text Label 7120 3780 0    50   ~ 0
ZVD_OUTPUT
$EndSCHEMATC
